Forwarding_SRAM/10_sim/fwd_SRAM_tb.vcd
$date
	Thu Dec  5 11:12:00 2024
$end
$version
	Icarus Verilog
$end
$timescale
	1ps
$end
$scope module fwd_SRAM_tb $end
$var wire 32 ! reg0 [31:0] $end
$var wire 32 " reg1 [31:0] $end
$var wire 32 # reg10 [31:0] $end
$var wire 32 $ reg11 [31:0] $end
$var wire 32 % reg12 [31:0] $end
$var wire 32 & reg13 [31:0] $end
$var wire 32 ' reg14 [31:0] $end
$var wire 32 ( reg15 [31:0] $end
$var wire 32 ) reg16 [31:0] $end
$var wire 32 * reg17 [31:0] $end
$var wire 32 + reg18 [31:0] $end
$var wire 32 , reg19 [31:0] $end
$var wire 32 - reg2 [31:0] $end
$var wire 32 . reg20 [31:0] $end
$var wire 32 / reg21 [31:0] $end
$var wire 32 0 reg22 [31:0] $end
$var wire 32 1 reg23 [31:0] $end
$var wire 32 2 reg24 [31:0] $end
$var wire 32 3 reg25 [31:0] $end
$var wire 32 4 reg26 [31:0] $end
$var wire 32 5 reg27 [31:0] $end
$var wire 32 6 reg28 [31:0] $end
$var wire 32 7 reg29 [31:0] $end
$var wire 32 8 reg3 [31:0] $end
$var wire 32 9 reg30 [31:0] $end
$var wire 32 : reg31 [31:0] $end
$var wire 32 ; reg4 [31:0] $end
$var wire 32 < reg5 [31:0] $end
$var wire 32 = reg6 [31:0] $end
$var wire 32 > reg7 [31:0] $end
$var wire 32 ? reg8 [31:0] $end
$var wire 32 @ reg9 [31:0] $end
$var wire 7 A type_instr [6:0] $end
$var wire 32 B o_pc_debug [31:0] $end
$var wire 32 C o_io_ledr [31:0] $end
$var wire 32 D o_io_ledg [31:0] $end
$var wire 32 E o_io_lcd [31:0] $end
$var wire 7 F o_io_hex7 [6:0] $end
$var wire 7 G o_io_hex6 [6:0] $end
$var wire 7 H o_io_hex5 [6:0] $end
$var wire 7 I o_io_hex4 [6:0] $end
$var wire 7 J o_io_hex3 [6:0] $end
$var wire 7 K o_io_hex2 [6:0] $end
$var wire 7 L o_io_hex1 [6:0] $end
$var wire 7 M o_io_hex0 [6:0] $end
$var wire 1 N o_insn_vld $end
$var reg 1 O i_clk $end
$var reg 4 P i_io_btn [3:0] $end
$var reg 32 Q i_io_sw [31:0] $end
$var reg 1 R i_rst_n $end
$var integer 32 S nop_count [31:0] $end
$scope module fwd_SRAM_inst $end
$var wire 1 O i_clk $end
$var wire 4 T i_io_btn [3:0] $end
$var wire 32 U i_io_sw [31:0] $end
$var wire 1 R i_rstn $end
$var wire 1 N o_insn_vld $end
$var wire 1 V sram_stall $end
$var wire 2 W rs2_sel [1:0] $end
$var wire 2 X rs1_sel [1:0] $end
$var wire 1 Y pc_wren $end
$var wire 1 Z o_sram_we_n $end
$var wire 1 [ o_sram_ub_o $end
$var wire 1 \ o_sram_lb_n $end
$var wire 1 ] o_sram_ce_n $end
$var wire 18 ^ o_sram_addr [17:0] $end
$var wire 32 _ o_io_ledr [31:0] $end
$var wire 32 ` o_io_ledg [31:0] $end
$var wire 32 a o_io_lcd [31:0] $end
$var wire 7 b o_io_hex7 [6:0] $end
$var wire 7 c o_io_hex6 [6:0] $end
$var wire 7 d o_io_hex5 [6:0] $end
$var wire 7 e o_io_hex4 [6:0] $end
$var wire 7 f o_io_hex3 [6:0] $end
$var wire 7 g o_io_hex2 [6:0] $end
$var wire 7 h o_io_hex1 [6:0] $end
$var wire 7 i o_io_hex0 [6:0] $end
$var wire 1 j mem_ctrl_mux $end
$var wire 1 k mem_ack $end
$var wire 16 l io_sram_dq [15:0] $end
$var wire 1 m i_sram_oe_n $end
$var wire 1 n cs0 $end
$var wire 32 o WB_rd_data [31:0] $end
$var wire 32 p MEM_lsu_rdata [31:0] $end
$var wire 1 q MEMWBreg_wren $end
$var wire 32 r IF_pcplus4 [31:0] $end
$var wire 32 s IF_pcnext [31:0] $end
$var wire 32 t IF_instr [31:0] $end
$var wire 1 u IFIDreg_wren $end
$var wire 1 v IFIDreg_clr $end
$var wire 5 w IFID_rs2 [4:0] $end
$var wire 5 x IFID_rs1 [4:0] $end
$var wire 5 y IFID_rd [4:0] $end
$var wire 3 z IFID_func3 [2:0] $end
$var wire 1 { ID_wb_sel $end
$var wire 32 | ID_rs2_data [31:0] $end
$var wire 32 } ID_rs1_data [31:0] $end
$var wire 1 ~ ID_rd_wren $end
$var wire 2 !" ID_opb_sel [1:0] $end
$var wire 1 "" ID_opa_sel $end
$var wire 1 #" ID_mem_wren $end
$var wire 1 $" ID_mem_rden $end
$var wire 2 %" ID_is_uncbr [1:0] $end
$var wire 1 &" ID_is_br $end
$var wire 1 '" ID_insn_vld $end
$var wire 32 (" ID_imm [31:0] $end
$var wire 4 )" ID_alu_op [3:0] $end
$var wire 1 *" IDEXreg_wren $end
$var wire 1 +" IDEXreg_clr $end
$var wire 1 ," EX_pcsel $end
$var wire 32 -" EX_fwd_rs2_data [31:0] $end
$var wire 32 ." EX_fwd_rs1_data [31:0] $end
$var wire 32 /" EX_br_base [31:0] $end
$var wire 32 0" EX_br_addr [31:0] $end
$var wire 32 1" EX_alu_opb [31:0] $end
$var wire 32 2" EX_alu_opa [31:0] $end
$var wire 32 3" EX_alu_data [31:0] $end
$var wire 1 4" EXMEMreg_wren $end
$var wire 1 5" EXMEMreg_clr $end
$var reg 32 6" EXMEM_alu_data [31:0] $end
$var reg 32 7" EXMEM_br_addr [31:0] $end
$var reg 3 8" EXMEM_func3 [2:0] $end
$var reg 1 9" EXMEM_insn_vld $end
$var reg 1 :" EXMEM_is_br $end
$var reg 2 ;" EXMEM_is_uncbr [1:0] $end
$var reg 1 <" EXMEM_mem_rden $end
$var reg 1 =" EXMEM_mem_wren $end
$var reg 1 >" EXMEM_pcsel $end
$var reg 5 ?" EXMEM_rd [4:0] $end
$var reg 1 @" EXMEM_rd_wren $end
$var reg 32 A" EXMEM_rs2_data [31:0] $end
$var reg 1 B" EXMEM_wb_sel $end
$var reg 4 C" IDEX_alu_op [3:0] $end
$var reg 3 D" IDEX_func3 [2:0] $end
$var reg 32 E" IDEX_imm [31:0] $end
$var reg 1 F" IDEX_insn_vld $end
$var reg 1 G" IDEX_is_br $end
$var reg 2 H" IDEX_is_uncbr [1:0] $end
$var reg 1 I" IDEX_mem_rden $end
$var reg 1 J" IDEX_mem_wren $end
$var reg 1 K" IDEX_opa_sel $end
$var reg 2 L" IDEX_opb_sel [1:0] $end
$var reg 32 M" IDEX_pc [31:0] $end
$var reg 32 N" IDEX_pcplus4 [31:0] $end
$var reg 5 O" IDEX_rd [4:0] $end
$var reg 1 P" IDEX_rd_wren $end
$var reg 5 Q" IDEX_rs1 [4:0] $end
$var reg 32 R" IDEX_rs1_data [31:0] $end
$var reg 5 S" IDEX_rs2 [4:0] $end
$var reg 32 T" IDEX_rs2_data [31:0] $end
$var reg 1 U" IDEX_wb_sel $end
$var reg 32 V" IFID_instr [31:0] $end
$var reg 32 W" IFID_pc [31:0] $end
$var reg 32 X" IFID_pcplus4 [31:0] $end
$var reg 32 Y" IF_pc [31:0] $end
$var reg 32 Z" MEMWB_alu_data [31:0] $end
$var reg 1 [" MEMWB_insn_vld $end
$var reg 32 \" MEMWB_lsu_rdata [31:0] $end
$var reg 5 ]" MEMWB_rd [4:0] $end
$var reg 1 ^" MEMWB_rd_wren $end
$var reg 1 _" MEMWB_wb_sel $end
$var reg 32 `" o_pc_debug [31:0] $end
$var reg 1 a" true_mem_rden $end
$var reg 1 b" true_mem_wren $end
$scope module ctrl_fsm_inst $end
$var wire 1 O clk $end
$var wire 1 <" rden $end
$var wire 1 R rstn $end
$var wire 1 c" stall_cond $end
$var wire 1 =" wren $end
$var wire 1 n cs0 $end
$var wire 1 k ack $end
$var parameter 1 d" PROCESS $end
$var parameter 1 e" STALL $end
$var reg 1 j mem_ctrl_mux $end
$var reg 1 f" next_state $end
$var reg 1 V sram_stall $end
$var reg 1 g" state $end
$upscope $end
$scope module fwd_unit_inst $end
$var wire 5 h" EXMEM_rd [4:0] $end
$var wire 1 @" EXMEM_rd_wren $end
$var wire 5 i" IDEX_rs1 [4:0] $end
$var wire 5 j" IDEX_rs2 [4:0] $end
$var wire 5 k" MEMWB_rd [4:0] $end
$var wire 1 ^" MEMWB_rd_wren $end
$var reg 2 l" rs1_sel [1:0] $end
$var reg 2 m" rs2_sel [1:0] $end
$upscope $end
$scope module inst_alu $end
$var wire 4 n" i_alu_op [3:0] $end
$var wire 32 o" i_operand_a [31:0] $end
$var wire 32 p" i_operand_b [31:0] $end
$var wire 32 q" o_alu_data [31:0] $end
$var wire 1 r" overflow $end
$var wire 1 s" signed_lt $end
$var wire 1 t" unsigned_lt $end
$var wire 32 u" temp_srl [31:0] $end
$var wire 32 v" temp_sra [31:0] $end
$var wire 32 w" temp_sll [31:0] $end
$var wire 32 x" temp [31:0] $end
$var wire 1 y" carry $end
$var reg 32 z" alu_temp [31:0] $end
$scope module u1 $end
$var wire 32 {" i_operand_a [31:0] $end
$var wire 5 |" i_operand_b [4:0] $end
$var wire 32 }" o_sll_data [31:0] $end
$var reg 32 ~" temp1 [31:0] $end
$var reg 32 !# temp2 [31:0] $end
$var reg 32 "# temp3 [31:0] $end
$var reg 32 ## temp4 [31:0] $end
$var reg 32 $# temp5 [31:0] $end
$upscope $end
$scope module u2 $end
$var wire 32 %# i_operand_a [31:0] $end
$var wire 5 &# i_operand_b [4:0] $end
$var wire 32 '# o_srl_data [31:0] $end
$var reg 32 (# temp1 [31:0] $end
$var reg 32 )# temp2 [31:0] $end
$var reg 32 *# temp3 [31:0] $end
$var reg 32 +# temp4 [31:0] $end
$var reg 32 ,# temp5 [31:0] $end
$upscope $end
$scope module u3 $end
$var wire 32 -# i_operand_a [31:0] $end
$var wire 5 .# i_operand_b [4:0] $end
$var wire 32 /# o_sra_data [31:0] $end
$var reg 32 0# temp1 [31:0] $end
$var reg 32 1# temp2 [31:0] $end
$var reg 32 2# temp3 [31:0] $end
$var reg 32 3# temp4 [31:0] $end
$var reg 32 4# temp5 [31:0] $end
$upscope $end
$upscope $end
$scope module inst_bru $end
$var wire 1 5# br_less $end
$var wire 1 6# br_less_uns $end
$var wire 3 7# func3 [2:0] $end
$var wire 1 G" is_br $end
$var wire 1 8# is_uncbr $end
$var wire 1 9# overflow $end
$var wire 32 :# rs1_data [31:0] $end
$var wire 32 ;# rs2_data [31:0] $end
$var wire 32 <# sub [31:0] $end
$var wire 1 =# carry $end
$var wire 1 ># br_equal $end
$var reg 1 ," pc_sel $end
$upscope $end
$scope module inst_ctrl_unit $end
$var wire 32 ?# instr [31:0] $end
$var wire 7 @# func7 [6:0] $end
$var wire 3 A# func3 [2:0] $end
$var parameter 7 B# B_type $end
$var parameter 7 C# I_type_IMM $end
$var parameter 7 D# I_type_JALR $end
$var parameter 7 E# I_type_LD $end
$var parameter 7 F# J_type $end
$var parameter 7 G# R_type $end
$var parameter 7 H# S_type $end
$var parameter 7 I# U_type_AUIPC $end
$var parameter 7 J# U_type_LUI $end
$var reg 4 K# alu_op [3:0] $end
$var reg 1 '" insn_vld $end
$var reg 1 &" is_br $end
$var reg 2 L# is_uncbr [1:0] $end
$var reg 1 $" mem_rden $end
$var reg 1 #" mem_wren $end
$var reg 1 "" op_a_sel $end
$var reg 2 M# op_b_sel [1:0] $end
$var reg 1 ~ rd_wren $end
$var reg 1 { wb_sel $end
$upscope $end
$scope module inst_hdu $end
$var wire 1 :" EXMEM_is_br $end
$var wire 1 N# EXMEM_is_uncbr $end
$var wire 1 >" EXMEM_pcsel $end
$var wire 1 I" IDEX_mem_rden $end
$var wire 5 O# IDEX_rd [4:0] $end
$var wire 1 P" IDEX_rdwren $end
$var wire 5 P# IFID_rs1 [4:0] $end
$var wire 5 Q# IFID_rs2 [4:0] $end
$var wire 1 V sram_stall $end
$var reg 1 5" EXMEM_clear $end
$var reg 1 4" EXMEM_wren $end
$var reg 1 +" IDEX_clear $end
$var reg 1 *" IDEX_wren $end
$var reg 1 v IFID_clear $end
$var reg 1 u IFID_wren $end
$var reg 1 q MEMWB_wren $end
$var reg 1 Y pc_wren $end
$upscope $end
$scope module inst_imem $end
$var wire 32 R# i_addr [31:0] $end
$var wire 32 S# o_data [31:0] $end
$upscope $end
$scope module inst_immgen $end
$var wire 32 T# instruction_i [31:0] $end
$var parameter 5 U# B_type $end
$var parameter 5 V# I_type_IMM $end
$var parameter 5 W# I_type_JALR $end
$var parameter 5 X# I_type_LD $end
$var parameter 5 Y# J_type $end
$var parameter 5 Z# R_type $end
$var parameter 5 [# S_type $end
$var parameter 5 \# U_type $end
$var reg 32 ]# immediate_o [31:0] $end
$upscope $end
$scope module inst_lsu $end
$var wire 1 O i_clk $end
$var wire 3 ^# i_func3 [2:0] $end
$var wire 32 _# i_io_btn [31:0] $end
$var wire 32 `# i_io_sw [31:0] $end
$var wire 32 a# i_lsu_addr [31:0] $end
$var wire 1 a" i_lsu_rden $end
$var wire 1 b" i_lsu_wren $end
$var wire 1 R i_rst_n $end
$var wire 32 b# i_st_data [31:0] $end
$var wire 32 c# output_mem_out [31:0] $end
$var wire 6 d# output_mem_addr [5:0] $end
$var wire 1 Z o_sram_we_n $end
$var wire 1 [ o_sram_ub_o $end
$var wire 1 \ o_sram_lb_n $end
$var wire 1 ] o_sram_ce_n $end
$var wire 18 e# o_sram_addr [17:0] $end
$var wire 32 f# o_io_ledr [31:0] $end
$var wire 32 g# o_io_ledg [31:0] $end
$var wire 32 h# o_io_lcd [31:0] $end
$var wire 7 i# o_io_hex7 [6:0] $end
$var wire 7 j# o_io_hex6 [6:0] $end
$var wire 7 k# o_io_hex5 [6:0] $end
$var wire 7 l# o_io_hex4 [6:0] $end
$var wire 7 m# o_io_hex3 [6:0] $end
$var wire 7 n# o_io_hex2 [6:0] $end
$var wire 7 o# o_io_hex1 [6:0] $end
$var wire 7 p# o_io_hex0 [6:0] $end
$var wire 1 n o_cs0 $end
$var wire 1 k o_ack $end
$var wire 16 q# io_sram_dq [15:0] $end
$var wire 32 r# input_mem_out [31:0] $end
$var wire 5 s# input_mem_addr [4:0] $end
$var wire 1 m i_sram_oe_n $end
$var wire 2 t# i_s_length [1:0] $end
$var wire 1 u# i_l_unsigned $end
$var wire 2 v# i_l_length [1:0] $end
$var wire 32 w# data_mem_out [31:0] $end
$var wire 13 x# data_mem_addr [12:0] $end
$var reg 3 y# cs [2:0] $end
$var reg 32 z# ld_temp_data [31:0] $end
$var reg 32 {# o_ld_data [31:0] $end
$scope module sram_controller_inst $end
$var wire 16 |# DIN [15:0] $end
$var wire 16 }# SRAM_DQ [15:0] $end
$var wire 18 ~# i_ADDR [17:0] $end
$var wire 4 !$ i_BMASK [3:0] $end
$var wire 1 "$ i_RDEN $end
$var wire 32 #$ i_WDATA [31:0] $end
$var wire 1 $$ i_WREN $end
$var wire 1 O i_clk $end
$var wire 1 R i_reset $end
$var reg 16 %$ DOUT [15:0] $end
$var reg 18 &$ SRAM_ADDR [17:0] $end
$var reg 1 ] SRAM_CE_N $end
$var reg 1 \ SRAM_LB_N $end
$var reg 1 m SRAM_OE_N $end
$var reg 1 [ SRAM_UB_N $end
$var reg 1 Z SRAM_WE_N $end
$var reg 18 '$ addr_d [17:0] $end
$var reg 18 ($ addr_q [17:0] $end
$var reg 4 )$ bmask_d [3:0] $end
$var reg 4 *$ bmask_q [3:0] $end
$var reg 1 k o_ACK $end
$var reg 32 +$ o_RDATA [31:0] $end
$var reg 32 ,$ rdata_d [31:0] $end
$var reg 32 -$ rdata_q [31:0] $end
$var reg 3 .$ sram_state_d [2:0] $end
$var reg 3 /$ sram_state_q [2:0] $end
$var reg 32 0$ wdata_d [31:0] $end
$var reg 32 1$ wdata_q [31:0] $end
$scope begin proc_detect_state $end
$upscope $end
$scope begin proc_output_to_lsu $end
$upscope $end
$scope begin proc_output_to_sram $end
$upscope $end
$upscope $end
$scope begin $ivl_for_loop0 $end
$var integer 32 2$ i [31:0] $end
$upscope $end
$scope begin $ivl_for_loop1 $end
$var integer 32 3$ i [31:0] $end
$upscope $end
$upscope $end
$scope module inst_regfile $end
$var wire 1 O clk_i $end
$var wire 5 4$ rd_addr [4:0] $end
$var wire 32 5$ rd_data [31:0] $end
$var wire 1 ^" rd_wren $end
$var wire 5 6$ rs1_addr [4:0] $end
$var wire 5 7$ rs2_addr [4:0] $end
$var wire 1 R rst_ni $end
$var wire 32 8$ rs2_data [31:0] $end
$var wire 32 9$ rs1_data [31:0] $end
$scope begin $ivl_for_loop2 $end
$var integer 32 :$ i [31:0] $end
$upscope $end
$upscope $end
$upscope $end
$upscope $end
$enddefinitions $end
$comment Show the parameter values. $end
$dumpall
b1101 \#
b1000 [#
b1100 Z#
b11011 Y#
b0 X#
b11001 W#
b100 V#
b11000 U#
b110111 J#
b10111 I#
b100011 H#
b110011 G#
b1101111 F#
b11 E#
b1100111 D#
b10011 C#
b1100011 B#
1e"
0d"
$end
#0
$dumpvars
b100000 :$
b0 9$
b0 8$
b0 7$
b0 6$
b0 5$
b0 4$
b100000 3$
b1000000 2$
bx 1$
b0 0$
bx /$
b0 .$
bx -$
b0 ,$
bx +$
bx *$
b0 )$
bx ($
b0 '$
bx &$
bx %$
0$$
b0 #$
0"$
b1111 !$
b0 ~#
bx }#
bx |#
b0 {#
b0 z#
b0 y#
b0 x#
bx w#
b0 v#
0u#
b0 t#
b0 s#
b0 r#
bx q#
b0 p#
b0 o#
b0 n#
b0 m#
b0 l#
b0 k#
b0 j#
b0 i#
b0 h#
b0 g#
b0 f#
bx e#
b0 d#
b0 c#
b0 b#
b0 a#
bx `#
b0xxxx _#
b0 ^#
b0 ]#
b0 T#
b111100000000000010010011 S#
b0 R#
b0 Q#
b0 P#
b0 O#
0N#
b0 M#
b0 L#
b0 K#
b0 A#
b0 @#
b0 ?#
1>#
0=#
b0 <#
b0 ;#
b0 :#
09#
08#
b0 7#
06#
05#
b0 4#
b0 3#
b0 2#
b0 1#
b0 0#
b0 /#
b0 .#
b0 -#
b0 ,#
b0 +#
b0 *#
b0 )#
b0 (#
b0 '#
b0 &#
b0 %#
b0 $#
b0 ##
b0 "#
b0 !#
b0 ~"
b0 }"
b0 |"
b0 {"
b0 z"
0y"
b0 x"
b0 w"
b0 v"
b0 u"
0t"
0s"
0r"
b0 q"
b0 p"
b0 o"
b0 n"
b0 m"
b0 l"
b0 k"
b0 j"
b0 i"
b0 h"
0g"
0f"
0c"
0b"
0a"
bx `"
0_"
0^"
b0 ]"
b0 \"
0["
b0 Z"
b0 Y"
b0 X"
b0 W"
b0 V"
0U"
b0 T"
b0 S"
b0 R"
b0 Q"
0P"
b0 O"
b0 N"
b0 M"
b0 L"
0K"
0J"
0I"
b0 H"
0G"
0F"
b0 E"
b0 D"
b0 C"
0B"
b0 A"
0@"
b0 ?"
0>"
0="
0<"
b0 ;"
0:"
09"
b0 8"
b0 7"
b0 6"
05"
14"
b0 3"
b0 2"
b0 1"
b0 0"
b0 /"
b0 ."
b0 -"
0,"
0+"
1*"
b0 )"
b0 ("
0'"
0&"
b0 %"
0$"
0#"
0""
b0 !"
0~
b0 }
b0 |
0{
b0 z
b0 y
b0 x
b0 w
0v
1u
b111100000000000010010011 t
b100 s
b100 r
1q
b0 p
b0 o
0n
xm
bx l
xk
0j
b0 i
b0 h
b0 g
b0 f
b0 e
b0 d
b0 c
b0 b
b0 a
b0 `
b0 _
bx ^
x]
x\
x[
xZ
1Y
b0 X
b0 W
0V
bx U
bx T
b0 S
0R
bx Q
bx P
0O
0N
b0 M
b0 L
b0 K
b0 J
b0 I
b0 H
b0 G
b0 F
b0 E
b0 D
b0 C
bx B
b0 A
b0 @
b0 ?
b0 >
b0 =
b0 <
b0 ;
b0 :
b0 9
b0 8
b0 7
b0 6
b0 5
b0 4
b0 3
b0 2
b0 1
b0 0
b0 /
b0 .
b0 -
b0 ,
b0 +
b0 *
b0 )
b0 (
b0 '
b0 &
b0 %
b0 $
b0 #
b0 "
b0 !
$end
#5000
0k
b0 w#
b0 +$
1[
1\
1]
1m
1Z
bz |#
bz l
bz q#
bz }#
bz %$
b0 ^
b0 e#
b0 &$
b0 /$
b0 *$
b0 -$
b0 1$
b0 ($
b100000 3$
b1000000 2$
b100000 :$
b1 S
1O
#10000
0O
1R
#15000
b1000 s
b1111 w
b1111 Q#
b1111 7$
b1 y
1'"
b1 !"
b1 M#
1~
b10011 A
b1111 ("
b1111 ]#
b1000 r
b11111111000100000000000100010011 t
b11111111000100000000000100010011 S#
b100 Y"
b100 R#
b111100000000000010010011 V"
b111100000000000010010011 ?#
b111100000000000010010011 T#
b100 X"
bx r#
b10 S
1O
#20000
0O
#25000
1s"
b11111111111111111111111111110001 x"
1t"
1y"
b1111 3"
b1111 q"
b1111 z"
b1111 |"
b1111 &#
b1111 .#
b1111 1"
b1111 p"
b10001 w
b10001 Q#
b10001 7$
b10 y
b1111111 @#
b11111111111111111111111111110001 ("
b11111111111111111111111111110001 ]#
b1100 s
b1111 S"
b1111 j"
b1 O"
b1 O#
b1111 0"
b1111 E"
b100 N"
b1 L"
1P"
1F"
b11111111000100000000000100010011 V"
b11111111000100000000000100010011 ?#
b11111111000100000000000100010011 T#
b1000 X"
b100 W"
b1100 r
b1000000000000000110010011 t
b1000000000000000110010011 S#
b1000 Y"
b1000 R#
b11 S
1O
#30000
0O
#35000
0s"
0r"
b1111 x"
b11111111111111111111111111110001 3"
b11111111111111111111111111110001 q"
b11111111111111111111111111110001 z"
b10001 |"
b10001 &#
b10001 .#
b11111111111111111111111111110001 1"
b11111111111111111111111111110001 p"
b1100 ~#
b10000 s
b10000 w
b10000 Q#
b10000 7$
b11 y
b0 @#
b10000 ("
b10000 ]#
b100 /"
b1111 x#
b0xxxx00000000 r#
b1111 s#
b1111 d#
b10000 r
b1111111100000000001000010011 t
b1111111100000000001000010011 S#
b1100 Y"
b1100 R#
b1000000000000000110010011 V"
b1000000000000000110010011 ?#
b1000000000000000110010011 T#
b1100 X"
b1000 W"
b10001 S"
b10001 j"
b10 O"
b10 O#
b11111111111111111111111111110101 0"
b11111111111111111111111111110001 E"
b1000 N"
b100 M"
b1 ?"
b1 h"
b1111 7"
b1111 6"
b1111 a#
1@"
19"
b100 S
1O
#40000
0O
#45000
1s"
b11111111111111111111111111110000 x"
b10000 3"
b10000 q"
b10000 z"
b10000 |"
b10000 &#
b10000 .#
b1111111110000 ~#
b10000 1"
b10000 p"
b1111 o
b1111 5$
b1111111110001 x#
b0 r#
b10001 s#
b110001 d#
b1000 /"
b11111 w
b11111 Q#
b11111 7$
b100 y
b111 @#
b11111111 ("
b11111111 ]#
b10100 s
b1 ]"
b1 k"
b1 4$
b1111 Z"
1^"
1N
1["
b10 ?"
b10 h"
b11111111111111111111111111110101 7"
b11111111111111111111111111110001 6"
b11111111111111111111111111110001 a#
b10000 S"
b10000 j"
b11 O"
b11 O#
b11000 0"
b10000 E"
b1100 N"
b1000 M"
b1111111100000000001000010011 V"
b1111111100000000001000010011 ?#
b1111111100000000001000010011 T#
b10000 X"
b1100 W"
b10100 r
b10000000000000000000001010110111 t
b10000000000000000000001010110111 S#
b10000 Y"
b10000 R#
b101 S
1O
#50000
0O
#55000
b11111111111111111111111100000001 x"
b11111111 3"
b11111111 q"
b11111111 z"
b11111 |"
b11111 &#
b11111 .#
b11111111 1"
b11111111 p"
b10000 ~#
b11000 s
b0 w
b0 Q#
b0 7$
b101 y
b1010 )"
b1010 K#
b110111 A
b1000000 @#
b10000000000000000000000000000000 ("
b10000000000000000000000000000000 ]#
b1100 /"
b10000 x#
b0xxxx r#
b10000 s#
b10000 d#
b11111111111111111111111111110001 o
b11111111111111111111111111110001 5$
b11000 r
b11111111111100101000001010010011 t
b11111111111100101000001010010011 S#
b10100 Y"
b10100 R#
b10000000000000000000001010110111 V"
b10000000000000000000001010110111 ?#
b10000000000000000000001010110111 T#
b10100 X"
b10000 W"
b11111 S"
b11111 j"
b100 O"
b100 O#
b100001011 0"
b11111111 E"
b10000 N"
b1100 M"
b11 ?"
b11 h"
b11000 7"
b10000 6"
b10000 a#
b10 ]"
b10 k"
b10 4$
b11111111111111111111111111110001 Z"
b1111 "
1O
#60000
0O
#65000
0s"
1r"
b10000000000000000000000000000000 x"
b10000000000000000000000000000000 3"
b10000000000000000000000000000000 q"
b10000000000000000000000000000000 z"
b0 |"
b0 &#
b0 .#
b11111100 ~#
b10000000000000000000000000000000 1"
b10000000000000000000000000000000 p"
b10000 o
b10000 5$
b11111111 x#
bx00000000 r#
b11111 s#
b111111 d#
b10000 /"
b101 x
b101 P#
b101 6$
b11111 w
b11111 Q#
b11111 7$
b0 )"
b0 K#
b10011 A
b1111111 @#
b11111111111111111111111111111111 ("
b11111111111111111111111111111111 ]#
b11100 s
b11111111111111111111111111110001 -
b11 ]"
b11 k"
b11 4$
b10000 Z"
b100 ?"
b100 h"
b100001011 7"
b11111111 6"
b11111111 a#
b0 S"
b0 j"
b101 O"
b101 O#
b10000000000000000000000000010000 0"
b10000000000000000000000000000000 E"
b10100 N"
b10000 M"
b1010 C"
b1010 n"
b11111111111100101000001010010011 V"
b11111111111100101000001010010011 ?#
b11111111111100101000001010010011 T#
b11000 X"
b10100 W"
b11100 r
b10000000000000000000001100110111 t
b10000000000000000000001100110111 S#
b11000 Y"
b11000 R#
1O
#70000
0O
#75000
1s"
15#
0r"
0>#
09#
b10000000000000000000000000000001 x"
b1 u"
b1 '#
b1 ,#
b10000000000000000 +#
b1000000000000000000000000 *#
b10000000000000000000000000000 )#
b1000000000000000000000000000000 (#
b11111111111111111111111111111111 v"
b11111111111111111111111111111111 /#
b11111111111111111111111111111111 4#
b11111111111111110000000000000000 3#
b11111111000000000000000000000000 2#
b11110000000000000000000000000000 1#
b11000000000000000000000000000000 0#
b1111111111111111111111111111111 3"
b1111111111111111111111111111111 q"
b1111111111111111111111111111111 z"
b11111 |"
b11111 &#
b11111 .#
b10000000000000000000000000000000 2"
b10000000000000000000000000000000 o"
b10000000000000000000000000000000 {"
b10000000000000000000000000000000 %#
b10000000000000000000000000000000 -#
b10000000000000000000000000000000 <#
b11111111111111111111111111111111 1"
b11111111111111111111111111111111 p"
b0 ~#
b10000000000000000000000000000000 ."
b10000000000000000000000000000000 :#
b100000 s
b0 x
b0 P#
b0 6$
b0 w
b0 Q#
b0 7$
b110 y
b1010 )"
b1010 K#
b110111 A
b1000000 @#
b10000000000000000000000000000000 ("
b10000000000000000000000000000000 ]#
b10100 /"
b0 x#
bx r#
b0 s#
b0 d#
b1 X
b1 l"
b11111111 o
b11111111 5$
b100000 r
b1100001000001110110011 t
b1100001000001110110011 S#
b11100 Y"
b11100 R#
b10000000000000000000001100110111 V"
b10000000000000000000001100110111 ?#
b10000000000000000000001100110111 T#
b11100 X"
b11000 W"
b11111 S"
b11111 j"
b101 Q"
b101 i"
b10011 0"
b11111111111111111111111111111111 E"
b11000 N"
b10100 M"
b0 C"
b0 n"
b101 ?"
b101 h"
b10000000000000000000000000010000 7"
b10000000000000000000000000000000 6"
b10000000000000000000000000000000 a#
b100 ]"
b100 k"
b100 4$
b11111111 Z"
b10000 8
1O
#80000
0O
#85000
0s"
1r"
1>#
05#
b10000000000000000000000000000000 x"
b0 u"
b0 '#
b0 ,#
b0 +#
b0 *#
b0 )#
b0 (#
b0 v"
b0 /#
b0 4#
b0 3#
b0 2#
b0 1#
b0 0#
b0 2"
b0 o"
b0 {"
b0 %#
b0 -#
b0 <#
b0 |"
b0 &#
b0 .#
b1111111111100 ~#
b0 ."
b0 :#
b10000000000000000000000000000000 1"
b10000000000000000000000000000000 p"
b1111 }
b1111 9$
b10000 |
b10000 8$
b10000000000000000000000000000000 o
b10000000000000000000000000000000 5$
b1111111111111 x#
bx00000000 r#
b11111 s#
b111111 d#
b0 X
b0 l"
b11000 /"
b10000000000000000000000000000000 3"
b10000000000000000000000000000000 q"
b10000000000000000000000000000000 z"
b1 x
b1 P#
b1 6$
b11 w
b11 Q#
b11 7$
b111 y
b0 )"
b0 K#
b0 !"
b0 M#
b110011 A
b0 @#
b0 ("
b0 ]#
b100100 s
b11111111 ;
b101 ]"
b101 k"
b101 4$
b10000000000000000000000000000000 Z"
b10011 7"
b1111111111111111111111111111111 6"
b1111111111111111111111111111111 a#
b0 S"
b0 j"
b0 Q"
b0 i"
b110 O"
b110 O#
b10000000000000000000000000011000 0"
b10000000000000000000000000000000 E"
b11100 N"
b11000 M"
b1010 C"
b1010 n"
b1100001000001110110011 V"
b1100001000001110110011 ?#
b1100001000001110110011 T#
b100000 X"
b11100 W"
b100100 r
b10000010000010000110011 t
b10000010000010000110011 S#
b100000 Y"
b100000 R#
1O
#90000
0O
