Forwarding_SRAM/10_sim/fwd_tb.vcd
$date
	Mon Nov 25 17:26:33 2024
$end
$version
	Icarus Verilog
$end
$timescale
	1ps
$end
$scope module fwd_tb $end
$var wire 32 ! reg0 [31:0] $end
$var wire 32 " reg1 [31:0] $end
$var wire 32 # reg10 [31:0] $end
$var wire 32 $ reg11 [31:0] $end
$var wire 32 % reg12 [31:0] $end
$var wire 32 & reg13 [31:0] $end
$var wire 32 ' reg14 [31:0] $end
$var wire 32 ( reg15 [31:0] $end
$var wire 32 ) reg16 [31:0] $end
$var wire 32 * reg17 [31:0] $end
$var wire 32 + reg18 [31:0] $end
$var wire 32 , reg19 [31:0] $end
$var wire 32 - reg2 [31:0] $end
$var wire 32 . reg20 [31:0] $end
$var wire 32 / reg21 [31:0] $end
$var wire 32 0 reg22 [31:0] $end
$var wire 32 1 reg23 [31:0] $end
$var wire 32 2 reg24 [31:0] $end
$var wire 32 3 reg25 [31:0] $end
$var wire 32 4 reg26 [31:0] $end
$var wire 32 5 reg27 [31:0] $end
$var wire 32 6 reg28 [31:0] $end
$var wire 32 7 reg29 [31:0] $end
$var wire 32 8 reg3 [31:0] $end
$var wire 32 9 reg30 [31:0] $end
$var wire 32 : reg31 [31:0] $end
$var wire 32 ; reg4 [31:0] $end
$var wire 32 < reg5 [31:0] $end
$var wire 32 = reg6 [31:0] $end
$var wire 32 > reg7 [31:0] $end
$var wire 32 ? reg8 [31:0] $end
$var wire 32 @ reg9 [31:0] $end
$var wire 7 A type_instr [6:0] $end
$var wire 32 B o_pc_debug [31:0] $end
$var wire 32 C o_io_ledr [31:0] $end
$var wire 32 D o_io_ledg [31:0] $end
$var wire 32 E o_io_lcd [31:0] $end
$var wire 7 F o_io_hex7 [6:0] $end
$var wire 7 G o_io_hex6 [6:0] $end
$var wire 7 H o_io_hex5 [6:0] $end
$var wire 7 I o_io_hex4 [6:0] $end
$var wire 7 J o_io_hex3 [6:0] $end
$var wire 7 K o_io_hex2 [6:0] $end
$var wire 7 L o_io_hex1 [6:0] $end
$var wire 7 M o_io_hex0 [6:0] $end
$var wire 1 N o_insn_vld $end
$var reg 1 O i_clk $end
$var reg 4 P i_io_btn [3:0] $end
$var reg 32 Q i_io_sw [31:0] $end
$var reg 1 R i_rst_n $end
$var integer 32 S nop_count [31:0] $end
$scope module fwd_inst $end
$var wire 1 O i_clk $end
$var wire 4 T i_io_btn [3:0] $end
$var wire 32 U i_io_sw [31:0] $end
$var wire 1 R i_rstn $end
$var wire 1 N o_insn_vld $end
$var wire 2 V rs2_sel [1:0] $end
$var wire 2 W rs1_sel [1:0] $end
$var wire 1 X pc_wren $end
$var wire 32 Y o_io_ledr [31:0] $end
$var wire 32 Z o_io_ledg [31:0] $end
$var wire 32 [ o_io_lcd [31:0] $end
$var wire 7 \ o_io_hex7 [6:0] $end
$var wire 7 ] o_io_hex6 [6:0] $end
$var wire 7 ^ o_io_hex5 [6:0] $end
$var wire 7 _ o_io_hex4 [6:0] $end
$var wire 7 ` o_io_hex3 [6:0] $end
$var wire 7 a o_io_hex2 [6:0] $end
$var wire 7 b o_io_hex1 [6:0] $end
$var wire 7 c o_io_hex0 [6:0] $end
$var wire 32 d WB_rd_data [31:0] $end
$var wire 32 e MEM_lsu_rdata [31:0] $end
$var wire 32 f IF_pcplus4 [31:0] $end
$var wire 32 g IF_pcnext [31:0] $end
$var wire 32 h IF_instr [31:0] $end
$var wire 1 i IFIDreg_wren $end
$var wire 1 j IFIDreg_clr $end
$var wire 5 k IFID_rs2 [4:0] $end
$var wire 5 l IFID_rs1 [4:0] $end
$var wire 5 m IFID_rd [4:0] $end
$var wire 3 n IFID_func3 [2:0] $end
$var wire 1 o ID_wb_sel $end
$var wire 32 p ID_rs2_data [31:0] $end
$var wire 32 q ID_rs1_data [31:0] $end
$var wire 1 r ID_rd_wren $end
$var wire 2 s ID_opb_sel [1:0] $end
$var wire 1 t ID_opa_sel $end
$var wire 1 u ID_mem_wren $end
$var wire 1 v ID_mem_rden $end
$var wire 2 w ID_is_uncbr [1:0] $end
$var wire 1 x ID_is_br $end
$var wire 1 y ID_insn_vld $end
$var wire 32 z ID_imm [31:0] $end
$var wire 4 { ID_alu_op [3:0] $end
$var wire 1 | IDEXreg_clr $end
$var wire 1 } EX_pcsel $end
$var wire 32 ~ EX_fwd_rs2_data [31:0] $end
$var wire 32 !" EX_fwd_rs1_data [31:0] $end
$var wire 32 "" EX_br_base [31:0] $end
$var wire 32 #" EX_br_addr [31:0] $end
$var wire 32 $" EX_alu_opb [31:0] $end
$var wire 32 %" EX_alu_opa [31:0] $end
$var wire 32 &" EX_alu_data [31:0] $end
$var wire 1 '" EXMEMreg_clr $end
$var reg 32 (" EXMEM_alu_data [31:0] $end
$var reg 32 )" EXMEM_br_addr [31:0] $end
$var reg 3 *" EXMEM_func3 [2:0] $end
$var reg 1 +" EXMEM_insn_vld $end
$var reg 1 ," EXMEM_is_br $end
$var reg 2 -" EXMEM_is_uncbr [1:0] $end
$var reg 1 ." EXMEM_mem_rden $end
$var reg 1 /" EXMEM_mem_wren $end
$var reg 1 0" EXMEM_pcsel $end
$var reg 5 1" EXMEM_rd [4:0] $end
$var reg 1 2" EXMEM_rd_wren $end
$var reg 32 3" EXMEM_rs2_data [31:0] $end
$var reg 1 4" EXMEM_wb_sel $end
$var reg 4 5" IDEX_alu_op [3:0] $end
$var reg 3 6" IDEX_func3 [2:0] $end
$var reg 32 7" IDEX_imm [31:0] $end
$var reg 1 8" IDEX_insn_vld $end
$var reg 1 9" IDEX_is_br $end
$var reg 2 :" IDEX_is_uncbr [1:0] $end
$var reg 1 ;" IDEX_mem_rden $end
$var reg 1 <" IDEX_mem_wren $end
$var reg 1 =" IDEX_opa_sel $end
$var reg 2 >" IDEX_opb_sel [1:0] $end
$var reg 32 ?" IDEX_pc [31:0] $end
$var reg 32 @" IDEX_pcplus4 [31:0] $end
$var reg 5 A" IDEX_rd [4:0] $end
$var reg 1 B" IDEX_rd_wren $end
$var reg 5 C" IDEX_rs1 [4:0] $end
$var reg 32 D" IDEX_rs1_data [31:0] $end
$var reg 5 E" IDEX_rs2 [4:0] $end
$var reg 32 F" IDEX_rs2_data [31:0] $end
$var reg 1 G" IDEX_wb_sel $end
$var reg 32 H" IFID_instr [31:0] $end
$var reg 32 I" IFID_pc [31:0] $end
$var reg 32 J" IFID_pcplus4 [31:0] $end
$var reg 32 K" IF_pc [31:0] $end
$var reg 32 L" MEMWB_alu_data [31:0] $end
$var reg 1 M" MEMWB_insn_vld $end
$var reg 32 N" MEMWB_lsu_rdata [31:0] $end
$var reg 5 O" MEMWB_rd [4:0] $end
$var reg 1 P" MEMWB_rd_wren $end
$var reg 1 Q" MEMWB_wb_sel $end
$var reg 32 R" o_pc_debug [31:0] $end
$scope module fwd_unit_inst $end
$var wire 5 S" EXMEM_rd [4:0] $end
$var wire 1 2" EXMEM_rd_wren $end
$var wire 5 T" IDEX_rs1 [4:0] $end
$var wire 5 U" IDEX_rs2 [4:0] $end
$var wire 5 V" MEMWB_rd [4:0] $end
$var wire 1 P" MEMWB_rd_wren $end
$var reg 2 W" rs1_sel [1:0] $end
$var reg 2 X" rs2_sel [1:0] $end
$upscope $end
$scope module inst_alu $end
$var wire 4 Y" i_alu_op [3:0] $end
$var wire 32 Z" i_operand_a [31:0] $end
$var wire 32 [" i_operand_b [31:0] $end
$var wire 32 \" o_alu_data [31:0] $end
$var wire 1 ]" overflow $end
$var wire 1 ^" signed_lt $end
$var wire 1 _" unsigned_lt $end
$var wire 32 `" temp_srl [31:0] $end
$var wire 32 a" temp_sra [31:0] $end
$var wire 32 b" temp_sll [31:0] $end
$var wire 32 c" temp [31:0] $end
$var wire 1 d" carry $end
$var reg 32 e" alu_temp [31:0] $end
$scope module u1 $end
$var wire 32 f" i_operand_a [31:0] $end
$var wire 5 g" i_operand_b [4:0] $end
$var wire 32 h" o_sll_data [31:0] $end
$var reg 32 i" temp1 [31:0] $end
$var reg 32 j" temp2 [31:0] $end
$var reg 32 k" temp3 [31:0] $end
$var reg 32 l" temp4 [31:0] $end
$var reg 32 m" temp5 [31:0] $end
$upscope $end
$scope module u2 $end
$var wire 32 n" i_operand_a [31:0] $end
$var wire 5 o" i_operand_b [4:0] $end
$var wire 32 p" o_srl_data [31:0] $end
$var reg 32 q" temp1 [31:0] $end
$var reg 32 r" temp2 [31:0] $end
$var reg 32 s" temp3 [31:0] $end
$var reg 32 t" temp4 [31:0] $end
$var reg 32 u" temp5 [31:0] $end
$upscope $end
$scope module u3 $end
$var wire 32 v" i_operand_a [31:0] $end
$var wire 5 w" i_operand_b [4:0] $end
$var wire 32 x" o_sra_data [31:0] $end
$var reg 32 y" temp1 [31:0] $end
$var reg 32 z" temp2 [31:0] $end
$var reg 32 {" temp3 [31:0] $end
$var reg 32 |" temp4 [31:0] $end
$var reg 32 }" temp5 [31:0] $end
$upscope $end
$upscope $end
$scope module inst_bru $end
$var wire 1 ~" br_less $end
$var wire 1 !# br_less_uns $end
$var wire 3 "# func3 [2:0] $end
$var wire 1 9" is_br $end
$var wire 1 ## is_uncbr $end
$var wire 1 $# overflow $end
$var wire 32 %# rs1_data [31:0] $end
$var wire 32 &# rs2_data [31:0] $end
$var wire 32 '# sub [31:0] $end
$var wire 1 (# carry $end
$var wire 1 )# br_equal $end
$var reg 1 } pc_sel $end
$upscope $end
$scope module inst_ctrl_unit $end
$var wire 32 *# instr [31:0] $end
$var wire 7 +# func7 [6:0] $end
$var wire 3 ,# func3 [2:0] $end
$var parameter 7 -# B_type $end
$var parameter 7 .# I_type_IMM $end
$var parameter 7 /# I_type_JALR $end
$var parameter 7 0# I_type_LD $end
$var parameter 7 1# J_type $end
$var parameter 7 2# R_type $end
$var parameter 7 3# S_type $end
$var parameter 7 4# U_type_AUIPC $end
$var parameter 7 5# U_type_LUI $end
$var reg 4 6# alu_op [3:0] $end
$var reg 1 y insn_vld $end
$var reg 1 x is_br $end
$var reg 2 7# is_uncbr [1:0] $end
$var reg 1 v mem_rden $end
$var reg 1 u mem_wren $end
$var reg 1 t op_a_sel $end
$var reg 2 8# op_b_sel [1:0] $end
$var reg 1 r rd_wren $end
$var reg 1 o wb_sel $end
$upscope $end
$scope module inst_hdu $end
$var wire 1 ," EXMEM_is_br $end
$var wire 1 9# EXMEM_is_uncbr $end
$var wire 1 0" EXMEM_pcsel $end
$var wire 1 ;" IDEX_mem_rden $end
$var wire 5 :# IDEX_rd [4:0] $end
$var wire 1 B" IDEX_rdwren $end
$var wire 5 ;# IFID_rs1 [4:0] $end
$var wire 5 <# IFID_rs2 [4:0] $end
$var reg 1 '" EXMEM_clear $end
$var reg 1 | IDEX_clear $end
$var reg 1 j IFID_clear $end
$var reg 1 i IFID_wren $end
$var reg 1 X pc_wren $end
$upscope $end
$scope module inst_imem $end
$var wire 32 =# i_addr [31:0] $end
$var wire 32 ># o_data [31:0] $end
$upscope $end
$scope module inst_immgen $end
$var wire 32 ?# instruction_i [31:0] $end
$var parameter 5 @# B_type $end
$var parameter 5 A# I_type_IMM $end
$var parameter 5 B# I_type_JALR $end
$var parameter 5 C# I_type_LD $end
$var parameter 5 D# J_type $end
$var parameter 5 E# R_type $end
$var parameter 5 F# S_type $end
$var parameter 5 G# U_type $end
$var reg 32 H# immediate_o [31:0] $end
$upscope $end
$scope module inst_lsu $end
$var wire 1 O i_clk $end
$var wire 3 I# i_func3 [2:0] $end
$var wire 32 J# i_io_btn [31:0] $end
$var wire 32 K# i_io_sw [31:0] $end
$var wire 32 L# i_lsu_addr [31:0] $end
$var wire 1 /" i_lsu_wren $end
$var wire 1 R i_rst_n $end
$var wire 32 M# i_st_data [31:0] $end
$var wire 32 N# output_mem_out [31:0] $end
$var wire 6 O# output_mem_addr [5:0] $end
$var wire 32 P# o_io_ledr [31:0] $end
$var wire 32 Q# o_io_ledg [31:0] $end
$var wire 32 R# o_io_lcd [31:0] $end
$var wire 7 S# o_io_hex7 [6:0] $end
$var wire 7 T# o_io_hex6 [6:0] $end
$var wire 7 U# o_io_hex5 [6:0] $end
$var wire 7 V# o_io_hex4 [6:0] $end
$var wire 7 W# o_io_hex3 [6:0] $end
$var wire 7 X# o_io_hex2 [6:0] $end
$var wire 7 Y# o_io_hex1 [6:0] $end
$var wire 7 Z# o_io_hex0 [6:0] $end
$var wire 32 [# input_mem_out [31:0] $end
$var wire 5 \# input_mem_addr [4:0] $end
$var wire 2 ]# i_s_length [1:0] $end
$var wire 1 ^# i_l_unsigned $end
$var wire 2 _# i_l_length [1:0] $end
$var wire 32 `# data_mem_out [31:0] $end
$var wire 13 a# data_mem_addr [12:0] $end
$var reg 3 b# cs [2:0] $end
$var reg 32 c# ld_temp_data [31:0] $end
$var reg 32 d# o_ld_data [31:0] $end
$scope begin $ivl_for_loop0 $end
$var integer 32 e# i [31:0] $end
$upscope $end
$scope begin $ivl_for_loop1 $end
$var integer 32 f# i [31:0] $end
$upscope $end
$scope begin $ivl_for_loop2 $end
$var integer 32 g# i [31:0] $end
$upscope $end
$upscope $end
$scope module inst_regfile $end
$var wire 1 O clk_i $end
$var wire 5 h# rd_addr [4:0] $end
$var wire 32 i# rd_data [31:0] $end
$var wire 1 P" rd_wren $end
$var wire 5 j# rs1_addr [4:0] $end
$var wire 5 k# rs2_addr [4:0] $end
$var wire 1 R rst_ni $end
$var wire 32 l# rs2_data [31:0] $end
$var wire 32 m# rs1_data [31:0] $end
$scope begin $ivl_for_loop3 $end
$var integer 32 n# i [31:0] $end
$upscope $end
$upscope $end
$upscope $end
$upscope $end
$enddefinitions $end
$comment Show the parameter values. $end
$dumpall
b1101 G#
b1000 F#
b1100 E#
b11011 D#
b0 C#
b11001 B#
b100 A#
b11000 @#
b110111 5#
b10111 4#
b100011 3#
b110011 2#
b1101111 1#
b11 0#
b1100111 /#
b10011 .#
b1100011 -#
$end
#0
$dumpvars
b100000 n#
b0 m#
b0 l#
b0 k#
b0 j#
b0 i#
b0 h#
b100000 g#
b1000000 f#
b10000000000000 e#
bx d#
bx c#
b0 b#
b0 a#
b0 `#
b0 _#
0^#
b0 ]#
b0 \#
b0 [#
b0 Z#
b0 Y#
b0 X#
b0 W#
b0 V#
b0 U#
b0 T#
b0 S#
b0 R#
b0 Q#
b0 P#
b0 O#
b0 N#
b0 M#
b0 L#
bx K#
b0xxxx J#
b0 I#
b0 H#
b0 ?#
b111100000000000010010011 >#
b0 =#
b0 <#
b0 ;#
b0 :#
09#
b0 8#
b0 7#
b0 6#
b0 ,#
b0 +#
b0 *#
1)#
0(#
b0 '#
b0 &#
b0 %#
0$#
0##
b0 "#
0!#
0~"
b0 }"
b0 |"
b0 {"
b0 z"
b0 y"
b0 x"
b0 w"
b0 v"
b0 u"
b0 t"
b0 s"
b0 r"
b0 q"
b0 p"
b0 o"
b0 n"
b0 m"
b0 l"
b0 k"
b0 j"
b0 i"
b0 h"
b0 g"
b0 f"
b0 e"
0d"
b0 c"
b0 b"
b0 a"
b0 `"
0_"
0^"
0]"
b0 \"
b0 ["
b0 Z"
b0 Y"
b0 X"
b0 W"
b0 V"
b0 U"
b0 T"
b0 S"
bx R"
0Q"
0P"
b0 O"
b0 N"
0M"
b0 L"
b0 K"
b0 J"
b0 I"
b0 H"
0G"
b0 F"
b0 E"
b0 D"
b0 C"
0B"
b0 A"
b0 @"
b0 ?"
b0 >"
0="
0<"
0;"
b0 :"
09"
08"
b0 7"
b0 6"
b0 5"
04"
b0 3"
02"
b0 1"
00"
0/"
0."
b0 -"
0,"
0+"
b0 *"
b0 )"
b0 ("
0'"
b0 &"
b0 %"
b0 $"
b0 #"
b0 ""
b0 !"
b0 ~
0}
0|
b0 {
b0 z
0y
0x
b0 w
0v
0u
0t
b0 s
0r
b0 q
b0 p
0o
b0 n
b0 m
b0 l
b0 k
0j
1i
b111100000000000010010011 h
b100 g
b100 f
bx e
b0 d
b0 c
b0 b
b0 a
b0 `
b0 _
b0 ^
b0 ]
b0 \
b0 [
b0 Z
b0 Y
1X
b0 W
b0 V
bx U
bx T
b0 S
0R
bx Q
bx P
0O
0N
b0 M
b0 L
b0 K
b0 J
b0 I
b0 H
b0 G
b0 F
b0 E
b0 D
b0 C
bx B
b0 A
b0 @
b0 ?
b0 >
b0 =
b0 <
b0 ;
b0 :
b0 9
b0 8
b0 7
b0 6
b0 5
b0 4
b0 3
b0 2
b0 1
b0 0
b0 /
b0 .
b0 -
b0 ,
b0 +
b0 *
b0 )
b0 (
b0 '
b0 &
b0 %
b0 $
b0 #
b0 "
b0 !
$end
#5000
b100000 g#
b1000000 f#
b10000000000000 e#
b100000 n#
b1 S
1O
#10000
0O
1R
#15000
b1000 g
b1111 k
b1111 <#
b1111 k#
b1 m
1y
b1 s
b1 8#
1r
b10011 A
b1111 z
b1111 H#
b1000 f
b11111111000100000000000100010011 h
b11111111000100000000000100010011 >#
b100 K"
b100 =#
b111100000000000010010011 H"
b111100000000000010010011 *#
b111100000000000010010011 ?#
b100 J"
bx N"
bx [#
b10 S
1O
#20000
0O
#25000
1^"
b11111111111111111111111111110001 c"
1_"
1d"
b1111 &"
b1111 \"
b1111 e"
b1111 g"
b1111 o"
b1111 w"
b1111 $"
b1111 ["
b10001 k
b10001 <#
b10001 k#
b10 m
b1111111 +#
b11111111111111111111111111110001 z
b11111111111111111111111111110001 H#
b1100 g
b1111 E"
b1111 U"
b1 A"
b1 :#
b1111 #"
b1111 7"
b100 @"
b1 >"
1B"
18"
b11111111000100000000000100010011 H"
b11111111000100000000000100010011 *#
b11111111000100000000000100010011 ?#
b1000 J"
b100 I"
b1100 f
b1000000000000000110010011 h
b1000000000000000110010011 >#
b1000 K"
b1000 =#
b11 S
1O
#30000
0O
#35000
0^"
0]"
b1111 c"
b11111111111111111111111111110001 &"
b11111111111111111111111111110001 \"
b11111111111111111111111111110001 e"
b10001 g"
b10001 o"
b10001 w"
b11111111111111111111111111110001 $"
b11111111111111111111111111110001 ["
b10000 g
b10000 k
b10000 <#
b10000 k#
b11 m
b0 +#
b10000 z
b10000 H#
b100 ""
b1111 a#
b0xxxx00000000 [#
b1111 \#
b1111 O#
b10000 f
b1111111100000000001000010011 h
b1111111100000000001000010011 >#
b1100 K"
b1100 =#
b1000000000000000110010011 H"
b1000000000000000110010011 *#
b1000000000000000110010011 ?#
b1100 J"
b1000 I"
b10001 E"
b10001 U"
b10 A"
b10 :#
b11111111111111111111111111110101 #"
b11111111111111111111111111110001 7"
b1000 @"
b100 ?"
b1 1"
b1 S"
b1111 )"
b1111 ("
b1111 L#
12"
1+"
b100 S
1O
#40000
0O
#45000
1^"
b11111111111111111111111111110000 c"
b10000 &"
b10000 \"
b10000 e"
b10000 g"
b10000 o"
b10000 w"
b10000 $"
b10000 ["
b1111 d
b1111 i#
b1111111110001 a#
b0 [#
b10001 \#
b110001 O#
b1000 ""
b11111 k
b11111 <#
b11111 k#
b100 m
b111 +#
b11111111 z
b11111111 H#
b10100 g
b1 O"
b1 V"
b1 h#
b1111 L"
1P"
1N
1M"
b10 1"
b10 S"
b11111111111111111111111111110101 )"
b11111111111111111111111111110001 ("
b11111111111111111111111111110001 L#
b10000 E"
b10000 U"
b11 A"
b11 :#
b11000 #"
b10000 7"
b1100 @"
b1000 ?"
b1111111100000000001000010011 H"
b1111111100000000001000010011 *#
b1111111100000000001000010011 ?#
b10000 J"
b1100 I"
b10100 f
b10000000000000000000001010110111 h
b10000000000000000000001010110111 >#
b10000 K"
b10000 =#
b101 S
1O
#50000
0O
#55000
b11111111111111111111111100000001 c"
b11111111 &"
b11111111 \"
b11111111 e"
b11111 g"
b11111 o"
b11111 w"
b11111111 $"
b11111111 ["
b11000 g
b0 k
b0 <#
b0 k#
b101 m
b1010 {
b1010 6#
b110111 A
b1000000 +#
b10000000000000000000000000000000 z
b10000000000000000000000000000000 H#
b1100 ""
b10000 a#
b0xxxx [#
b10000 \#
b10000 O#
b11111111111111111111111111110001 d
b11111111111111111111111111110001 i#
b11000 f
b11111111111100101000001010010011 h
b11111111111100101000001010010011 >#
b10100 K"
b10100 =#
b10000000000000000000001010110111 H"
b10000000000000000000001010110111 *#
b10000000000000000000001010110111 ?#
b10100 J"
b10000 I"
b11111 E"
b11111 U"
b100 A"
b100 :#
b100001011 #"
b11111111 7"
b10000 @"
b1100 ?"
b11 1"
b11 S"
b11000 )"
b10000 ("
b10000 L#
b10 O"
b10 V"
b10 h#
b11111111111111111111111111110001 L"
b1111 "
1O
#60000
0O
#65000
0^"
1]"
b10000000000000000000000000000000 c"
b10000000000000000000000000000000 &"
b10000000000000000000000000000000 \"
b10000000000000000000000000000000 e"
b0 g"
b0 o"
b0 w"
b10000000000000000000000000000000 $"
b10000000000000000000000000000000 ["
b10000 d
b10000 i#
b11111111 a#
bx00000000 [#
b11111 \#
b111111 O#
b10000 ""
b101 l
b101 ;#
b101 j#
b11111 k
b11111 <#
b11111 k#
b0 {
b0 6#
b10011 A
b1111111 +#
b11111111111111111111111111111111 z
b11111111111111111111111111111111 H#
b11100 g
b11111111111111111111111111110001 -
b11 O"
b11 V"
b11 h#
b10000 L"
b100 1"
b100 S"
b100001011 )"
b11111111 ("
b11111111 L#
b0 E"
b0 U"
b101 A"
b101 :#
b10000000000000000000000000010000 #"
b10000000000000000000000000000000 7"
b10100 @"
b10000 ?"
b1010 5"
b1010 Y"
b11111111111100101000001010010011 H"
b11111111111100101000001010010011 *#
b11111111111100101000001010010011 ?#
b11000 J"
b10100 I"
b11100 f
b10000000000000000000001100110111 h
b10000000000000000000001100110111 >#
b11000 K"
b11000 =#
1O
#70000
0O
#75000
1^"
1~"
0]"
0)#
0$#
b10000000000000000000000000000001 c"
b1 `"
b1 p"
b1 u"
b10000000000000000 t"
b1000000000000000000000000 s"
b10000000000000000000000000000 r"
b1000000000000000000000000000000 q"
b11111111111111111111111111111111 a"
b11111111111111111111111111111111 x"
b11111111111111111111111111111111 }"
b11111111111111110000000000000000 |"
b11111111000000000000000000000000 {"
b11110000000000000000000000000000 z"
b11000000000000000000000000000000 y"
b1111111111111111111111111111111 &"
b1111111111111111111111111111111 \"
b1111111111111111111111111111111 e"
b11111 g"
b11111 o"
b11111 w"
b10000000000000000000000000000000 %"
b10000000000000000000000000000000 Z"
b10000000000000000000000000000000 f"
b10000000000000000000000000000000 n"
b10000000000000000000000000000000 v"
b10000000000000000000000000000000 '#
b11111111111111111111111111111111 $"
b11111111111111111111111111111111 ["
b10000000000000000000000000000000 !"
b10000000000000000000000000000000 %#
b100000 g
b0 l
b0 ;#
b0 j#
b0 k
b0 <#
b0 k#
b110 m
b1010 {
b1010 6#
b110111 A
b1000000 +#
b10000000000000000000000000000000 z
b10000000000000000000000000000000 H#
b10100 ""
b0 a#
bx [#
b0 \#
b0 O#
b1 W
b1 W"
b11111111 d
b11111111 i#
b100000 f
b1100001000001110110011 h
b1100001000001110110011 >#
b11100 K"
b11100 =#
b10000000000000000000001100110111 H"
b10000000000000000000001100110111 *#
b10000000000000000000001100110111 ?#
b11100 J"
b11000 I"
b11111 E"
b11111 U"
b101 C"
b101 T"
b10011 #"
b11111111111111111111111111111111 7"
b11000 @"
b10100 ?"
b0 5"
b0 Y"
b101 1"
b101 S"
b10000000000000000000000000010000 )"
b10000000000000000000000000000000 ("
b10000000000000000000000000000000 L#
b100 O"
b100 V"
b100 h#
b11111111 L"
b10000 8
1O
#80000
0O
#85000
0^"
1]"
1)#
0~"
b10000000000000000000000000000000 c"
b0 `"
b0 p"
b0 u"
b0 t"
b0 s"
b0 r"
b0 q"
b0 a"
b0 x"
b0 }"
b0 |"
b0 {"
b0 z"
b0 y"
b0 %"
b0 Z"
b0 f"
b0 n"
b0 v"
b0 '#
b0 g"
b0 o"
b0 w"
b0 !"
b0 %#
b10000000000000000000000000000000 $"
b10000000000000000000000000000000 ["
b1111 q
b1111 m#
b10000 p
b10000 l#
b10000000000000000000000000000000 d
b10000000000000000000000000000000 i#
b1111111111111 a#
bx00000000 [#
b11111 \#
b111111 O#
b0 W
b0 W"
b11000 ""
b10000000000000000000000000000000 &"
b10000000000000000000000000000000 \"
b10000000000000000000000000000000 e"
b1 l
b1 ;#
b1 j#
b11 k
b11 <#
b11 k#
b111 m
b0 {
b0 6#
b0 s
b0 8#
b110011 A
b0 +#
b0 z
b0 H#
b100100 g
b11111111 ;
b101 O"
b101 V"
b101 h#
b10000000000000000000000000000000 L"
b10011 )"
b1111111111111111111111111111111 ("
b1111111111111111111111111111111 L#
b0 E"
b0 U"
b0 C"
b0 T"
b110 A"
b110 :#
b10000000000000000000000000011000 #"
b10000000000000000000000000000000 7"
b11100 @"
b11000 ?"
b1010 5"
b1010 Y"
b1100001000001110110011 H"
b1100001000001110110011 *#
b1100001000001110110011 ?#
b100000 J"
b11100 I"
b100100 f
b10000010000010000110011 h
b10000010000010000110011 >#
b100000 K"
b100000 =#
1O
#90000
0O
#95000
1^"
1~"
0)#
0]"
b10000 g"
b10000 o"
b10000 w"
1!#
1(#
b11110000000000000000 b"
b11110000000000000000 h"
b11110000000000000000 m"
b1111 l"
b1111 k"
b1111 j"
b1111 i"
b0 `"
b0 p"
b0 u"
b1111 t"
b1111 s"
b1111 r"
b1111 q"
b0 a"
b0 x"
b0 }"
b1111 |"
b1111 {"
b1111 z"
b1111 y"
b11111111111111111111111111111111 c"
1_"
1d"
b11111111111111111111111111110001 q
b11111111111111111111111111110001 m#
b11111111 p
b11111111 l#
b1111 %"
b1111 Z"
b1111 f"
b1111 n"
b1111 v"
b11111111111111111111111111111111 '#
b101000 g
b10 l
b10 ;#
b10 j#
b100 k
b100 <#
b100 k#
b1000 m
b10000 ~
b10000 &#
b1111 !"
b1111 %#
b11100 ""
b11111 &"
b11111 \"
b11111 e"
b10000 $"
b10000 ["
b0 a#
bx [#
b0 \#
b0 O#
b1111111111111111111111111111111 d
b1111111111111111111111111111111 i#
b101000 f
b11000101000010010110011 h
b11000101000010010110011 >#
b100100 K"
b100100 =#
b10000010000010000110011 H"
b10000010000010000110011 *#
b10000010000010000110011 ?#
b100100 J"
b100000 I"
b11 E"
b11 U"
b1 C"
b1 T"
b111 A"
b111 :#
b11100 #"
b0 7"
b10000 F"
b1111 D"
b100000 @"
b11100 ?"
b0 5"
b0 Y"
b0 >"
b110 1"
b110 S"
b10000000000000000000000000011000 )"
b10000000000000000000000000000000 ("
b10000000000000000000000000000000 L#
b1111111111111111111111111111111 L"
b10000000000000000000000000000000 <
1O
#100000
0O
#105000
b11111 g"
b11111 o"
b11111 w"
b11111111111111111111111011110010 c"
0_"
0d"
b10000000000000000000000000000000 b"
b10000000000000000000000000000000 h"
b10000000000000000000000000000000 m"
b11111111111110001000000000000000 l"
b11111111111111111111100010000000 k"
b11111111111111111111111110001000 j"
b11111111111111111111111111100010 i"
b1 `"
b1 p"
b1 u"
b11111111111111111 t"
b1111111111111111111111111 s"
b11111111111111111111111111110 r"
b1111111111111111111111111111000 q"
b11111111111111111111111111111111 a"
b11111111111111111111111111111111 x"
b11111111111111111111111111111111 }"
b11111111111111111111111111111111 |"
b11111111111111111111111111111111 {"
b11111111111111111111111111111110 z"
b11111111111111111111111111111000 y"
b11110000 &"
b11110000 \"
b11110000 e"
b11111111 $"
b11111111 ["
b11111111111111111111111111110001 %"
b11111111111111111111111111110001 Z"
b11111111111111111111111111110001 f"
b11111111111111111111111111110001 n"
b11111111111111111111111111110001 v"
b11111111111111111111111011110010 '#
0!#
0(#
b1111111111111111111111111111111 q
b1111111111111111111111111111111 m#
b10000000000000000000000000000000 p
b10000000000000000000000000000000 l#
b10000000000000000000000000000000 d
b10000000000000000000000000000000 i#
b11111 a#
bx00000000 [#
b11111 \#
b11111 O#
b11111111 ~
b11111111 &#
b11111111111111111111111111110001 !"
b11111111111111111111111111110001 %#
b100000 #"
b100000 ""
b101 l
b101 ;#
b101 j#
b110 k
b110 <#
b110 k#
b1001 m
b101100 g
b1111111111111111111111111111111 <
b110 O"
b110 V"
b110 h#
b10000000000000000000000000000000 L"
b111 1"
b111 S"
b11100 )"
b10000 3"
b10000 M#
b11111 ("
b11111 L#
b100 E"
b100 U"
b10 C"
b10 T"
b1000 A"
b1000 :#
b11111111 F"
b11111111111111111111111111110001 D"
b100100 @"
b100000 ?"
b11000101000010010110011 H"
b11000101000010010110011 *#
b11000101000010010110011 ?#
b101000 J"
b100100 I"
b101100 f
b1000000000100011000010100110011 h
b1000000000100011000010100110011 >#
b101000 K"
b101000 =#
1O
#110000
0O
