Always_taken_SRAM/10_sim/always_taken_sram_tb.vcd
$date
	Thu Dec 12 22:48:47 2024
$end
$version
	Icarus Verilog
$end
$timescale
	1ps
$end
$scope module always_taken_sram_tb $end
$var wire 32 ! reg0 [31:0] $end
$var wire 32 " reg1 [31:0] $end
$var wire 32 # reg10 [31:0] $end
$var wire 32 $ reg11 [31:0] $end
$var wire 32 % reg12 [31:0] $end
$var wire 32 & reg13 [31:0] $end
$var wire 32 ' reg14 [31:0] $end
$var wire 32 ( reg15 [31:0] $end
$var wire 32 ) reg16 [31:0] $end
$var wire 32 * reg17 [31:0] $end
$var wire 32 + reg18 [31:0] $end
$var wire 32 , reg19 [31:0] $end
$var wire 32 - reg2 [31:0] $end
$var wire 32 . reg20 [31:0] $end
$var wire 32 / reg21 [31:0] $end
$var wire 32 0 reg22 [31:0] $end
$var wire 32 1 reg23 [31:0] $end
$var wire 32 2 reg24 [31:0] $end
$var wire 32 3 reg25 [31:0] $end
$var wire 32 4 reg26 [31:0] $end
$var wire 32 5 reg27 [31:0] $end
$var wire 32 6 reg28 [31:0] $end
$var wire 32 7 reg29 [31:0] $end
$var wire 32 8 reg3 [31:0] $end
$var wire 32 9 reg30 [31:0] $end
$var wire 32 : reg31 [31:0] $end
$var wire 32 ; reg4 [31:0] $end
$var wire 32 < reg5 [31:0] $end
$var wire 32 = reg6 [31:0] $end
$var wire 32 > reg7 [31:0] $end
$var wire 32 ? reg8 [31:0] $end
$var wire 32 @ reg9 [31:0] $end
$var wire 7 A type_instr [6:0] $end
$var wire 32 B o_pc_debug [31:0] $end
$var wire 32 C o_io_ledr [31:0] $end
$var wire 32 D o_io_ledg [31:0] $end
$var wire 32 E o_io_lcd [31:0] $end
$var wire 7 F o_io_hex7 [6:0] $end
$var wire 7 G o_io_hex6 [6:0] $end
$var wire 7 H o_io_hex5 [6:0] $end
$var wire 7 I o_io_hex4 [6:0] $end
$var wire 7 J o_io_hex3 [6:0] $end
$var wire 7 K o_io_hex2 [6:0] $end
$var wire 7 L o_io_hex1 [6:0] $end
$var wire 7 M o_io_hex0 [6:0] $end
$var wire 1 N o_insn_vld $end
$var reg 1 O i_clk $end
$var reg 4 P i_io_btn [3:0] $end
$var reg 32 Q i_io_sw [31:0] $end
$var reg 1 R i_rst_n $end
$var integer 32 S nop_count [31:0] $end
$scope module always_taken_sram_inst $end
$var wire 1 O i_clk $end
$var wire 4 T i_io_btn [3:0] $end
$var wire 32 U i_io_sw [31:0] $end
$var wire 1 R i_rstn $end
$var wire 1 N o_insn_vld $end
$var wire 32 V o_pc_debug [31:0] $end
$var wire 1 W sram_stall $end
$var wire 2 X rs2_sel [1:0] $end
$var wire 2 Y rs1_sel [1:0] $end
$var wire 1 Z pc_wren $end
$var wire 1 [ o_sram_we_n $end
$var wire 1 \ o_sram_ub_o $end
$var wire 1 ] o_sram_lb_n $end
$var wire 1 ^ o_sram_ce_n $end
$var wire 18 _ o_sram_addr [17:0] $end
$var wire 32 ` o_io_ledr [31:0] $end
$var wire 32 a o_io_ledg [31:0] $end
$var wire 32 b o_io_lcd [31:0] $end
$var wire 7 c o_io_hex7 [6:0] $end
$var wire 7 d o_io_hex6 [6:0] $end
$var wire 7 e o_io_hex5 [6:0] $end
$var wire 7 f o_io_hex4 [6:0] $end
$var wire 7 g o_io_hex3 [6:0] $end
$var wire 7 h o_io_hex2 [6:0] $end
$var wire 7 i o_io_hex1 [6:0] $end
$var wire 7 j o_io_hex0 [6:0] $end
$var wire 1 k mem_ctrl_mux $end
$var wire 1 l mem_ack $end
$var wire 16 m io_sram_dq [15:0] $end
$var wire 1 n i_sram_oe_n $end
$var wire 1 o cs0 $end
$var wire 32 p WB_rd_data [31:0] $end
$var wire 32 q MEM_lsu_rdata [31:0] $end
$var wire 1 r MEMWBreg_wren $end
$var wire 32 s IF_pcplus4 [31:0] $end
$var wire 32 t IF_pcnext [31:0] $end
$var wire 32 u IF_instr [31:0] $end
$var wire 1 v IF_flush $end
$var wire 32 w IF_btb_rd_target [31:0] $end
$var wire 1 x IF_btb_hit $end
$var wire 2 y IF_PCnext_sel [1:0] $end
$var wire 1 z IFIDreg_wren $end
$var wire 1 { IFIDreg_clr $end
$var wire 5 | IFID_rs2 [4:0] $end
$var wire 5 } IFID_rs1 [4:0] $end
$var wire 5 ~ IFID_rd [4:0] $end
$var wire 3 !" IFID_func3 [2:0] $end
$var wire 1 "" ID_wb_sel $end
$var wire 32 #" ID_rs2_data [31:0] $end
$var wire 32 $" ID_rs1_data [31:0] $end
$var wire 1 %" ID_rd_wren $end
$var wire 2 &" ID_opb_sel [1:0] $end
$var wire 1 '" ID_opa_sel $end
$var wire 1 (" ID_mem_wren $end
$var wire 1 )" ID_mem_rden $end
$var wire 2 *" ID_is_uncbr [1:0] $end
$var wire 1 +" ID_is_br $end
$var wire 1 ," ID_insn_vld $end
$var wire 32 -" ID_imm [31:0] $end
$var wire 4 ." ID_alu_op [3:0] $end
$var wire 1 /" IDEXreg_wren $end
$var wire 1 0" IDEXreg_clr $end
$var wire 1 1" EX_pcsel $end
$var wire 32 2" EX_fwd_rs2_data [31:0] $end
$var wire 32 3" EX_fwd_rs1_data [31:0] $end
$var wire 32 4" EX_br_base [31:0] $end
$var wire 32 5" EX_br_addr [31:0] $end
$var wire 32 6" EX_alu_opb [31:0] $end
$var wire 32 7" EX_alu_opa [31:0] $end
$var wire 32 8" EX_alu_data [31:0] $end
$var wire 1 9" EXMEMreg_wren $end
$var wire 1 :" EXMEMreg_clr $end
$var parameter 32 ;" INDEX_WIDTH $end
$var reg 32 <" EXMEM_alu_data [31:0] $end
$var reg 32 =" EXMEM_br_addr [31:0] $end
$var reg 1 >" EXMEM_btb_hit $end
$var reg 3 ?" EXMEM_func3 [2:0] $end
$var reg 1 @" EXMEM_insn_vld $end
$var reg 1 A" EXMEM_is_br $end
$var reg 2 B" EXMEM_is_uncbr [1:0] $end
$var reg 1 C" EXMEM_mem_rden $end
$var reg 1 D" EXMEM_mem_wren $end
$var reg 32 E" EXMEM_pc [31:0] $end
$var reg 32 F" EXMEM_pcplus4 [31:0] $end
$var reg 1 G" EXMEM_pcsel $end
$var reg 5 H" EXMEM_rd [4:0] $end
$var reg 1 I" EXMEM_rd_wren $end
$var reg 32 J" EXMEM_rs2_data [31:0] $end
$var reg 1 K" EXMEM_wb_sel $end
$var reg 4 L" IDEX_alu_op [3:0] $end
$var reg 1 M" IDEX_btb_hit $end
$var reg 3 N" IDEX_func3 [2:0] $end
$var reg 32 O" IDEX_imm [31:0] $end
$var reg 1 P" IDEX_insn_vld $end
$var reg 1 Q" IDEX_is_br $end
$var reg 2 R" IDEX_is_uncbr [1:0] $end
$var reg 1 S" IDEX_mem_rden $end
$var reg 1 T" IDEX_mem_wren $end
$var reg 1 U" IDEX_opa_sel $end
$var reg 2 V" IDEX_opb_sel [1:0] $end
$var reg 32 W" IDEX_pc [31:0] $end
$var reg 32 X" IDEX_pcplus4 [31:0] $end
$var reg 5 Y" IDEX_rd [4:0] $end
$var reg 1 Z" IDEX_rd_wren $end
$var reg 5 [" IDEX_rs1 [4:0] $end
$var reg 32 \" IDEX_rs1_data [31:0] $end
$var reg 5 ]" IDEX_rs2 [4:0] $end
$var reg 32 ^" IDEX_rs2_data [31:0] $end
$var reg 1 _" IDEX_wb_sel $end
$var reg 1 `" IFID_btb_hit $end
$var reg 32 a" IFID_instr [31:0] $end
$var reg 32 b" IFID_pc [31:0] $end
$var reg 32 c" IFID_pcplus4 [31:0] $end
$var reg 32 d" IF_pc [31:0] $end
$var reg 32 e" MEMWB_alu_data [31:0] $end
$var reg 1 f" MEMWB_insn_vld $end
$var reg 32 g" MEMWB_lsu_rdata [31:0] $end
$var reg 32 h" MEMWB_pc [31:0] $end
$var reg 5 i" MEMWB_rd [4:0] $end
$var reg 1 j" MEMWB_rd_wren $end
$var reg 1 k" MEMWB_wb_sel $end
$var reg 1 l" true_mem_rden $end
$var reg 1 m" true_mem_wren $end
$scope module ctrl_fsm_inst $end
$var wire 1 O clk $end
$var wire 1 C" rden $end
$var wire 1 R rstn $end
$var wire 1 n" stall_cond $end
$var wire 1 D" wren $end
$var wire 1 o cs0 $end
$var wire 1 l ack $end
$var parameter 1 o" PROCESS $end
$var parameter 1 p" STALL $end
$var reg 1 k mem_ctrl_mux $end
$var reg 1 q" next_state $end
$var reg 1 W sram_stall $end
$var reg 1 r" state $end
$upscope $end
$scope module fwd_unit_inst $end
$var wire 5 s" EXMEM_rd [4:0] $end
$var wire 1 I" EXMEM_rd_wren $end
$var wire 5 t" IDEX_rs1 [4:0] $end
$var wire 5 u" IDEX_rs2 [4:0] $end
$var wire 5 v" MEMWB_rd [4:0] $end
$var wire 1 j" MEMWB_rd_wren $end
$var reg 2 w" rs1_sel [1:0] $end
$var reg 2 x" rs2_sel [1:0] $end
$upscope $end
$scope module inst_alu $end
$var wire 4 y" i_alu_op [3:0] $end
$var wire 32 z" i_operand_a [31:0] $end
$var wire 32 {" i_operand_b [31:0] $end
$var wire 32 |" o_alu_data [31:0] $end
$var wire 1 }" overflow $end
$var wire 1 ~" signed_lt $end
$var wire 1 !# unsigned_lt $end
$var wire 32 "# temp_srl [31:0] $end
$var wire 32 ## temp_sra [31:0] $end
$var wire 32 $# temp_sll [31:0] $end
$var wire 32 %# temp [31:0] $end
$var wire 1 &# carry $end
$var reg 32 '# alu_temp [31:0] $end
$scope module u1 $end
$var wire 32 (# i_operand_a [31:0] $end
$var wire 5 )# i_operand_b [4:0] $end
$var wire 32 *# o_sll_data [31:0] $end
$var reg 32 +# temp1 [31:0] $end
$var reg 32 ,# temp2 [31:0] $end
$var reg 32 -# temp3 [31:0] $end
$var reg 32 .# temp4 [31:0] $end
$var reg 32 /# temp5 [31:0] $end
$upscope $end
$scope module u2 $end
$var wire 32 0# i_operand_a [31:0] $end
$var wire 5 1# i_operand_b [4:0] $end
$var wire 32 2# o_srl_data [31:0] $end
$var reg 32 3# temp1 [31:0] $end
$var reg 32 4# temp2 [31:0] $end
$var reg 32 5# temp3 [31:0] $end
$var reg 32 6# temp4 [31:0] $end
$var reg 32 7# temp5 [31:0] $end
$upscope $end
$scope module u3 $end
$var wire 32 8# i_operand_a [31:0] $end
$var wire 5 9# i_operand_b [4:0] $end
$var wire 32 :# o_sra_data [31:0] $end
$var reg 32 ;# temp1 [31:0] $end
$var reg 32 <# temp2 [31:0] $end
$var reg 32 =# temp3 [31:0] $end
$var reg 32 ># temp4 [31:0] $end
$var reg 32 ?# temp5 [31:0] $end
$upscope $end
$upscope $end
$scope module inst_bru $end
$var wire 1 @# br_less $end
$var wire 1 A# br_less_uns $end
$var wire 3 B# func3 [2:0] $end
$var wire 1 Q" is_br $end
$var wire 1 C# is_uncbr $end
$var wire 1 D# overflow $end
$var wire 32 E# rs1_data [31:0] $end
$var wire 32 F# rs2_data [31:0] $end
$var wire 32 G# sub [31:0] $end
$var wire 1 H# carry $end
$var wire 1 I# br_equal $end
$var reg 1 1" pc_sel $end
$upscope $end
$scope module inst_ctrl_unit $end
$var wire 32 J# instr [31:0] $end
$var wire 7 K# func7 [6:0] $end
$var wire 3 L# func3 [2:0] $end
$var parameter 7 M# B_type $end
$var parameter 7 N# I_type_IMM $end
$var parameter 7 O# I_type_JALR $end
$var parameter 7 P# I_type_LD $end
$var parameter 7 Q# J_type $end
$var parameter 7 R# R_type $end
$var parameter 7 S# S_type $end
$var parameter 7 T# U_type_AUIPC $end
$var parameter 7 U# U_type_LUI $end
$var reg 4 V# alu_op [3:0] $end
$var reg 1 ," insn_vld $end
$var reg 1 +" is_br $end
$var reg 2 W# is_uncbr [1:0] $end
$var reg 1 )" mem_rden $end
$var reg 1 (" mem_wren $end
$var reg 1 '" op_a_sel $end
$var reg 2 X# op_b_sel [1:0] $end
$var reg 1 %" rd_wren $end
$var reg 1 "" wb_sel $end
$upscope $end
$scope module inst_hdu $end
$var wire 1 S" IDEX_mem_rden $end
$var wire 5 Y# IDEX_rd [4:0] $end
$var wire 1 Z" IDEX_rdwren $end
$var wire 5 Z# IFID_rs1 [4:0] $end
$var wire 5 [# IFID_rs2 [4:0] $end
$var wire 1 W sram_stall $end
$var wire 1 v br_flush $end
$var reg 1 :" EXMEM_clear $end
$var reg 1 9" EXMEM_wren $end
$var reg 1 0" IDEX_clear $end
$var reg 1 /" IDEX_wren $end
$var reg 1 { IFID_clear $end
$var reg 1 z IFID_wren $end
$var reg 1 r MEMWB_wren $end
$var reg 1 Z pc_wren $end
$upscope $end
$scope module inst_imem $end
$var wire 32 \# i_addr [31:0] $end
$var wire 32 ]# o_data [31:0] $end
$upscope $end
$scope module inst_immgen $end
$var wire 32 ^# instruction_i [31:0] $end
$var parameter 7 _# B_type $end
$var parameter 7 `# I_type_IMM $end
$var parameter 7 a# I_type_JALR $end
$var parameter 7 b# I_type_LD $end
$var parameter 7 c# J_type $end
$var parameter 7 d# R_type $end
$var parameter 7 e# S_type $end
$var parameter 7 f# U_type_AUIPC $end
$var parameter 7 g# U_type_LUI $end
$var reg 32 h# immediate_o [31:0] $end
$upscope $end
$scope module inst_lsu $end
$var wire 1 O i_clk $end
$var wire 3 i# i_func3 [2:0] $end
$var wire 32 j# i_io_btn [31:0] $end
$var wire 32 k# i_io_sw [31:0] $end
$var wire 32 l# i_lsu_addr [31:0] $end
$var wire 1 l" i_lsu_rden $end
$var wire 1 m" i_lsu_wren $end
$var wire 1 R i_rst_n $end
$var wire 32 m# i_st_data [31:0] $end
$var wire 32 n# output_mem_out [31:0] $end
$var wire 6 o# output_mem_addr [5:0] $end
$var wire 1 [ o_sram_we_n $end
$var wire 1 \ o_sram_ub_o $end
$var wire 1 ] o_sram_lb_n $end
$var wire 1 ^ o_sram_ce_n $end
$var wire 18 p# o_sram_addr [17:0] $end
$var wire 32 q# o_io_ledr [31:0] $end
$var wire 32 r# o_io_ledg [31:0] $end
$var wire 32 s# o_io_lcd [31:0] $end
$var wire 7 t# o_io_hex7 [6:0] $end
$var wire 7 u# o_io_hex6 [6:0] $end
$var wire 7 v# o_io_hex5 [6:0] $end
$var wire 7 w# o_io_hex4 [6:0] $end
$var wire 7 x# o_io_hex3 [6:0] $end
$var wire 7 y# o_io_hex2 [6:0] $end
$var wire 7 z# o_io_hex1 [6:0] $end
$var wire 7 {# o_io_hex0 [6:0] $end
$var wire 1 o o_cs0 $end
$var wire 1 l o_ack $end
$var wire 16 |# io_sram_dq [15:0] $end
$var wire 32 }# input_mem_out [31:0] $end
$var wire 5 ~# input_mem_addr [4:0] $end
$var wire 1 n i_sram_oe_n $end
$var wire 2 !$ i_s_length [1:0] $end
$var wire 1 "$ i_l_unsigned $end
$var wire 2 #$ i_l_length [1:0] $end
$var wire 32 $$ data_mem_out [31:0] $end
$var wire 13 %$ data_mem_addr [12:0] $end
$var reg 3 &$ cs [2:0] $end
$var reg 32 '$ ld_temp_data [31:0] $end
$var reg 32 ($ o_ld_data [31:0] $end
$scope module sram_controller_inst $end
$var wire 16 )$ DIN [15:0] $end
$var wire 16 *$ SRAM_DQ [15:0] $end
$var wire 18 +$ i_ADDR [17:0] $end
$var wire 4 ,$ i_BMASK [3:0] $end
$var wire 1 -$ i_RDEN $end
$var wire 32 .$ i_WDATA [31:0] $end
$var wire 1 /$ i_WREN $end
$var wire 1 O i_clk $end
$var wire 1 R i_reset $end
$var reg 16 0$ DOUT [15:0] $end
$var reg 18 1$ SRAM_ADDR [17:0] $end
$var reg 1 ^ SRAM_CE_N $end
$var reg 1 ] SRAM_LB_N $end
$var reg 1 n SRAM_OE_N $end
$var reg 1 \ SRAM_UB_N $end
$var reg 1 [ SRAM_WE_N $end
$var reg 18 2$ addr_d [17:0] $end
$var reg 18 3$ addr_q [17:0] $end
$var reg 4 4$ bmask_d [3:0] $end
$var reg 4 5$ bmask_q [3:0] $end
$var reg 1 l o_ACK $end
$var reg 32 6$ o_RDATA [31:0] $end
$var reg 32 7$ rdata_d [31:0] $end
$var reg 32 8$ rdata_q [31:0] $end
$var reg 3 9$ sram_state_d [2:0] $end
$var reg 3 :$ sram_state_q [2:0] $end
$var reg 32 ;$ wdata_d [31:0] $end
$var reg 32 <$ wdata_q [31:0] $end
$scope begin proc_detect_state $end
$upscope $end
$scope begin proc_output_to_lsu $end
$upscope $end
$scope begin proc_output_to_sram $end
$upscope $end
$upscope $end
$scope begin $ivl_for_loop0 $end
$var integer 32 =$ i [31:0] $end
$upscope $end
$scope begin $ivl_for_loop1 $end
$var integer 32 >$ i [31:0] $end
$upscope $end
$upscope $end
$scope module inst_predictor $end
$var wire 1 G" EXMEM_br_decision_i $end
$var wire 1 >" EXMEM_btb_hit_i $end
$var wire 12 ?$ EXMEM_btb_wr_index_i [11:0] $end
$var wire 18 @$ EXMEM_btb_wr_tag_i [17:0] $end
$var wire 32 A$ EXMEM_btb_wr_target_i [31:0] $end
$var wire 1 A" EXMEM_is_br_i $end
$var wire 2 B$ EXMEM_is_uncbr_i [1:0] $end
$var wire 18 C$ IF_PC_tag_i [17:0] $end
$var wire 12 D$ IF_btb_rd_index_i [11:0] $end
$var wire 1 E$ btb_wren $end
$var wire 1 O clk_i $end
$var wire 1 R rst_i $end
$var wire 1 F$ btb_valid $end
$var wire 32 G$ IF_btb_rd_target_o [31:0] $end
$var wire 18 H$ IF_btb_rd_tag [17:0] $end
$var wire 1 x IF_btb_hit_o $end
$var parameter 32 I$ INDEX_WIDTH $end
$var reg 2 J$ IF_PCnext_sel_o [1:0] $end
$var reg 1 v IF_flush_o $end
$scope module u_btb $end
$var wire 1 O clk_i $end
$var wire 12 K$ rd_index_i [11:0] $end
$var wire 18 L$ rd_tag_o [17:0] $end
$var wire 32 M$ rd_target_o [31:0] $end
$var wire 1 R rst_i $end
$var wire 1 F$ valid_o $end
$var wire 12 N$ wr_index_i [11:0] $end
$var wire 18 O$ wr_tag_i [17:0] $end
$var wire 32 P$ wr_target_i [31:0] $end
$var wire 1 E$ wren_i $end
$var parameter 32 Q$ INDEX_WIDTH $end
$var parameter 32 R$ TABLE_SIZE $end
$var integer 32 S$ i [31:0] $end
$upscope $end
$upscope $end
$scope module inst_regfile $end
$var wire 1 O clk_i $end
$var wire 5 T$ rd_addr [4:0] $end
$var wire 32 U$ rd_data [31:0] $end
$var wire 1 j" rd_wren $end
$var wire 5 V$ rs1_addr [4:0] $end
$var wire 5 W$ rs2_addr [4:0] $end
$var wire 1 R rst_ni $end
$var wire 32 X$ rs2_data [31:0] $end
$var wire 32 Y$ rs1_data [31:0] $end
$scope begin $ivl_for_loop2 $end
$var integer 32 Z$ i [31:0] $end
$upscope $end
$upscope $end
$upscope $end
$upscope $end
$enddefinitions $end
$comment Show the parameter values. $end
$dumpall
b1000000000000 R$
b1100 Q$
b1100 I$
b110111 g#
b10111 f#
b100011 e#
b110011 d#
b1101111 c#
b11 b#
b1100111 a#
b10011 `#
b1100011 _#
b110111 U#
b10111 T#
b100011 S#
b110011 R#
b1101111 Q#
b11 P#
b1100111 O#
b10011 N#
b1100011 M#
1p"
0o"
b1100 ;"
$end
#0
$dumpvars
b100000 Z$
b0 Y$
b0 X$
b0 W$
b0 V$
b0 U$
b0 T$
b1000000000000 S$
b0 P$
b0 O$
b0 N$
b0 M$
b0 L$
b0 K$
b0 J$
b0 H$
b0 G$
0F$
0E$
b0 D$
b0 C$
b0 B$
b0 A$
b0 @$
b0 ?$
b100000 >$
b1000000 =$
bx <$
b0 ;$
bx :$
b0 9$
bx 8$
b0 7$
bx 6$
bx 5$
b0 4$
bx 3$
b0 2$
bx 1$
bx 0$
0/$
b0 .$
0-$
b1111 ,$
b0 +$
bx *$
bx )$
b0 ($
b0 '$
b0 &$
b0 %$
bx $$
b0 #$
0"$
b0 !$
b0 ~#
b0 }#
bx |#
b0 {#
b0 z#
b0 y#
b0 x#
b0 w#
b0 v#
b0 u#
b0 t#
b0 s#
b0 r#
b0 q#
bx p#
b0 o#
b0 n#
b0 m#
b0 l#
bx k#
b0xxxx j#
b0 i#
b0 h#
b0 ^#
b10011 ]#
b0 \#
b0 [#
b0 Z#
b0 Y#
b0 X#
b0 W#
b0 V#
b0 L#
b0 K#
b0 J#
1I#
0H#
b0 G#
b0 F#
b0 E#
0D#
0C#
b0 B#
0A#
0@#
b0 ?#
b0 >#
b0 =#
b0 <#
b0 ;#
b0 :#
b0 9#
b0 8#
b0 7#
b0 6#
b0 5#
b0 4#
b0 3#
b0 2#
b0 1#
b0 0#
b0 /#
b0 .#
b0 -#
b0 ,#
b0 +#
b0 *#
b0 )#
b0 (#
b0 '#
0&#
b0 %#
b0 $#
b0 ##
b0 "#
0!#
0~"
0}"
b0 |"
b0 {"
b0 z"
b0 y"
b0 x"
b0 w"
b0 v"
b0 u"
b0 t"
b0 s"
0r"
0q"
0n"
0m"
0l"
0k"
0j"
b0 i"
b0 h"
b0 g"
0f"
b0 e"
b0 d"
b0 c"
b0 b"
b0 a"
0`"
0_"
b0 ^"
b0 ]"
b0 \"
b0 ["
0Z"
b0 Y"
b0 X"
b0 W"
b0 V"
0U"
0T"
0S"
b0 R"
0Q"
0P"
b0 O"
b0 N"
0M"
b0 L"
0K"
b0 J"
0I"
b0 H"
0G"
b0 F"
b0 E"
0D"
0C"
b0 B"
0A"
0@"
b0 ?"
0>"
b0 ="
b0 <"
0:"
19"
b0 8"
b0 7"
b0 6"
b0 5"
b0 4"
b0 3"
b0 2"
01"
00"
1/"
b0 ."
b0 -"
0,"
0+"
b0 *"
0)"
0("
0'"
b0 &"
0%"
b0 $"
b0 #"
0""
b0 !"
b0 ~
b0 }
b0 |
0{
1z
b0 y
0x
b0 w
0v
b10011 u
b100 t
b100 s
1r
b0 q
b0 p
0o
xn
bx m
xl
0k
b0 j
b0 i
b0 h
b0 g
b0 f
b0 e
b0 d
b0 c
b0 b
b0 a
b0 `
bx _
x^
x]
x\
x[
1Z
b0 Y
b0 X
0W
b0 V
bx U
bx T
b0 S
0R
bx Q
bx P
0O
0N
b0 M
b0 L
b0 K
b0 J
b0 I
b0 H
b0 G
b0 F
b0 E
b0 D
b0 C
b0 B
b0 A
b0 @
b0 ?
b0 >
b0 =
b0 <
b0 ;
b0 :
b0 9
b0 8
b0 7
b0 6
b0 5
b0 4
b0 3
b0 2
b0 1
b0 0
b0 /
b0 .
b0 -
b0 ,
b0 +
b0 *
b0 )
b0 (
b0 '
b0 &
b0 %
b0 $
b0 #
b0 "
b0 !
$end
#5000
0l
b0 $$
b0 6$
1\
1]
1^
1n
1[
bz )$
bz m
bz |#
bz *$
bz 0$
b0 _
b0 p#
b0 1$
b0 :$
b0 5$
b0 8$
b0 <$
b0 3$
b100000 >$
b1000000 =$
b100000 Z$
b1000000000000 S$
b1 S
1O
#10000
0O
1R
#15000
b1 D$
b1 K$
b1000 t
1,"
b1 &"
b1 X#
1%"
b10011 A
bx }#
b1000 s
b100 d"
b100 \#
b10011 a"
b10011 J#
b10011 ^#
b100 c"
b10 S
1O
#20000
0O
#25000
b10 D$
b10 K$
b1100 t
b100 X"
b1 V"
1Z"
1P"
b1000 c"
b100 b"
b1100 s
b1000 d"
b1000 \#
b11 S
1O
#30000
0O
#35000
b11 D$
b11 K$
b10000 t
b111000100110111 u
b111000100110111 ]#
b100 5"
b100 4"
b1 X
b1 x"
b1 Y
b1 w"
b10000 s
b1100 d"
b1100 \#
b1100 c"
b1000 b"
b1000 X"
b100 W"
b100 F"
1I"
1@"
b100 S
1O
#40000
0O
#45000
b1 ?$
b1 N$
b1000 5"
b1000 4"
b10 ~
b111 !"
b1010 ."
b1010 V#
b110111 A
b111 L#
b111000000000000 -"
b111000000000000 h#
b100 D$
b100 K$
b10100 t
b11000000010000000100010011 u
b11000000010000000100010011 ]#
1j"
1N
1f"
b1000 F"
b100 E"
b100 ="
b100 A$
b100 P$
b1100 X"
b1000 W"
b111000100110111 a"
b111000100110111 J#
b111000100110111 ^#
b10000 c"
b1100 b"
b10100 s
b10000 d"
b10000 \#
b101 S
1O
#50000
0O
#55000
1~"
b11111111111111111001000000000000 %#
1!#
1&#
b111000000000000 8"
b111000000000000 |"
b111000000000000 '#
b111000000000000 6"
b111000000000000 {"
b101 D$
b101 K$
b11000 t
b11000000000000000000000110110111 u
b11000000000000000000000110110111 ]#
b10 }
b10 Z#
b10 V$
b10000 |
b10000 [#
b10000 W$
b0 !"
b0 ."
b0 V#
b10011 A
b1 K#
b0 L#
b110000 -"
b110000 h#
b1100 4"
b10 ?$
b10 N$
b11000 s
b10100 d"
b10100 \#
b11000000010000000100010011 a"
b11000000010000000100010011 J#
b11000000010000000100010011 ^#
b10100 c"
b10000 b"
b10 Y"
b10 Y#
b111 N"
b111 B#
b111000000001100 5"
b111000000000000 O"
b10000 X"
b1100 W"
b1010 L"
b1010 y"
b1100 F"
b1000 E"
b1000 ="
b1000 A$
b1000 P$
b100 B
b100 V
b100 h"
1O
#60000
0O
#65000
0~"
0I#
0!#
0&#
b110111111010000 %#
b111000000000000 G#
b1110000000000000000000000000000 $#
b1110000000000000000000000000000 *#
b1110000000000000000000000000000 /#
b111000000000000 .#
b111000000000000 -#
b111000000000000 ,#
b111000000000000 +#
b111000000000000 6#
b111000000000000 5#
b111000000000000 4#
b111000000000000 3#
b111000000000000 >#
b111000000000000 =#
b111000000000000 <#
b111000000000000 ;#
b111000000000000 7"
b111000000000000 z"
b111000000000000 (#
b111000000000000 0#
b111000000000000 8#
b1000000000000 +$
b111000000110000 8"
b111000000110000 |"
b111000000110000 '#
b10000 )#
b10000 1#
b10000 9#
b11001100110011 q
b11001100110011 ($
b111000000000000 3"
b111000000000000 E#
b110000 6"
b110000 {"
b11 ?$
b11 N$
b11 !$
b11 #$
1"$
b10 &$
b1000000000000 %$
b0 X
b0 x"
b10000 4"
b0 }
b0 Z#
b0 V$
b0 |
b0 [#
b0 W$
b11 ~
b1010 ."
b1010 V#
b110111 A
b1100000 K#
b11000000000000000000000000000000 -"
b11000000000000000000000000000000 h#
b110 D$
b110 K$
b11100 t
b1100010010000000100011 u
b1100010010000000100011 ]#
b1000 B
b1000 V
b1000 h"
b10000 F"
b1100 E"
b10 H"
b10 s"
b111 ?"
b111 i#
b111000000001100 ="
b111000000001100 A$
b111000000001100 P$
b111000000000000 <"
b111000000000000 l#
b10000 ]"
b10000 u"
b10 ["
b10 t"
b0 N"
b0 B#
b1000000 5"
b110000 O"
b10100 X"
b10000 W"
b0 L"
b0 y"
b11000000000000000000000110110111 a"
b11000000000000000000000110110111 J#
b11000000000000000000000110110111 ^#
b11000 c"
b10100 b"
b11100 s
b11000 d"
b11000 \#
1O
#70000
0O
#75000
1I#
b1000000000000000000000000000000 %#
1!#
1&#
b111000000000000 $"
b111000000000000 Y$
b0 $#
b0 *#
b0 /#
b0 .#
b0 -#
b0 ,#
b0 +#
b0 6#
b0 5#
b0 4#
b0 3#
b0 >#
b0 =#
b0 <#
b0 ;#
b0 G#
b0 )#
b0 1#
b0 9#
b1000000110000 +$
b0xxxx }#
b0 7"
b0 z"
b0 (#
b0 0#
b0 8#
b11000000000000000000000000000000 6"
b11000000000000000000000000000000 {"
b0 q
b0 ($
b0 3"
b0 E#
b111 D$
b111 K$
b100000 t
b11111000110110111 u
b11111000110110111 ]#
b10 }
b10 Z#
b10 V$
b11 |
b11 [#
b11 W$
b0 ~
b10 !"
b0 ."
b0 V#
1("
0%"
b100011 A
b0 K#
b10 L#
b0 -"
b0 h#
b10100 4"
b11000000000000000000000000000000 8"
b11000000000000000000000000000000 |"
b11000000000000000000000000000000 '#
b100 ?$
b100 N$
b0 !$
b0 #$
0"$
b1000000110000 %$
b10000 ~#
b110000 o#
b0 Y
b0 w"
b111000000000000 p
b111000000000000 U$
b100000 s
b11100 d"
b11100 \#
b1100010010000000100011 a"
b1100010010000000100011 J#
b1100010010000000100011 ^#
b11100 c"
b11000 b"
b0 ]"
b0 u"
b0 ["
b0 t"
b11 Y"
b11 Y#
b11000000000000000000000000010100 5"
b11000000000000000000000000000000 O"
b11000 X"
b10100 W"
b1010 L"
b1010 y"
b10100 F"
b10000 E"
b0 ?"
b0 i#
b1000000 ="
b1000000 A$
b1000000 P$
b111000000110000 <"
b111000000110000 l#
b1100 B
b1100 V
b1100 h"
b10 i"
b10 v"
b10 T$
b11001100110011 g"
b111000000000000 e"
1O
#80000
0O
