Always_taken_SRAM/10_sim/always_taken_sram_tb.vcd
$date
	Thu Dec  5 13:30:19 2024
$end
$version
	Icarus Verilog
$end
$timescale
	1ps
$end
$scope module always_taken_sram_tb $end
$var wire 32 ! reg0 [31:0] $end
$var wire 32 " reg1 [31:0] $end
$var wire 32 # reg10 [31:0] $end
$var wire 32 $ reg11 [31:0] $end
$var wire 32 % reg12 [31:0] $end
$var wire 32 & reg13 [31:0] $end
$var wire 32 ' reg14 [31:0] $end
$var wire 32 ( reg15 [31:0] $end
$var wire 32 ) reg16 [31:0] $end
$var wire 32 * reg17 [31:0] $end
$var wire 32 + reg18 [31:0] $end
$var wire 32 , reg19 [31:0] $end
$var wire 32 - reg2 [31:0] $end
$var wire 32 . reg20 [31:0] $end
$var wire 32 / reg21 [31:0] $end
$var wire 32 0 reg22 [31:0] $end
$var wire 32 1 reg23 [31:0] $end
$var wire 32 2 reg24 [31:0] $end
$var wire 32 3 reg25 [31:0] $end
$var wire 32 4 reg26 [31:0] $end
$var wire 32 5 reg27 [31:0] $end
$var wire 32 6 reg28 [31:0] $end
$var wire 32 7 reg29 [31:0] $end
$var wire 32 8 reg3 [31:0] $end
$var wire 32 9 reg30 [31:0] $end
$var wire 32 : reg31 [31:0] $end
$var wire 32 ; reg4 [31:0] $end
$var wire 32 < reg5 [31:0] $end
$var wire 32 = reg6 [31:0] $end
$var wire 32 > reg7 [31:0] $end
$var wire 32 ? reg8 [31:0] $end
$var wire 32 @ reg9 [31:0] $end
$var wire 7 A type_instr [6:0] $end
$var wire 32 B o_pc_debug [31:0] $end
$var wire 32 C o_io_ledr [31:0] $end
$var wire 32 D o_io_ledg [31:0] $end
$var wire 32 E o_io_lcd [31:0] $end
$var wire 7 F o_io_hex7 [6:0] $end
$var wire 7 G o_io_hex6 [6:0] $end
$var wire 7 H o_io_hex5 [6:0] $end
$var wire 7 I o_io_hex4 [6:0] $end
$var wire 7 J o_io_hex3 [6:0] $end
$var wire 7 K o_io_hex2 [6:0] $end
$var wire 7 L o_io_hex1 [6:0] $end
$var wire 7 M o_io_hex0 [6:0] $end
$var wire 1 N o_insn_vld $end
$var reg 1 O i_clk $end
$var reg 4 P i_io_btn [3:0] $end
$var reg 32 Q i_io_sw [31:0] $end
$var reg 1 R i_rst_n $end
$var integer 32 S nop_count [31:0] $end
$scope module always_taken_sram_inst $end
$var wire 1 O i_clk $end
$var wire 4 T i_io_btn [3:0] $end
$var wire 32 U i_io_sw [31:0] $end
$var wire 1 R i_rstn $end
$var wire 1 N o_insn_vld $end
$var wire 1 V sram_stall $end
$var wire 2 W rs2_sel [1:0] $end
$var wire 2 X rs1_sel [1:0] $end
$var wire 1 Y pc_wren $end
$var wire 1 Z o_sram_we_n $end
$var wire 1 [ o_sram_ub_o $end
$var wire 1 \ o_sram_lb_n $end
$var wire 1 ] o_sram_ce_n $end
$var wire 18 ^ o_sram_addr [17:0] $end
$var wire 32 _ o_io_ledr [31:0] $end
$var wire 32 ` o_io_ledg [31:0] $end
$var wire 32 a o_io_lcd [31:0] $end
$var wire 7 b o_io_hex7 [6:0] $end
$var wire 7 c o_io_hex6 [6:0] $end
$var wire 7 d o_io_hex5 [6:0] $end
$var wire 7 e o_io_hex4 [6:0] $end
$var wire 7 f o_io_hex3 [6:0] $end
$var wire 7 g o_io_hex2 [6:0] $end
$var wire 7 h o_io_hex1 [6:0] $end
$var wire 7 i o_io_hex0 [6:0] $end
$var wire 1 j mem_ctrl_mux $end
$var wire 1 k mem_ack $end
$var wire 16 l io_sram_dq [15:0] $end
$var wire 1 m i_sram_oe_n $end
$var wire 1 n cs0 $end
$var wire 32 o WB_rd_data [31:0] $end
$var wire 32 p MEM_lsu_rdata [31:0] $end
$var wire 1 q MEMWBreg_wren $end
$var wire 32 r IF_pcplus4 [31:0] $end
$var wire 32 s IF_pcnext [31:0] $end
$var wire 32 t IF_instr [31:0] $end
$var wire 1 u IF_flush $end
$var wire 32 v IF_btb_rd_target [31:0] $end
$var wire 1 w IF_btb_hit $end
$var wire 2 x IF_PCnext_sel [1:0] $end
$var wire 1 y IFIDreg_wren $end
$var wire 1 z IFIDreg_clr $end
$var wire 5 { IFID_rs2 [4:0] $end
$var wire 5 | IFID_rs1 [4:0] $end
$var wire 5 } IFID_rd [4:0] $end
$var wire 3 ~ IFID_func3 [2:0] $end
$var wire 1 !" ID_wb_sel $end
$var wire 32 "" ID_rs2_data [31:0] $end
$var wire 32 #" ID_rs1_data [31:0] $end
$var wire 1 $" ID_rd_wren $end
$var wire 2 %" ID_opb_sel [1:0] $end
$var wire 1 &" ID_opa_sel $end
$var wire 1 '" ID_mem_wren $end
$var wire 1 (" ID_mem_rden $end
$var wire 2 )" ID_is_uncbr [1:0] $end
$var wire 1 *" ID_is_br $end
$var wire 1 +" ID_insn_vld $end
$var wire 32 ," ID_imm [31:0] $end
$var wire 4 -" ID_alu_op [3:0] $end
$var wire 1 ." IDEXreg_wren $end
$var wire 1 /" IDEXreg_clr $end
$var wire 1 0" EX_pcsel $end
$var wire 32 1" EX_fwd_rs2_data [31:0] $end
$var wire 32 2" EX_fwd_rs1_data [31:0] $end
$var wire 32 3" EX_br_base [31:0] $end
$var wire 32 4" EX_br_addr [31:0] $end
$var wire 32 5" EX_alu_opb [31:0] $end
$var wire 32 6" EX_alu_opa [31:0] $end
$var wire 32 7" EX_alu_data [31:0] $end
$var wire 1 8" EXMEMreg_wren $end
$var wire 1 9" EXMEMreg_clr $end
$var parameter 32 :" INDEX_WIDTH $end
$var reg 32 ;" EXMEM_alu_data [31:0] $end
$var reg 32 <" EXMEM_br_addr [31:0] $end
$var reg 1 =" EXMEM_btb_hit $end
$var reg 3 >" EXMEM_func3 [2:0] $end
$var reg 1 ?" EXMEM_insn_vld $end
$var reg 1 @" EXMEM_is_br $end
$var reg 2 A" EXMEM_is_uncbr [1:0] $end
$var reg 1 B" EXMEM_mem_rden $end
$var reg 1 C" EXMEM_mem_wren $end
$var reg 32 D" EXMEM_pc [31:0] $end
$var reg 32 E" EXMEM_pcplus4 [31:0] $end
$var reg 1 F" EXMEM_pcsel $end
$var reg 5 G" EXMEM_rd [4:0] $end
$var reg 1 H" EXMEM_rd_wren $end
$var reg 32 I" EXMEM_rs2_data [31:0] $end
$var reg 1 J" EXMEM_wb_sel $end
$var reg 4 K" IDEX_alu_op [3:0] $end
$var reg 1 L" IDEX_btb_hit $end
$var reg 3 M" IDEX_func3 [2:0] $end
$var reg 32 N" IDEX_imm [31:0] $end
$var reg 1 O" IDEX_insn_vld $end
$var reg 1 P" IDEX_is_br $end
$var reg 2 Q" IDEX_is_uncbr [1:0] $end
$var reg 1 R" IDEX_mem_rden $end
$var reg 1 S" IDEX_mem_wren $end
$var reg 1 T" IDEX_opa_sel $end
$var reg 2 U" IDEX_opb_sel [1:0] $end
$var reg 32 V" IDEX_pc [31:0] $end
$var reg 32 W" IDEX_pcplus4 [31:0] $end
$var reg 5 X" IDEX_rd [4:0] $end
$var reg 1 Y" IDEX_rd_wren $end
$var reg 5 Z" IDEX_rs1 [4:0] $end
$var reg 32 [" IDEX_rs1_data [31:0] $end
$var reg 5 \" IDEX_rs2 [4:0] $end
$var reg 32 ]" IDEX_rs2_data [31:0] $end
$var reg 1 ^" IDEX_wb_sel $end
$var reg 1 _" IFID_btb_hit $end
$var reg 32 `" IFID_instr [31:0] $end
$var reg 32 a" IFID_pc [31:0] $end
$var reg 32 b" IFID_pcplus4 [31:0] $end
$var reg 32 c" IF_pc [31:0] $end
$var reg 32 d" MEMWB_alu_data [31:0] $end
$var reg 1 e" MEMWB_insn_vld $end
$var reg 32 f" MEMWB_lsu_rdata [31:0] $end
$var reg 5 g" MEMWB_rd [4:0] $end
$var reg 1 h" MEMWB_rd_wren $end
$var reg 1 i" MEMWB_wb_sel $end
$var reg 32 j" o_pc_debug [31:0] $end
$var reg 1 k" true_mem_rden $end
$var reg 1 l" true_mem_wren $end
$scope module ctrl_fsm_inst $end
$var wire 1 O clk $end
$var wire 1 B" rden $end
$var wire 1 R rstn $end
$var wire 1 m" stall_cond $end
$var wire 1 C" wren $end
$var wire 1 n cs0 $end
$var wire 1 k ack $end
$var parameter 1 n" PROCESS $end
$var parameter 1 o" STALL $end
$var reg 1 j mem_ctrl_mux $end
$var reg 1 p" next_state $end
$var reg 1 V sram_stall $end
$var reg 1 q" state $end
$upscope $end
$scope module fwd_unit_inst $end
$var wire 5 r" EXMEM_rd [4:0] $end
$var wire 1 H" EXMEM_rd_wren $end
$var wire 5 s" IDEX_rs1 [4:0] $end
$var wire 5 t" IDEX_rs2 [4:0] $end
$var wire 5 u" MEMWB_rd [4:0] $end
$var wire 1 h" MEMWB_rd_wren $end
$var reg 2 v" rs1_sel [1:0] $end
$var reg 2 w" rs2_sel [1:0] $end
$upscope $end
$scope module inst_alu $end
$var wire 4 x" i_alu_op [3:0] $end
$var wire 32 y" i_operand_a [31:0] $end
$var wire 32 z" i_operand_b [31:0] $end
$var wire 32 {" o_alu_data [31:0] $end
$var wire 1 |" overflow $end
$var wire 1 }" signed_lt $end
$var wire 1 ~" unsigned_lt $end
$var wire 32 !# temp_srl [31:0] $end
$var wire 32 "# temp_sra [31:0] $end
$var wire 32 ## temp_sll [31:0] $end
$var wire 32 $# temp [31:0] $end
$var wire 1 %# carry $end
$var reg 32 &# alu_temp [31:0] $end
$scope module u1 $end
$var wire 32 '# i_operand_a [31:0] $end
$var wire 5 (# i_operand_b [4:0] $end
$var wire 32 )# o_sll_data [31:0] $end
$var reg 32 *# temp1 [31:0] $end
$var reg 32 +# temp2 [31:0] $end
$var reg 32 ,# temp3 [31:0] $end
$var reg 32 -# temp4 [31:0] $end
$var reg 32 .# temp5 [31:0] $end
$upscope $end
$scope module u2 $end
$var wire 32 /# i_operand_a [31:0] $end
$var wire 5 0# i_operand_b [4:0] $end
$var wire 32 1# o_srl_data [31:0] $end
$var reg 32 2# temp1 [31:0] $end
$var reg 32 3# temp2 [31:0] $end
$var reg 32 4# temp3 [31:0] $end
$var reg 32 5# temp4 [31:0] $end
$var reg 32 6# temp5 [31:0] $end
$upscope $end
$scope module u3 $end
$var wire 32 7# i_operand_a [31:0] $end
$var wire 5 8# i_operand_b [4:0] $end
$var wire 32 9# o_sra_data [31:0] $end
$var reg 32 :# temp1 [31:0] $end
$var reg 32 ;# temp2 [31:0] $end
$var reg 32 <# temp3 [31:0] $end
$var reg 32 =# temp4 [31:0] $end
$var reg 32 ># temp5 [31:0] $end
$upscope $end
$upscope $end
$scope module inst_bru $end
$var wire 1 ?# br_less $end
$var wire 1 @# br_less_uns $end
$var wire 3 A# func3 [2:0] $end
$var wire 1 P" is_br $end
$var wire 1 B# is_uncbr $end
$var wire 1 C# overflow $end
$var wire 32 D# rs1_data [31:0] $end
$var wire 32 E# rs2_data [31:0] $end
$var wire 32 F# sub [31:0] $end
$var wire 1 G# carry $end
$var wire 1 H# br_equal $end
$var reg 1 0" pc_sel $end
$upscope $end
$scope module inst_ctrl_unit $end
$var wire 32 I# instr [31:0] $end
$var wire 7 J# func7 [6:0] $end
$var wire 3 K# func3 [2:0] $end
$var parameter 7 L# B_type $end
$var parameter 7 M# I_type_IMM $end
$var parameter 7 N# I_type_JALR $end
$var parameter 7 O# I_type_LD $end
$var parameter 7 P# J_type $end
$var parameter 7 Q# R_type $end
$var parameter 7 R# S_type $end
$var parameter 7 S# U_type_AUIPC $end
$var parameter 7 T# U_type_LUI $end
$var reg 4 U# alu_op [3:0] $end
$var reg 1 +" insn_vld $end
$var reg 1 *" is_br $end
$var reg 2 V# is_uncbr [1:0] $end
$var reg 1 (" mem_rden $end
$var reg 1 '" mem_wren $end
$var reg 1 &" op_a_sel $end
$var reg 2 W# op_b_sel [1:0] $end
$var reg 1 $" rd_wren $end
$var reg 1 !" wb_sel $end
$upscope $end
$scope module inst_hdu $end
$var wire 1 R" IDEX_mem_rden $end
$var wire 5 X# IDEX_rd [4:0] $end
$var wire 1 Y" IDEX_rdwren $end
$var wire 5 Y# IFID_rs1 [4:0] $end
$var wire 5 Z# IFID_rs2 [4:0] $end
$var wire 1 V sram_stall $end
$var wire 1 u br_flush $end
$var reg 1 9" EXMEM_clear $end
$var reg 1 8" EXMEM_wren $end
$var reg 1 /" IDEX_clear $end
$var reg 1 ." IDEX_wren $end
$var reg 1 z IFID_clear $end
$var reg 1 y IFID_wren $end
$var reg 1 q MEMWB_wren $end
$var reg 1 Y pc_wren $end
$upscope $end
$scope module inst_imem $end
$var wire 32 [# i_addr [31:0] $end
$var wire 32 \# o_data [31:0] $end
$upscope $end
$scope module inst_immgen $end
$var wire 32 ]# instruction_i [31:0] $end
$var parameter 5 ^# B_type $end
$var parameter 5 _# I_type_IMM $end
$var parameter 5 `# I_type_JALR $end
$var parameter 5 a# I_type_LD $end
$var parameter 5 b# J_type $end
$var parameter 5 c# R_type $end
$var parameter 5 d# S_type $end
$var parameter 5 e# U_type $end
$var reg 32 f# immediate_o [31:0] $end
$upscope $end
$scope module inst_lsu $end
$var wire 1 O i_clk $end
$var wire 3 g# i_func3 [2:0] $end
$var wire 32 h# i_io_btn [31:0] $end
$var wire 32 i# i_io_sw [31:0] $end
$var wire 32 j# i_lsu_addr [31:0] $end
$var wire 1 k" i_lsu_rden $end
$var wire 1 l" i_lsu_wren $end
$var wire 1 R i_rst_n $end
$var wire 32 k# i_st_data [31:0] $end
$var wire 32 l# output_mem_out [31:0] $end
$var wire 6 m# output_mem_addr [5:0] $end
$var wire 1 Z o_sram_we_n $end
$var wire 1 [ o_sram_ub_o $end
$var wire 1 \ o_sram_lb_n $end
$var wire 1 ] o_sram_ce_n $end
$var wire 18 n# o_sram_addr [17:0] $end
$var wire 32 o# o_io_ledr [31:0] $end
$var wire 32 p# o_io_ledg [31:0] $end
$var wire 32 q# o_io_lcd [31:0] $end
$var wire 7 r# o_io_hex7 [6:0] $end
$var wire 7 s# o_io_hex6 [6:0] $end
$var wire 7 t# o_io_hex5 [6:0] $end
$var wire 7 u# o_io_hex4 [6:0] $end
$var wire 7 v# o_io_hex3 [6:0] $end
$var wire 7 w# o_io_hex2 [6:0] $end
$var wire 7 x# o_io_hex1 [6:0] $end
$var wire 7 y# o_io_hex0 [6:0] $end
$var wire 1 n o_cs0 $end
$var wire 1 k o_ack $end
$var wire 16 z# io_sram_dq [15:0] $end
$var wire 32 {# input_mem_out [31:0] $end
$var wire 5 |# input_mem_addr [4:0] $end
$var wire 1 m i_sram_oe_n $end
$var wire 2 }# i_s_length [1:0] $end
$var wire 1 ~# i_l_unsigned $end
$var wire 2 !$ i_l_length [1:0] $end
$var wire 32 "$ data_mem_out [31:0] $end
$var wire 13 #$ data_mem_addr [12:0] $end
$var reg 3 $$ cs [2:0] $end
$var reg 32 %$ ld_temp_data [31:0] $end
$var reg 32 &$ o_ld_data [31:0] $end
$scope module sram_controller_inst $end
$var wire 16 '$ DIN [15:0] $end
$var wire 16 ($ SRAM_DQ [15:0] $end
$var wire 18 )$ i_ADDR [17:0] $end
$var wire 4 *$ i_BMASK [3:0] $end
$var wire 1 +$ i_RDEN $end
$var wire 32 ,$ i_WDATA [31:0] $end
$var wire 1 -$ i_WREN $end
$var wire 1 O i_clk $end
$var wire 1 R i_reset $end
$var reg 16 .$ DOUT [15:0] $end
$var reg 18 /$ SRAM_ADDR [17:0] $end
$var reg 1 ] SRAM_CE_N $end
$var reg 1 \ SRAM_LB_N $end
$var reg 1 m SRAM_OE_N $end
$var reg 1 [ SRAM_UB_N $end
$var reg 1 Z SRAM_WE_N $end
$var reg 18 0$ addr_d [17:0] $end
$var reg 18 1$ addr_q [17:0] $end
$var reg 4 2$ bmask_d [3:0] $end
$var reg 4 3$ bmask_q [3:0] $end
$var reg 1 k o_ACK $end
$var reg 32 4$ o_RDATA [31:0] $end
$var reg 32 5$ rdata_d [31:0] $end
$var reg 32 6$ rdata_q [31:0] $end
$var reg 3 7$ sram_state_d [2:0] $end
$var reg 3 8$ sram_state_q [2:0] $end
$var reg 32 9$ wdata_d [31:0] $end
$var reg 32 :$ wdata_q [31:0] $end
$scope begin proc_detect_state $end
$upscope $end
$scope begin proc_output_to_lsu $end
$upscope $end
$scope begin proc_output_to_sram $end
$upscope $end
$upscope $end
$scope begin $ivl_for_loop0 $end
$var integer 32 ;$ i [31:0] $end
$upscope $end
$scope begin $ivl_for_loop1 $end
$var integer 32 <$ i [31:0] $end
$upscope $end
$upscope $end
$scope module inst_predictor $end
$var wire 1 F" EXMEM_br_decision_i $end
$var wire 1 =" EXMEM_btb_hit_i $end
$var wire 12 =$ EXMEM_btb_wr_index_i [11:0] $end
$var wire 18 >$ EXMEM_btb_wr_tag_i [17:0] $end
$var wire 32 ?$ EXMEM_btb_wr_target_i [31:0] $end
$var wire 1 @" EXMEM_is_br_i $end
$var wire 2 @$ EXMEM_is_uncbr_i [1:0] $end
$var wire 18 A$ IF_PC_tag_i [17:0] $end
$var wire 12 B$ IF_btb_rd_index_i [11:0] $end
$var wire 1 C$ btb_wren $end
$var wire 1 O clk_i $end
$var wire 1 R rst_i $end
$var wire 1 D$ btb_valid $end
$var wire 32 E$ IF_btb_rd_target_o [31:0] $end
$var wire 18 F$ IF_btb_rd_tag [17:0] $end
$var wire 1 w IF_btb_hit_o $end
$var parameter 32 G$ INDEX_WIDTH $end
$var reg 2 H$ IF_PCnext_sel_o [1:0] $end
$var reg 1 u IF_flush_o $end
$scope module u_btb $end
$var wire 1 O clk_i $end
$var wire 12 I$ rd_index_i [11:0] $end
$var wire 18 J$ rd_tag_o [17:0] $end
$var wire 32 K$ rd_target_o [31:0] $end
$var wire 1 R rst_i $end
$var wire 1 D$ valid_o $end
$var wire 12 L$ wr_index_i [11:0] $end
$var wire 18 M$ wr_tag_i [17:0] $end
$var wire 32 N$ wr_target_i [31:0] $end
$var wire 1 C$ wren_i $end
$var parameter 32 O$ INDEX_WIDTH $end
$var parameter 32 P$ TABLE_SIZE $end
$var integer 32 Q$ i [31:0] $end
$upscope $end
$upscope $end
$scope module inst_regfile $end
$var wire 1 O clk_i $end
$var wire 5 R$ rd_addr [4:0] $end
$var wire 32 S$ rd_data [31:0] $end
$var wire 1 h" rd_wren $end
$var wire 5 T$ rs1_addr [4:0] $end
$var wire 5 U$ rs2_addr [4:0] $end
$var wire 1 R rst_ni $end
$var wire 32 V$ rs2_data [31:0] $end
$var wire 32 W$ rs1_data [31:0] $end
$scope begin $ivl_for_loop2 $end
$var integer 32 X$ i [31:0] $end
$upscope $end
$upscope $end
$upscope $end
$upscope $end
$enddefinitions $end
$comment Show the parameter values. $end
$dumpall
b1000000000000 P$
b1100 O$
b1100 G$
b1101 e#
b1000 d#
b1100 c#
b11011 b#
b0 a#
b11001 `#
b100 _#
b11000 ^#
b110111 T#
b10111 S#
b100011 R#
b110011 Q#
b1101111 P#
b11 O#
b1100111 N#
b10011 M#
b1100011 L#
1o"
0n"
b1100 :"
$end
#0
$dumpvars
b100000 X$
b0 W$
b0 V$
b0 U$
b0 T$
b0 S$
b0 R$
b1000000000000 Q$
b0 N$
b0 M$
b0 L$
b0 K$
b0 J$
b0 I$
b0 H$
b0 F$
b0 E$
0D$
0C$
b0 B$
b0 A$
b0 @$
b0 ?$
b0 >$
b0 =$
b100000 <$
b1000000 ;$
bx :$
b0 9$
bx 8$
b0 7$
bx 6$
b0 5$
bx 4$
bx 3$
b0 2$
bx 1$
b0 0$
bx /$
bx .$
0-$
b0 ,$
0+$
b1111 *$
b0 )$
bx ($
bx '$
b0 &$
b0 %$
b0 $$
b0 #$
bx "$
b0 !$
0~#
b0 }#
b0 |#
b0 {#
bx z#
b0 y#
b0 x#
b0 w#
b0 v#
b0 u#
b0 t#
b0 s#
b0 r#
b0 q#
b0 p#
b0 o#
bx n#
b0 m#
b0 l#
b0 k#
b0 j#
bx i#
b0xxxx h#
b0 g#
b0 f#
b0 ]#
b111100000000000010010011 \#
b0 [#
b0 Z#
b0 Y#
b0 X#
b0 W#
b0 V#
b0 U#
b0 K#
b0 J#
b0 I#
1H#
0G#
b0 F#
b0 E#
b0 D#
0C#
0B#
b0 A#
0@#
0?#
b0 >#
b0 =#
b0 <#
b0 ;#
b0 :#
b0 9#
b0 8#
b0 7#
b0 6#
b0 5#
b0 4#
b0 3#
b0 2#
b0 1#
b0 0#
b0 /#
b0 .#
b0 -#
b0 ,#
b0 +#
b0 *#
b0 )#
b0 (#
b0 '#
b0 &#
0%#
b0 $#
b0 ##
b0 "#
b0 !#
0~"
0}"
0|"
b0 {"
b0 z"
b0 y"
b0 x"
b0 w"
b0 v"
b0 u"
b0 t"
b0 s"
b0 r"
0q"
0p"
0m"
0l"
0k"
bx j"
0i"
0h"
b0 g"
b0 f"
0e"
b0 d"
b0 c"
b0 b"
b0 a"
b0 `"
0_"
0^"
b0 ]"
b0 \"
b0 ["
b0 Z"
0Y"
b0 X"
b0 W"
b0 V"
b0 U"
0T"
0S"
0R"
b0 Q"
0P"
0O"
b0 N"
b0 M"
0L"
b0 K"
0J"
b0 I"
0H"
b0 G"
0F"
b0 E"
b0 D"
0C"
0B"
b0 A"
0@"
0?"
b0 >"
0="
b0 <"
b0 ;"
09"
18"
b0 7"
b0 6"
b0 5"
b0 4"
b0 3"
b0 2"
b0 1"
00"
0/"
1."
b0 -"
b0 ,"
0+"
0*"
b0 )"
0("
0'"
0&"
b0 %"
0$"
b0 #"
b0 ""
0!"
b0 ~
b0 }
b0 |
b0 {
0z
1y
b0 x
0w
b0 v
0u
b111100000000000010010011 t
b100 s
b100 r
1q
b0 p
b0 o
0n
xm
bx l
xk
0j
b0 i
b0 h
b0 g
b0 f
b0 e
b0 d
b0 c
b0 b
b0 a
b0 `
b0 _
bx ^
x]
x\
x[
xZ
1Y
b0 X
b0 W
0V
bx U
bx T
b0 S
0R
bx Q
bx P
0O
0N
b0 M
b0 L
b0 K
b0 J
b0 I
b0 H
b0 G
b0 F
b0 E
b0 D
b0 C
bx B
b0 A
b0 @
b0 ?
b0 >
b0 =
b0 <
b0 ;
b0 :
b0 9
b0 8
b0 7
b0 6
b0 5
b0 4
b0 3
b0 2
b0 1
b0 0
b0 /
b0 .
b0 -
b0 ,
b0 +
b0 *
b0 )
b0 (
b0 '
b0 &
b0 %
b0 $
b0 #
b0 "
b0 !
$end
#5000
0k
b0 "$
b0 4$
1[
1\
1]
1m
1Z
bz '$
bz l
bz z#
bz ($
bz .$
b0 ^
b0 n#
b0 /$
b0 8$
b0 3$
b0 6$
b0 :$
b0 1$
b100000 <$
b1000000 ;$
b100000 X$
b1000000000000 Q$
b1 S
1O
#10000
0O
1R
#15000
b1 B$
b1 I$
b1000 s
b11111111000100000000000100010011 t
b11111111000100000000000100010011 \#
b1111 {
b1111 Z#
b1111 U$
b1 }
1+"
b1 %"
b1 W#
1$"
b10011 A
b1111 ,"
b1111 f#
bx {#
b1000 r
b100 c"
b100 [#
b111100000000000010010011 `"
b111100000000000010010011 I#
b111100000000000010010011 ]#
b100 b"
b10 S
1O
#20000
0O
#25000
1}"
b11111111111111111111111111110001 $#
1~"
1%#
b1111 7"
b1111 {"
b1111 &#
b1111 (#
b1111 0#
b1111 8#
b1111 5"
b1111 z"
b10001 {
b10001 Z#
b10001 U$
b10 }
b1111111 J#
b11111111111111111111111111110001 ,"
b11111111111111111111111111110001 f#
b10 B$
b10 I$
b1100 s
b1000000000000000110010011 t
b1000000000000000110010011 \#
b1111 \"
b1111 t"
b1 X"
b1 X#
b1111 4"
b1111 N"
b100 W"
b1 U"
1Y"
1O"
b11111111000100000000000100010011 `"
b11111111000100000000000100010011 I#
b11111111000100000000000100010011 ]#
b1000 b"
b100 a"
b1100 r
b1000 c"
b1000 [#
b11 S
1O
#30000
0O
#35000
0}"
b1111 $#
0|"
b11111111111111111111111111110001 7"
b11111111111111111111111111110001 {"
b11111111111111111111111111110001 &#
b10001 (#
b10001 0#
b10001 8#
b1100 )$
b0xxxx00000000 {#
b11111111111111111111111111110001 5"
b11111111111111111111111111110001 z"
b11 B$
b11 I$
b10000 s
b1111111100000000001000010011 t
b1111111100000000001000010011 \#
b10000 {
b10000 Z#
b10000 U$
b11 }
b0 J#
b10000 ,"
b10000 f#
b100 3"
b1111 #$
b1111 |#
b1111 m#
b10000 r
b1100 c"
b1100 [#
b1000000000000000110010011 `"
b1000000000000000110010011 I#
b1000000000000000110010011 ]#
b1100 b"
b1000 a"
b10001 \"
b10001 t"
b10 X"
b10 X#
b11111111111111111111111111110101 4"
b11111111111111111111111111110001 N"
b1000 W"
b100 V"
b100 E"
b1 G"
b1 r"
b1111 <"
b1111 ?$
b1111 N$
b1111 ;"
b1111 j#
1H"
1?"
b100 S
1O
#40000
0O
#45000
1}"
b11111111111111111111111111110000 $#
b1111111110000 )$
b0 {#
b10000 7"
b10000 {"
b10000 &#
b10000 (#
b10000 0#
b10000 8#
b10000 5"
b10000 z"
b1111 o
b1111 S$
b1 =$
b1 L$
b1111111110001 #$
b10001 |#
b110001 m#
b1000 3"
b11111 {
b11111 Z#
b11111 U$
b100 }
b111 J#
b11111111 ,"
b11111111 f#
b100 B$
b100 I$
b10100 s
b10000000000000000000001010110111 t
b10000000000000000000001010110111 \#
b1 g"
b1 u"
b1 R$
b1111 d"
1h"
1N
1e"
b1000 E"
b100 D"
b10 G"
b10 r"
b11111111111111111111111111110101 <"
b11111111111111111111111111110101 ?$
b11111111111111111111111111110101 N$
b11111111111111111111111111110001 ;"
b11111111111111111111111111110001 j#
b10000 \"
b10000 t"
b11 X"
b11 X#
b11000 4"
b10000 N"
b1100 W"
b1000 V"
b1111111100000000001000010011 `"
b1111111100000000001000010011 I#
b1111111100000000001000010011 ]#
b10000 b"
b1100 a"
b10100 r
b10000 c"
b10000 [#
b101 S
1O
#50000
0O
#55000
b11111111111111111111111100000001 $#
b11111111 7"
b11111111 {"
b11111111 &#
b11111 (#
b11111 0#
b11111 8#
b10000 )$
b0xxxx {#
b11111111 5"
b11111111 z"
b101 B$
b101 I$
b11000 s
b11111111111100101000001010010011 t
b11111111111100101000001010010011 \#
b0 {
b0 Z#
b0 U$
b101 }
b1010 -"
b1010 U#
b110111 A
b1000000 J#
b10000000000000000000000000000000 ,"
b10000000000000000000000000000000 f#
b1100 3"
b10 =$
b10 L$
b10000 #$
b10000 |#
b10000 m#
b11111111111111111111111111110001 o
b11111111111111111111111111110001 S$
b11000 r
b10100 c"
b10100 [#
b10000000000000000000001010110111 `"
b10000000000000000000001010110111 I#
b10000000000000000000001010110111 ]#
b10100 b"
b10000 a"
b11111 \"
b11111 t"
b100 X"
b100 X#
b100001011 4"
b11111111 N"
b10000 W"
b1100 V"
b1100 E"
b1000 D"
b11 G"
b11 r"
b11000 <"
b11000 ?$
b11000 N$
b10000 ;"
b10000 j#
b10 g"
b10 u"
b10 R$
b11111111111111111111111111110001 d"
b1111 "
1O
#60000
0O
#65000
0}"
b10000000000000000000000000000000 $#
1|"
b11111100 )$
bx00000000 {#
b10000000000000000000000000000000 7"
b10000000000000000000000000000000 {"
b10000000000000000000000000000000 &#
b0 (#
b0 0#
b0 8#
b10000000000000000000000000000000 5"
b10000000000000000000000000000000 z"
b10000 o
b10000 S$
b11 =$
b11 L$
b11111111 #$
b11111 |#
b111111 m#
b10000 3"
b101 |
b101 Y#
b101 T$
b11111 {
b11111 Z#
b11111 U$
b0 -"
b0 U#
b10011 A
b1111111 J#
b11111111111111111111111111111111 ,"
b11111111111111111111111111111111 f#
b110 B$
b110 I$
b11100 s
b10000000000000000000001100110111 t
b10000000000000000000001100110111 \#
b11111111111111111111111111110001 -
b11 g"
b11 u"
b11 R$
b10000 d"
b10000 E"
b1100 D"
b100 G"
b100 r"
b100001011 <"
b100001011 ?$
b100001011 N$
b11111111 ;"
b11111111 j#
b0 \"
b0 t"
b101 X"
b101 X#
b10000000000000000000000000010000 4"
b10000000000000000000000000000000 N"
b10100 W"
b10000 V"
b1010 K"
b1010 x"
b11111111111100101000001010010011 `"
b11111111111100101000001010010011 I#
b11111111111100101000001010010011 ]#
b11000 b"
b10100 a"
b11100 r
b11000 c"
b11000 [#
1O
#70000
0O
