Always_taken_SRAM/10_sim/always_taken_tb.vcd
$date
	Sat Nov 30 13:32:58 2024
$end
$version
	Icarus Verilog
$end
$timescale
	1ps
$end
$scope module always_taken_tb $end
$var wire 32 ! reg0 [31:0] $end
$var wire 32 " reg1 [31:0] $end
$var wire 32 # reg10 [31:0] $end
$var wire 32 $ reg11 [31:0] $end
$var wire 32 % reg12 [31:0] $end
$var wire 32 & reg13 [31:0] $end
$var wire 32 ' reg14 [31:0] $end
$var wire 32 ( reg15 [31:0] $end
$var wire 32 ) reg16 [31:0] $end
$var wire 32 * reg17 [31:0] $end
$var wire 32 + reg18 [31:0] $end
$var wire 32 , reg19 [31:0] $end
$var wire 32 - reg2 [31:0] $end
$var wire 32 . reg20 [31:0] $end
$var wire 32 / reg21 [31:0] $end
$var wire 32 0 reg22 [31:0] $end
$var wire 32 1 reg23 [31:0] $end
$var wire 32 2 reg24 [31:0] $end
$var wire 32 3 reg25 [31:0] $end
$var wire 32 4 reg26 [31:0] $end
$var wire 32 5 reg27 [31:0] $end
$var wire 32 6 reg28 [31:0] $end
$var wire 32 7 reg29 [31:0] $end
$var wire 32 8 reg3 [31:0] $end
$var wire 32 9 reg30 [31:0] $end
$var wire 32 : reg31 [31:0] $end
$var wire 32 ; reg4 [31:0] $end
$var wire 32 < reg5 [31:0] $end
$var wire 32 = reg6 [31:0] $end
$var wire 32 > reg7 [31:0] $end
$var wire 32 ? reg8 [31:0] $end
$var wire 32 @ reg9 [31:0] $end
$var wire 7 A type_instr [6:0] $end
$var wire 32 B o_pc_debug [31:0] $end
$var wire 32 C o_io_ledr [31:0] $end
$var wire 32 D o_io_ledg [31:0] $end
$var wire 32 E o_io_lcd [31:0] $end
$var wire 7 F o_io_hex7 [6:0] $end
$var wire 7 G o_io_hex6 [6:0] $end
$var wire 7 H o_io_hex5 [6:0] $end
$var wire 7 I o_io_hex4 [6:0] $end
$var wire 7 J o_io_hex3 [6:0] $end
$var wire 7 K o_io_hex2 [6:0] $end
$var wire 7 L o_io_hex1 [6:0] $end
$var wire 7 M o_io_hex0 [6:0] $end
$var wire 1 N o_insn_vld $end
$var reg 1 O i_clk $end
$var reg 4 P i_io_btn [3:0] $end
$var reg 32 Q i_io_sw [31:0] $end
$var reg 1 R i_rst_n $end
$var integer 32 S nop_count [31:0] $end
$scope module always_taken_inst $end
$var wire 1 O i_clk $end
$var wire 4 T i_io_btn [3:0] $end
$var wire 32 U i_io_sw [31:0] $end
$var wire 1 R i_rstn $end
$var wire 1 N o_insn_vld $end
$var wire 2 V rs2_sel [1:0] $end
$var wire 2 W rs1_sel [1:0] $end
$var wire 1 X pc_wren $end
$var wire 32 Y o_io_ledr [31:0] $end
$var wire 32 Z o_io_ledg [31:0] $end
$var wire 32 [ o_io_lcd [31:0] $end
$var wire 7 \ o_io_hex7 [6:0] $end
$var wire 7 ] o_io_hex6 [6:0] $end
$var wire 7 ^ o_io_hex5 [6:0] $end
$var wire 7 _ o_io_hex4 [6:0] $end
$var wire 7 ` o_io_hex3 [6:0] $end
$var wire 7 a o_io_hex2 [6:0] $end
$var wire 7 b o_io_hex1 [6:0] $end
$var wire 7 c o_io_hex0 [6:0] $end
$var wire 32 d WB_rd_data [31:0] $end
$var wire 32 e MEM_lsu_rdata [31:0] $end
$var wire 32 f IF_pcplus4 [31:0] $end
$var wire 32 g IF_pcnext [31:0] $end
$var wire 32 h IF_instr [31:0] $end
$var wire 1 i IF_flush $end
$var wire 32 j IF_btb_rd_target [31:0] $end
$var wire 1 k IF_btb_hit $end
$var wire 2 l IF_PCnext_sel [1:0] $end
$var wire 1 m IFIDreg_wren $end
$var wire 1 n IFIDreg_clr $end
$var wire 5 o IFID_rs2 [4:0] $end
$var wire 5 p IFID_rs1 [4:0] $end
$var wire 5 q IFID_rd [4:0] $end
$var wire 3 r IFID_func3 [2:0] $end
$var wire 1 s ID_wb_sel $end
$var wire 32 t ID_rs2_data [31:0] $end
$var wire 32 u ID_rs1_data [31:0] $end
$var wire 1 v ID_rd_wren $end
$var wire 2 w ID_opb_sel [1:0] $end
$var wire 1 x ID_opa_sel $end
$var wire 1 y ID_mem_wren $end
$var wire 1 z ID_mem_rden $end
$var wire 2 { ID_is_uncbr [1:0] $end
$var wire 1 | ID_is_br $end
$var wire 1 } ID_insn_vld $end
$var wire 32 ~ ID_imm [31:0] $end
$var wire 4 !" ID_alu_op [3:0] $end
$var wire 1 "" IDEXreg_clr $end
$var wire 1 #" EX_pcsel $end
$var wire 32 $" EX_fwd_rs2_data [31:0] $end
$var wire 32 %" EX_fwd_rs1_data [31:0] $end
$var wire 32 &" EX_br_base [31:0] $end
$var wire 32 '" EX_br_addr [31:0] $end
$var wire 32 (" EX_alu_opb [31:0] $end
$var wire 32 )" EX_alu_opa [31:0] $end
$var wire 32 *" EX_alu_data [31:0] $end
$var wire 1 +" EXMEMreg_clr $end
$var parameter 32 ," INDEX_WIDTH $end
$var reg 32 -" EXMEM_alu_data [31:0] $end
$var reg 32 ." EXMEM_br_addr [31:0] $end
$var reg 1 /" EXMEM_btb_hit $end
$var reg 3 0" EXMEM_func3 [2:0] $end
$var reg 1 1" EXMEM_insn_vld $end
$var reg 1 2" EXMEM_is_br $end
$var reg 2 3" EXMEM_is_uncbr [1:0] $end
$var reg 1 4" EXMEM_mem_rden $end
$var reg 1 5" EXMEM_mem_wren $end
$var reg 32 6" EXMEM_pc [31:0] $end
$var reg 32 7" EXMEM_pcplus4 [31:0] $end
$var reg 1 8" EXMEM_pcsel $end
$var reg 5 9" EXMEM_rd [4:0] $end
$var reg 1 :" EXMEM_rd_wren $end
$var reg 32 ;" EXMEM_rs2_data [31:0] $end
$var reg 1 <" EXMEM_wb_sel $end
$var reg 4 =" IDEX_alu_op [3:0] $end
$var reg 1 >" IDEX_btb_hit $end
$var reg 3 ?" IDEX_func3 [2:0] $end
$var reg 32 @" IDEX_imm [31:0] $end
$var reg 1 A" IDEX_insn_vld $end
$var reg 1 B" IDEX_is_br $end
$var reg 2 C" IDEX_is_uncbr [1:0] $end
$var reg 1 D" IDEX_mem_rden $end
$var reg 1 E" IDEX_mem_wren $end
$var reg 1 F" IDEX_opa_sel $end
$var reg 2 G" IDEX_opb_sel [1:0] $end
$var reg 32 H" IDEX_pc [31:0] $end
$var reg 32 I" IDEX_pcplus4 [31:0] $end
$var reg 5 J" IDEX_rd [4:0] $end
$var reg 1 K" IDEX_rd_wren $end
$var reg 5 L" IDEX_rs1 [4:0] $end
$var reg 32 M" IDEX_rs1_data [31:0] $end
$var reg 5 N" IDEX_rs2 [4:0] $end
$var reg 32 O" IDEX_rs2_data [31:0] $end
$var reg 1 P" IDEX_wb_sel $end
$var reg 1 Q" IFID_btb_hit $end
$var reg 32 R" IFID_instr [31:0] $end
$var reg 32 S" IFID_pc [31:0] $end
$var reg 32 T" IFID_pcplus4 [31:0] $end
$var reg 32 U" IF_pc [31:0] $end
$var reg 32 V" MEMWB_alu_data [31:0] $end
$var reg 1 W" MEMWB_insn_vld $end
$var reg 32 X" MEMWB_lsu_rdata [31:0] $end
$var reg 5 Y" MEMWB_rd [4:0] $end
$var reg 1 Z" MEMWB_rd_wren $end
$var reg 1 [" MEMWB_wb_sel $end
$var reg 32 \" o_pc_debug [31:0] $end
$scope module fwd_unit_inst $end
$var wire 5 ]" EXMEM_rd [4:0] $end
$var wire 1 :" EXMEM_rd_wren $end
$var wire 5 ^" IDEX_rs1 [4:0] $end
$var wire 5 _" IDEX_rs2 [4:0] $end
$var wire 5 `" MEMWB_rd [4:0] $end
$var wire 1 Z" MEMWB_rd_wren $end
$var reg 2 a" rs1_sel [1:0] $end
$var reg 2 b" rs2_sel [1:0] $end
$upscope $end
$scope module inst_alu $end
$var wire 4 c" i_alu_op [3:0] $end
$var wire 32 d" i_operand_a [31:0] $end
$var wire 32 e" i_operand_b [31:0] $end
$var wire 32 f" o_alu_data [31:0] $end
$var wire 1 g" overflow $end
$var wire 1 h" signed_lt $end
$var wire 1 i" unsigned_lt $end
$var wire 32 j" temp_srl [31:0] $end
$var wire 32 k" temp_sra [31:0] $end
$var wire 32 l" temp_sll [31:0] $end
$var wire 32 m" temp [31:0] $end
$var wire 1 n" carry $end
$var reg 32 o" alu_temp [31:0] $end
$scope module u1 $end
$var wire 32 p" i_operand_a [31:0] $end
$var wire 5 q" i_operand_b [4:0] $end
$var wire 32 r" o_sll_data [31:0] $end
$var reg 32 s" temp1 [31:0] $end
$var reg 32 t" temp2 [31:0] $end
$var reg 32 u" temp3 [31:0] $end
$var reg 32 v" temp4 [31:0] $end
$var reg 32 w" temp5 [31:0] $end
$upscope $end
$scope module u2 $end
$var wire 32 x" i_operand_a [31:0] $end
$var wire 5 y" i_operand_b [4:0] $end
$var wire 32 z" o_srl_data [31:0] $end
$var reg 32 {" temp1 [31:0] $end
$var reg 32 |" temp2 [31:0] $end
$var reg 32 }" temp3 [31:0] $end
$var reg 32 ~" temp4 [31:0] $end
$var reg 32 !# temp5 [31:0] $end
$upscope $end
$scope module u3 $end
$var wire 32 "# i_operand_a [31:0] $end
$var wire 5 ## i_operand_b [4:0] $end
$var wire 32 $# o_sra_data [31:0] $end
$var reg 32 %# temp1 [31:0] $end
$var reg 32 &# temp2 [31:0] $end
$var reg 32 '# temp3 [31:0] $end
$var reg 32 (# temp4 [31:0] $end
$var reg 32 )# temp5 [31:0] $end
$upscope $end
$upscope $end
$scope module inst_bru $end
$var wire 1 *# br_less $end
$var wire 1 +# br_less_uns $end
$var wire 3 ,# func3 [2:0] $end
$var wire 1 B" is_br $end
$var wire 1 -# is_uncbr $end
$var wire 1 .# overflow $end
$var wire 32 /# rs1_data [31:0] $end
$var wire 32 0# rs2_data [31:0] $end
$var wire 32 1# sub [31:0] $end
$var wire 1 2# carry $end
$var wire 1 3# br_equal $end
$var reg 1 #" pc_sel $end
$upscope $end
$scope module inst_ctrl_unit $end
$var wire 32 4# instr [31:0] $end
$var wire 7 5# func7 [6:0] $end
$var wire 3 6# func3 [2:0] $end
$var parameter 7 7# B_type $end
$var parameter 7 8# I_type_IMM $end
$var parameter 7 9# I_type_JALR $end
$var parameter 7 :# I_type_LD $end
$var parameter 7 ;# J_type $end
$var parameter 7 <# R_type $end
$var parameter 7 =# S_type $end
$var parameter 7 ># U_type_AUIPC $end
$var parameter 7 ?# U_type_LUI $end
$var reg 4 @# alu_op [3:0] $end
$var reg 1 } insn_vld $end
$var reg 1 | is_br $end
$var reg 2 A# is_uncbr [1:0] $end
$var reg 1 z mem_rden $end
$var reg 1 y mem_wren $end
$var reg 1 x op_a_sel $end
$var reg 2 B# op_b_sel [1:0] $end
$var reg 1 v rd_wren $end
$var reg 1 s wb_sel $end
$upscope $end
$scope module inst_hdu $end
$var wire 1 D" IDEX_mem_rden $end
$var wire 5 C# IDEX_rd [4:0] $end
$var wire 1 K" IDEX_rdwren $end
$var wire 5 D# IFID_rs1 [4:0] $end
$var wire 5 E# IFID_rs2 [4:0] $end
$var wire 1 i br_flush $end
$var reg 1 +" EXMEM_clear $end
$var reg 1 "" IDEX_clear $end
$var reg 1 n IFID_clear $end
$var reg 1 m IFID_wren $end
$var reg 1 X pc_wren $end
$upscope $end
$scope module inst_imem $end
$var wire 32 F# i_addr [31:0] $end
$var wire 32 G# o_data [31:0] $end
$upscope $end
$scope module inst_immgen $end
$var wire 32 H# instruction_i [31:0] $end
$var parameter 5 I# B_type $end
$var parameter 5 J# I_type_IMM $end
$var parameter 5 K# I_type_JALR $end
$var parameter 5 L# I_type_LD $end
$var parameter 5 M# J_type $end
$var parameter 5 N# R_type $end
$var parameter 5 O# S_type $end
$var parameter 5 P# U_type $end
$var reg 32 Q# immediate_o [31:0] $end
$upscope $end
$scope module inst_lsu $end
$var wire 1 O i_clk $end
$var wire 3 R# i_func3 [2:0] $end
$var wire 32 S# i_io_btn [31:0] $end
$var wire 32 T# i_io_sw [31:0] $end
$var wire 32 U# i_lsu_addr [31:0] $end
$var wire 1 5" i_lsu_wren $end
$var wire 1 R i_rst_n $end
$var wire 32 V# i_st_data [31:0] $end
$var wire 32 W# output_mem_out [31:0] $end
$var wire 6 X# output_mem_addr [5:0] $end
$var wire 32 Y# o_io_ledr [31:0] $end
$var wire 32 Z# o_io_ledg [31:0] $end
$var wire 32 [# o_io_lcd [31:0] $end
$var wire 7 \# o_io_hex7 [6:0] $end
$var wire 7 ]# o_io_hex6 [6:0] $end
$var wire 7 ^# o_io_hex5 [6:0] $end
$var wire 7 _# o_io_hex4 [6:0] $end
$var wire 7 `# o_io_hex3 [6:0] $end
$var wire 7 a# o_io_hex2 [6:0] $end
$var wire 7 b# o_io_hex1 [6:0] $end
$var wire 7 c# o_io_hex0 [6:0] $end
$var wire 32 d# input_mem_out [31:0] $end
$var wire 5 e# input_mem_addr [4:0] $end
$var wire 2 f# i_s_length [1:0] $end
$var wire 1 g# i_l_unsigned $end
$var wire 2 h# i_l_length [1:0] $end
$var wire 32 i# data_mem_out [31:0] $end
$var wire 13 j# data_mem_addr [12:0] $end
$var reg 3 k# cs [2:0] $end
$var reg 32 l# ld_temp_data [31:0] $end
$var reg 32 m# o_ld_data [31:0] $end
$scope begin $ivl_for_loop0 $end
$var integer 32 n# i [31:0] $end
$upscope $end
$scope begin $ivl_for_loop1 $end
$var integer 32 o# i [31:0] $end
$upscope $end
$scope begin $ivl_for_loop2 $end
$var integer 32 p# i [31:0] $end
$upscope $end
$upscope $end
$scope module inst_predictor $end
$var wire 1 8" EXMEM_br_decision_i $end
$var wire 1 /" EXMEM_btb_hit_i $end
$var wire 12 q# EXMEM_btb_wr_index_i [11:0] $end
$var wire 18 r# EXMEM_btb_wr_tag_i [17:0] $end
$var wire 32 s# EXMEM_btb_wr_target_i [31:0] $end
$var wire 1 2" EXMEM_is_br_i $end
$var wire 2 t# EXMEM_is_uncbr_i [1:0] $end
$var wire 18 u# IF_PC_tag_i [17:0] $end
$var wire 12 v# IF_btb_rd_index_i [11:0] $end
$var wire 1 w# btb_wren $end
$var wire 1 O clk_i $end
$var wire 1 R rst_i $end
$var wire 1 x# btb_valid $end
$var wire 32 y# IF_btb_rd_target_o [31:0] $end
$var wire 18 z# IF_btb_rd_tag [17:0] $end
$var wire 1 k IF_btb_hit_o $end
$var parameter 32 {# INDEX_WIDTH $end
$var reg 2 |# IF_PCnext_sel_o [1:0] $end
$var reg 1 i IF_flush_o $end
$scope module u_btb $end
$var wire 1 O clk_i $end
$var wire 12 }# rd_index_i [11:0] $end
$var wire 18 ~# rd_tag_o [17:0] $end
$var wire 32 !$ rd_target_o [31:0] $end
$var wire 1 R rst_i $end
$var wire 1 x# valid_o $end
$var wire 12 "$ wr_index_i [11:0] $end
$var wire 18 #$ wr_tag_i [17:0] $end
$var wire 32 $$ wr_target_i [31:0] $end
$var wire 1 w# wren_i $end
$var parameter 32 %$ INDEX_WIDTH $end
$var parameter 32 &$ TABLE_SIZE $end
$var integer 32 '$ i [31:0] $end
$upscope $end
$upscope $end
$scope module inst_regfile $end
$var wire 1 O clk_i $end
$var wire 5 ($ rd_addr [4:0] $end
$var wire 32 )$ rd_data [31:0] $end
$var wire 1 Z" rd_wren $end
$var wire 5 *$ rs1_addr [4:0] $end
$var wire 5 +$ rs2_addr [4:0] $end
$var wire 1 R rst_ni $end
$var wire 32 ,$ rs2_data [31:0] $end
$var wire 32 -$ rs1_data [31:0] $end
$scope begin $ivl_for_loop3 $end
$var integer 32 .$ i [31:0] $end
$upscope $end
$upscope $end
$upscope $end
$scope task press_btn $end
$var integer 32 /$ button_num [31:0] $end
$upscope $end
$upscope $end
$enddefinitions $end
$comment Show the parameter values. $end
$dumpall
b1000000000000 &$
b1100 %$
b1100 {#
b1101 P#
b1000 O#
b1100 N#
b11011 M#
b0 L#
b11001 K#
b100 J#
b11000 I#
b110111 ?#
b10111 >#
b100011 =#
b110011 <#
b1101111 ;#
b11 :#
b1100111 9#
b10011 8#
b1100011 7#
b1100 ,"
$end
#0
$dumpvars
b11 /$
b100000 .$
b0 -$
b0 ,$
b0 +$
b0 *$
b0 )$
b0 ($
b1000000000000 '$
b0 $$
b0 #$
b0 "$
b0 !$
b0 ~#
b0 }#
b0 |#
b0 z#
b0 y#
0x#
0w#
b0 v#
b0 u#
b0 t#
b0 s#
b0 r#
b0 q#
b100000 p#
b1000000 o#
b10000000000000 n#
bx m#
bx l#
b0 k#
b0 j#
b0 i#
b0 h#
0g#
b0 f#
b0 e#
b0 d#
b0 c#
b0 b#
b0 a#
b0 `#
b0 _#
b0 ^#
b0 ]#
b0 \#
b0 [#
b0 Z#
b0 Y#
b0 X#
b0 W#
b0 V#
b0 U#
bx T#
b0xxxx S#
b0 R#
b0 Q#
b0 H#
b111001000110111 G#
b0 F#
b0 E#
b0 D#
b0 C#
b0 B#
b0 A#
b0 @#
b0 6#
b0 5#
b0 4#
13#
02#
b0 1#
b0 0#
b0 /#
0.#
0-#
b0 ,#
0+#
0*#
b0 )#
b0 (#
b0 '#
b0 &#
b0 %#
b0 $#
b0 ##
b0 "#
b0 !#
b0 ~"
b0 }"
b0 |"
b0 {"
b0 z"
b0 y"
b0 x"
b0 w"
b0 v"
b0 u"
b0 t"
b0 s"
b0 r"
b0 q"
b0 p"
b0 o"
0n"
b0 m"
b0 l"
b0 k"
b0 j"
0i"
0h"
0g"
b0 f"
b0 e"
b0 d"
b0 c"
b0 b"
b0 a"
b0 `"
b0 _"
b0 ^"
b0 ]"
bx \"
0["
0Z"
b0 Y"
b0 X"
0W"
b0 V"
b0 U"
b0 T"
b0 S"
b0 R"
0Q"
0P"
b0 O"
b0 N"
b0 M"
b0 L"
0K"
b0 J"
b0 I"
b0 H"
b0 G"
0F"
0E"
0D"
b0 C"
0B"
0A"
b0 @"
b0 ?"
0>"
b0 ="
0<"
b0 ;"
0:"
b0 9"
08"
b0 7"
b0 6"
05"
04"
b0 3"
02"
01"
b0 0"
0/"
b0 ."
b0 -"
0+"
b0 *"
b0 )"
b0 ("
b0 '"
b0 &"
b0 %"
b0 $"
0#"
0""
b0 !"
b0 ~
0}
0|
b0 {
0z
0y
0x
b0 w
0v
b0 u
b0 t
0s
b0 r
b0 q
b0 p
b0 o
0n
1m
b0 l
0k
b0 j
0i
b111001000110111 h
b100 g
b100 f
bx e
b0 d
b0 c
b0 b
b0 a
b0 `
b0 _
b0 ^
b0 ]
b0 \
b0 [
b0 Z
b0 Y
1X
b0 W
b0 V
bx U
bx T
b0 S
0R
bx Q
bx P
0O
0N
b0 M
b0 L
b0 K
b0 J
b0 I
b0 H
b0 G
b0 F
b0 E
b0 D
b0 C
bx B
b0 A
b0 @
b0 ?
b0 >
b0 =
b0 <
b0 ;
b0 :
b0 9
b0 8
b0 7
b0 6
b0 5
b0 4
b0 3
b0 2
b0 1
b0 0
b0 /
b0 .
b0 -
b0 ,
b0 +
b0 *
b0 )
b0 (
b0 '
b0 &
b0 %
b0 $
b0 #
b0 "
b0 !
$end
#5000
b100000 p#
b1000000 o#
b10000000000000 n#
b100000 .$
b1000000000000 '$
b1 S
1O
#10000
0O
1R
#15000
b1 v#
b1 }#
b1000 g
b10000000100110111 h
b10000000100110111 G#
b100 q
b111 r
1}
b1010 !"
b1010 @#
b1 w
b1 B#
1v
b110111 A
b111 6#
b111000000000000 ~
b111000000000000 Q#
bx d#
b1000 f
b100 U"
b100 F#
b111001000110111 R"
b111001000110111 4#
b111001000110111 H#
b100 T"
bx X"
b10 S
1O
#20000
0O
#25000
1h"
b11111111111111111001000000000000 m"
1i"
1n"
b111000000000000 *"
b111000000000000 f"
b111000000000000 o"
b111000000000000 ("
b111000000000000 e"
b10 p
b10 D#
b10 *$
b10 q
b0 r
b0 6#
b10000000000000000 ~
b10000000000000000 Q#
b10 v#
b10 }#
b1100 g
b11111111111100010000000100010011 h
b11111111111100010000000100010011 G#
b100 J"
b100 C#
b111 ?"
b111 ,#
b111000000000000 '"
b111000000000000 @"
b100 I"
b1010 ="
b1010 c"
b1 G"
1K"
1A"
b10000000100110111 R"
b10000000100110111 4#
b10000000100110111 H#
b1000 T"
b100 S"
b1100 f
b1000 U"
b1000 F#
b11 S
1O
#30000
0O
#35000
b11111111111111110000000000000000 m"
b10000000000000000 *"
b10000000000000000 f"
b10000000000000000 o"
b10000000000000000 ("
b10000000000000000 e"
b11001100110011 e
b11001100110011 m#
b0 l#
b11 v#
b11 }#
b10000 g
b1000100010000000100011 h
b1000100010000000100011 G#
b11111 o
b11111 E#
b11111 +$
b0 !"
b0 @#
b10011 A
b1111111 5#
b11111111111111111111111111111111 ~
b11111111111111111111111111111111 Q#
b100 &"
b11 f#
b11 h#
1g#
b10 k#
b1000000000000 j#
b10000 f
b1100 U"
b1100 F#
b11111111111100010000000100010011 R"
b11111111111100010000000100010011 4#
b11111111111100010000000100010011 H#
b1100 T"
b1000 S"
b10 L"
b10 ^"
b10 J"
b10 C#
b0 ?"
b0 ,#
b10000000000000100 '"
b10000000000000000 @"
b1000 I"
b100 H"
b100 7"
b100 9"
b100 ]"
b111 0"
b111 R#
b111000000000000 ."
b111000000000000 s#
b111000000000000 $$
b111000000000000 -"
b111000000000000 U#
1:"
11"
b100 S
1O
#40000
0O
#45000
03#
0h"
b10000000000000000000000000000000 v"
b100000000000000000000000 u"
b10000000000000000000 t"
b100000000000000000 s"
b10 ~"
b1000000000 }"
b10000000000000 |"
b1000000000000000 {"
b10 (#
b1000000000 '#
b10000000000000 &#
b1000000000000000 %#
b10000000000000000 1#
b10000000000000001 m"
0g"
b10000000000000000 )"
b10000000000000000 d"
b10000000000000000 p"
b10000000000000000 x"
b10000000000000000 "#
b111000000000000 u
b111000000000000 -$
b10000000000000000 %"
b10000000000000000 /#
b1111111111111111 *"
b1111111111111111 f"
b1111111111111111 o"
b11111 q"
b11111 y"
b11111 ##
b0 e
b0 m#
b11111111111111111111111111111111 ("
b11111111111111111111111111111111 e"
b111000000000000 d
b111000000000000 )$
b1 q#
b1 "$
b0 f#
b0 h#
0g#
b0 k#
b0 j#
b1 W
b1 a"
b1000 &"
b100 p
b100 D#
b100 *$
b10 o
b10 E#
b10 +$
b0 q
b10 r
1y
0v
b100011 A
b0 5#
b10 6#
b0 ~
b0 Q#
b100 v#
b100 }#
b10100 g
b10100000000010100010011 h
b10100000000010100010011 G#
b100 Y"
b100 `"
b100 ($
b11001100110011 X"
b111000000000000 V"
1Z"
1N
1W"
b1000 7"
b100 6"
b10 9"
b10 ]"
b0 0"
b0 R#
b10000000000000100 ."
b10000000000000100 s#
b10000000000000100 $$
b10000000000000000 -"
b10000000000000000 U#
b11111 N"
b11111 _"
b111 '"
b11111111111111111111111111111111 @"
b1100 I"
b1000 H"
b0 ="
b0 c"
b1000100010000000100011 R"
b1000100010000000100011 4#
b1000100010000000100011 H#
b10000 T"
b1100 S"
b10100 f
b10000 U"
b10000 F#
b101 S
1O
#50000
0O
#55000
1*#
0i"
0n"
1+#
12#
b111000000000000 m"
b111000000000000 l"
b111000000000000 r"
b111000000000000 w"
b111000000000000 v"
b111000000000000 u"
b111000000000000 t"
b111000000000000 s"
b111000000000000 j"
b111000000000000 z"
b111000000000000 !#
b111000000000000 ~"
b111000000000000 }"
b111000000000000 |"
b111000000000000 {"
b111000000000000 k"
b111000000000000 $#
b111000000000000 )#
b111000000000000 (#
b111000000000000 '#
b111000000000000 &#
b111000000000000 %#
b11111111111111110111000000000001 1#
b111000000000000 *"
b111000000000000 f"
b111000000000000 o"
b0 q"
b0 y"
b0 ##
bx00000000 d#
b111000000000000 )"
b111000000000000 d"
b111000000000000 p"
b111000000000000 x"
b111000000000000 "#
b0 t
b0 ,$
b0 ("
b0 e"
b1111111111111111 $"
b1111111111111111 0#
b111000000000000 %"
b111000000000000 /#
b0 u
b0 -$
b101 v#
b101 }#
b11000 g
b100000000000000000011101111 h
b100000000000000000011101111 G#
b0 p
b0 D#
b0 *$
b101 o
b101 E#
b101 +$
b1010 q
b0 r
0y
1v
b10011 A
b0 6#
b101 ~
b101 Q#
b1100 &"
b10 q#
b10 "$
b1111111111111 j#
b11111 e#
b111111 X#
b1 V
b1 b"
b0 W
b0 a"
b10000000000000000 d
b10000000000000000 )$
b11000 f
b10100 U"
b10100 F#
b10100000000010100010011 R"
b10100000000010100010011 4#
b10100000000010100010011 H#
b10100 T"
b10000 S"
b10 N"
b10 _"
b100 L"
b100 ^"
b0 J"
b0 C#
b10 ?"
b10 ,#
b1100 '"
b0 @"
b111000000000000 M"
b10000 I"
b1100 H"
1E"
0K"
b1100 7"
b1000 6"
b111 ."
b111 s#
b111 $$
b1111111111111111 -"
b1111111111111111 U#
b10 Y"
b10 `"
b10 ($
b0 X"
b10000000000000000 V"
b111000000000000 ;
1O
#60000
0O
#65000
13#
0*#
1h"
0+#
02#
1i"
1n"
b11111111111111111111111111111011 m"
bx d#
b101 q"
b101 y"
b101 ##
b0 l"
b0 r"
b0 w"
b0 v"
b0 u"
b0 t"
b0 s"
b0 j"
b0 z"
b0 !#
b0 ~"
b0 }"
b0 |"
b0 {"
b0 k"
b0 $#
b0 )#
b0 (#
b0 '#
b0 &#
b0 %#
b101 *"
b101 f"
b101 o"
b0 1#
b0 $"
b0 0#
b101 ("
b101 e"
b0 )"
b0 d"
b0 p"
b0 x"
b0 "#
b1111111111111111 d
b1111111111111111 )$
b11 q#
b11 "$
b10 f#
b10 h#
b10 k#
b1000000000000 j#
b0 e#
b0 X#
b0 V
b0 b"
b0 %"
b0 /#
b10000 &"
b0 o
b0 E#
b0 +$
b1 q
b1010 !"
b1010 @#
b10 {
b10 A#
b10 w
b10 B#
b1101111 A
b10 5#
b1000000 ~
b1000000 Q#
b110 v#
b110 }#
b11100 g
b11111111111111110000000100110111 h
b11111111111111110000000100110111 G#
b10000000000000000 -
b1111111111111111 V"
b10000 7"
b1100 6"
b0 9"
b0 ]"
b10 0"
b10 R#
b1100 ."
b1100 s#
b1100 $$
b1111111111111111 ;"
b1111111111111111 V#
b111000000000000 -"
b111000000000000 U#
15"
0:"
b101 N"
b101 _"
b0 L"
b0 ^"
b1010 J"
b1010 C#
b0 ?"
b0 ,#
b10101 '"
b101 @"
b0 M"
b10100 I"
b10000 H"
0E"
1K"
b100000000000000000011101111 R"
b100000000000000000011101111 4#
b100000000000000000011101111 H#
b11000 T"
b10100 S"
b11100 f
b11000 U"
b11000 F#
1O
#70000
0O
#75000
b11111111111111111111111111101000 m"
b11000 *"
b11000 f"
b11000 o"
b11000 q"
b11000 y"
b11000 ##
b0 d#
b11000 ("
b11000 e"
1#"
b111 v#
b111 }#
b100000 g
b1000100010000000100011 h
b1000100010000000100011 G#
b11110 p
b11110 D#
b11110 *$
b11111 o
b11111 E#
b11111 +$
b10 q
b0 {
b0 A#
b1 w
b1 B#
b110111 A
b1111111 5#
b11111111111111110000000000000000 ~
b11111111111111110000000000000000 Q#
b10100 &"
1-#
b100 q#
b100 "$
b0 f#
b0 h#
b0 k#
b101 j#
b101 e#
b101 X#
b111000000000000 d
b111000000000000 )$
b1111111111111111 C
b1111111111111111 Y
b1111111111111111 Y#
b0 W#
b100000 f
b11100 U"
b11100 F#
b11111111111111110000000100110111 R"
b11111111111111110000000100110111 4#
b11111111111111110000000100110111 H#
b11100 T"
b11000 S"
b0 N"
b0 _"
b1 J"
b1 C#
b1010100 '"
b1000000 @"
b11000 I"
b10100 H"
b1010 ="
b1010 c"
b10 G"
b10 C"
b10100 7"
b10000 6"
b1010 9"
b1010 ]"
b0 0"
b0 R#
b10101 ."
b10101 s#
b10101 $$
b0 ;"
b0 V#
b101 -"
b101 U#
05"
1:"
b0 Y"
b0 `"
b0 ($
b111000000000000 V"
0Z"
b1111111111111111 -
1O
#80000
0O
#85000
0h"
b10000000000000000 m"
0g"
b11111111111111110000000000000000 *"
b11111111111111110000000000000000 f"
b11111111111111110000000000000000 o"
b0 q"
b0 y"
b0 ##
b111000000000000 u
b111000000000000 -$
b1111111111111111 t
b1111111111111111 ,$
1+"
1""
1n
1w#
b11111111111111110000000000000000 ("
b11111111111111110000000000000000 e"
0#"
b101 d
b101 )$
b101 q#
b101 "$
b11000 j#
b11000 e#
b11000 X#
1i
b11 l
b11 |#
b11000 &"
0-#
b100 p
b100 D#
b100 *$
b10 o
b10 E#
b10 +$
b0 q
b10 r
b0 !"
b0 @#
1y
0v
b100011 A
b0 5#
b10 6#
b0 ~
b0 Q#
b1000 v#
b1000 }#
b1010100 g
b10100000000010100010011 h
b10100000000010100010011 G#
b1010 Y"
b1010 `"
b1010 ($
b101 V"
1Z"
b11000 7"
b10100 6"
b1 9"
b1 ]"
18"
b1010100 ."
b1010100 s#
b1010100 $$
b11000 -"
b11000 U#
b10 3"
b10 t#
b11111 N"
b11111 _"
b11110 L"
b11110 ^"
b10 J"
b10 C#
b11111111111111110000000000011000 '"
b11111111111111110000000000000000 @"
b11100 I"
b11000 H"
b1 G"
b0 C"
b1000100010000000100011 R"
b1000100010000000100011 4#
b1000100010000000100011 H#
b100000 T"
b11100 S"
b100100 f
b100000 U"
b100000 F#
1O
#90000
0O
