Non-Forwarding/10_sim/non_fwd_tb.vcd
$date
	Thu Dec 12 22:19:29 2024
$end
$version
	Icarus Verilog
$end
$timescale
	1ps
$end
$scope module non_fwd_tb $end
$var wire 1 ! is_branch $end
$var wire 32 " reg0 [31:0] $end
$var wire 32 # reg1 [31:0] $end
$var wire 32 $ reg10 [31:0] $end
$var wire 32 % reg11 [31:0] $end
$var wire 32 & reg12 [31:0] $end
$var wire 32 ' reg13 [31:0] $end
$var wire 32 ( reg14 [31:0] $end
$var wire 32 ) reg15 [31:0] $end
$var wire 32 * reg16 [31:0] $end
$var wire 32 + reg17 [31:0] $end
$var wire 32 , reg18 [31:0] $end
$var wire 32 - reg19 [31:0] $end
$var wire 32 . reg2 [31:0] $end
$var wire 32 / reg20 [31:0] $end
$var wire 32 0 reg21 [31:0] $end
$var wire 32 1 reg22 [31:0] $end
$var wire 32 2 reg23 [31:0] $end
$var wire 32 3 reg24 [31:0] $end
$var wire 32 4 reg25 [31:0] $end
$var wire 32 5 reg26 [31:0] $end
$var wire 32 6 reg27 [31:0] $end
$var wire 32 7 reg28 [31:0] $end
$var wire 32 8 reg29 [31:0] $end
$var wire 32 9 reg3 [31:0] $end
$var wire 32 : reg30 [31:0] $end
$var wire 32 ; reg31 [31:0] $end
$var wire 32 < reg4 [31:0] $end
$var wire 32 = reg5 [31:0] $end
$var wire 32 > reg6 [31:0] $end
$var wire 32 ? reg7 [31:0] $end
$var wire 32 @ reg8 [31:0] $end
$var wire 32 A reg9 [31:0] $end
$var wire 7 B type_instr [6:0] $end
$var wire 32 C o_pc_debug [31:0] $end
$var wire 32 D o_io_ledr [31:0] $end
$var wire 32 E o_io_ledg [31:0] $end
$var wire 32 F o_io_lcd [31:0] $end
$var wire 7 G o_io_hex7 [6:0] $end
$var wire 7 H o_io_hex6 [6:0] $end
$var wire 7 I o_io_hex5 [6:0] $end
$var wire 7 J o_io_hex4 [6:0] $end
$var wire 7 K o_io_hex3 [6:0] $end
$var wire 7 L o_io_hex2 [6:0] $end
$var wire 7 M o_io_hex1 [6:0] $end
$var wire 7 N o_io_hex0 [6:0] $end
$var wire 1 O o_insn_vld $end
$var wire 1 P is_jump $end
$var reg 1 Q i_clk $end
$var reg 4 R i_io_btn [3:0] $end
$var reg 32 S i_io_sw [31:0] $end
$var reg 1 T i_rst_n $end
$var integer 32 U br_cnt [31:0] $end
$var integer 32 V br_correct_cnt [31:0] $end
$var integer 32 W br_miss_cnt [31:0] $end
$var integer 32 X cycle [31:0] $end
$var integer 32 Y instr_cnt [31:0] $end
$scope module non_fwd_inst $end
$var wire 1 Q i_clk $end
$var wire 4 Z i_io_btn [3:0] $end
$var wire 32 [ i_io_sw [31:0] $end
$var wire 1 T i_rstn $end
$var wire 1 O o_insn_vld $end
$var wire 32 \ o_pc_debug [31:0] $end
$var wire 1 ] pc_wren $end
$var wire 32 ^ o_io_ledr [31:0] $end
$var wire 32 _ o_io_ledg [31:0] $end
$var wire 32 ` o_io_lcd [31:0] $end
$var wire 7 a o_io_hex7 [6:0] $end
$var wire 7 b o_io_hex6 [6:0] $end
$var wire 7 c o_io_hex5 [6:0] $end
$var wire 7 d o_io_hex4 [6:0] $end
$var wire 7 e o_io_hex3 [6:0] $end
$var wire 7 f o_io_hex2 [6:0] $end
$var wire 7 g o_io_hex1 [6:0] $end
$var wire 7 h o_io_hex0 [6:0] $end
$var wire 32 i WB_rd_data [31:0] $end
$var wire 32 j MEM_lsu_rdata [31:0] $end
$var wire 32 k IF_pcplus4 [31:0] $end
$var wire 32 l IF_pcnext [31:0] $end
$var wire 32 m IF_instr [31:0] $end
$var wire 1 n IFIDreg_wren $end
$var wire 1 o IFIDreg_clr $end
$var wire 5 p IFID_rs2 [4:0] $end
$var wire 5 q IFID_rs1 [4:0] $end
$var wire 5 r IFID_rd [4:0] $end
$var wire 3 s IFID_func3 [2:0] $end
$var wire 1 t ID_wb_sel $end
$var wire 32 u ID_rs2_data [31:0] $end
$var wire 32 v ID_rs1_data [31:0] $end
$var wire 1 w ID_rd_wren $end
$var wire 2 x ID_opb_sel [1:0] $end
$var wire 1 y ID_opa_sel $end
$var wire 1 z ID_mem_wren $end
$var wire 1 { ID_mem_rden $end
$var wire 2 | ID_is_uncbr [1:0] $end
$var wire 1 } ID_is_br $end
$var wire 1 ~ ID_insn_vld $end
$var wire 32 !" ID_imm [31:0] $end
$var wire 4 "" ID_alu_op [3:0] $end
$var wire 1 #" IDEXreg_clr $end
$var wire 1 $" EX_pcsel $end
$var wire 32 %" EX_br_base [31:0] $end
$var wire 32 &" EX_br_addr [31:0] $end
$var wire 32 '" EX_alu_opb [31:0] $end
$var wire 32 (" EX_alu_opa [31:0] $end
$var wire 32 )" EX_alu_data [31:0] $end
$var wire 1 *" EXMEMreg_clr $end
$var reg 32 +" EXMEM_alu_data [31:0] $end
$var reg 32 ," EXMEM_br_addr [31:0] $end
$var reg 3 -" EXMEM_func3 [2:0] $end
$var reg 1 ." EXMEM_insn_vld $end
$var reg 1 /" EXMEM_is_br $end
$var reg 2 0" EXMEM_is_uncbr [1:0] $end
$var reg 1 1" EXMEM_mem_rden $end
$var reg 1 2" EXMEM_mem_wren $end
$var reg 32 3" EXMEM_pc [31:0] $end
$var reg 1 4" EXMEM_pcsel $end
$var reg 5 5" EXMEM_rd [4:0] $end
$var reg 1 6" EXMEM_rd_wren $end
$var reg 32 7" EXMEM_rs2_data [31:0] $end
$var reg 1 8" EXMEM_wb_sel $end
$var reg 4 9" IDEX_alu_op [3:0] $end
$var reg 3 :" IDEX_func3 [2:0] $end
$var reg 32 ;" IDEX_imm [31:0] $end
$var reg 1 <" IDEX_insn_vld $end
$var reg 1 =" IDEX_is_br $end
$var reg 2 >" IDEX_is_uncbr [1:0] $end
$var reg 1 ?" IDEX_mem_rden $end
$var reg 1 @" IDEX_mem_wren $end
$var reg 1 A" IDEX_opa_sel $end
$var reg 2 B" IDEX_opb_sel [1:0] $end
$var reg 32 C" IDEX_pc [31:0] $end
$var reg 32 D" IDEX_pcplus4 [31:0] $end
$var reg 5 E" IDEX_rd [4:0] $end
$var reg 1 F" IDEX_rd_wren $end
$var reg 32 G" IDEX_rs1_data [31:0] $end
$var reg 32 H" IDEX_rs2_data [31:0] $end
$var reg 1 I" IDEX_wb_sel $end
$var reg 32 J" IFID_instr [31:0] $end
$var reg 32 K" IFID_pc [31:0] $end
$var reg 32 L" IFID_pcplus4 [31:0] $end
$var reg 32 M" IF_pc [31:0] $end
$var reg 32 N" MEMWB_alu_data [31:0] $end
$var reg 1 O" MEMWB_insn_vld $end
$var reg 32 P" MEMWB_lsu_rdata [31:0] $end
$var reg 32 Q" MEMWB_pc [31:0] $end
$var reg 5 R" MEMWB_rd [4:0] $end
$var reg 1 S" MEMWB_rd_wren $end
$var reg 1 T" MEMWB_wb_sel $end
$scope module inst_alu $end
$var wire 4 U" i_alu_op [3:0] $end
$var wire 32 V" i_operand_a [31:0] $end
$var wire 32 W" i_operand_b [31:0] $end
$var wire 32 X" o_alu_data [31:0] $end
$var wire 1 Y" overflow $end
$var wire 1 Z" signed_lt $end
$var wire 1 [" unsigned_lt $end
$var wire 32 \" temp_srl [31:0] $end
$var wire 32 ]" temp_sra [31:0] $end
$var wire 32 ^" temp_sll [31:0] $end
$var wire 32 _" temp [31:0] $end
$var wire 1 `" carry $end
$var reg 32 a" alu_temp [31:0] $end
$scope module u1 $end
$var wire 32 b" i_operand_a [31:0] $end
$var wire 5 c" i_operand_b [4:0] $end
$var wire 32 d" o_sll_data [31:0] $end
$var reg 32 e" temp1 [31:0] $end
$var reg 32 f" temp2 [31:0] $end
$var reg 32 g" temp3 [31:0] $end
$var reg 32 h" temp4 [31:0] $end
$var reg 32 i" temp5 [31:0] $end
$upscope $end
$scope module u2 $end
$var wire 32 j" i_operand_a [31:0] $end
$var wire 5 k" i_operand_b [4:0] $end
$var wire 32 l" o_srl_data [31:0] $end
$var reg 32 m" temp1 [31:0] $end
$var reg 32 n" temp2 [31:0] $end
$var reg 32 o" temp3 [31:0] $end
$var reg 32 p" temp4 [31:0] $end
$var reg 32 q" temp5 [31:0] $end
$upscope $end
$scope module u3 $end
$var wire 32 r" i_operand_a [31:0] $end
$var wire 5 s" i_operand_b [4:0] $end
$var wire 32 t" o_sra_data [31:0] $end
$var reg 32 u" temp1 [31:0] $end
$var reg 32 v" temp2 [31:0] $end
$var reg 32 w" temp3 [31:0] $end
$var reg 32 x" temp4 [31:0] $end
$var reg 32 y" temp5 [31:0] $end
$upscope $end
$upscope $end
$scope module inst_bru $end
$var wire 1 z" br_less $end
$var wire 1 {" br_less_uns $end
$var wire 3 |" func3 [2:0] $end
$var wire 1 =" is_br $end
$var wire 1 }" is_uncbr $end
$var wire 1 ~" overflow $end
$var wire 32 !# rs1_data [31:0] $end
$var wire 32 "# rs2_data [31:0] $end
$var wire 32 ## sub [31:0] $end
$var wire 1 $# carry $end
$var wire 1 %# br_equal $end
$var reg 1 $" pc_sel $end
$upscope $end
$scope module inst_ctrl_unit $end
$var wire 32 &# instr [31:0] $end
$var wire 7 '# func7 [6:0] $end
$var wire 3 (# func3 [2:0] $end
$var parameter 7 )# B_type $end
$var parameter 7 *# I_type_IMM $end
$var parameter 7 +# I_type_JALR $end
$var parameter 7 ,# I_type_LD $end
$var parameter 7 -# J_type $end
$var parameter 7 .# R_type $end
$var parameter 7 /# S_type $end
$var parameter 7 0# U_type_AUIPC $end
$var parameter 7 1# U_type_LUI $end
$var reg 4 2# alu_op [3:0] $end
$var reg 1 ~ insn_vld $end
$var reg 1 } is_br $end
$var reg 2 3# is_uncbr [1:0] $end
$var reg 1 { mem_rden $end
$var reg 1 z mem_wren $end
$var reg 1 y op_a_sel $end
$var reg 2 4# op_b_sel [1:0] $end
$var reg 1 w rd_wren $end
$var reg 1 t wb_sel $end
$upscope $end
$scope module inst_hdu $end
$var wire 1 /" EXMEM_is_br $end
$var wire 1 5# EXMEM_is_uncbr $end
$var wire 1 4" EXMEM_pcsel $end
$var wire 5 6# EXMEM_rd [4:0] $end
$var wire 1 6" EXMEM_rdwren $end
$var wire 5 7# IDEX_rd [4:0] $end
$var wire 1 F" IDEX_rdwren $end
$var wire 5 8# IFID_rs1 [4:0] $end
$var wire 5 9# IFID_rs2 [4:0] $end
$var reg 1 *" EXMEM_clear $end
$var reg 1 #" IDEX_clear $end
$var reg 1 o IFID_clear $end
$var reg 1 n IFID_wren $end
$var reg 1 ] pc_wren $end
$upscope $end
$scope module inst_imem $end
$var wire 32 :# i_addr [31:0] $end
$var wire 32 ;# o_data [31:0] $end
$upscope $end
$scope module inst_immgen $end
$var wire 32 <# instruction_i [31:0] $end
$var parameter 5 =# B_type $end
$var parameter 5 ># I_type_IMM $end
$var parameter 5 ?# I_type_JALR $end
$var parameter 5 @# I_type_LD $end
$var parameter 5 A# J_type $end
$var parameter 5 B# R_type $end
$var parameter 5 C# S_type $end
$var parameter 5 D# U_type $end
$var reg 32 E# immediate_o [31:0] $end
$upscope $end
$scope module inst_lsu $end
$var wire 1 Q i_clk $end
$var wire 3 F# i_func3 [2:0] $end
$var wire 32 G# i_io_btn [31:0] $end
$var wire 32 H# i_io_sw [31:0] $end
$var wire 32 I# i_lsu_addr [31:0] $end
$var wire 1 2" i_lsu_wren $end
$var wire 1 T i_rst_n $end
$var wire 32 J# i_st_data [31:0] $end
$var wire 32 K# output_mem_out [31:0] $end
$var wire 6 L# output_mem_addr [5:0] $end
$var wire 32 M# o_io_ledr [31:0] $end
$var wire 32 N# o_io_ledg [31:0] $end
$var wire 32 O# o_io_lcd [31:0] $end
$var wire 7 P# o_io_hex7 [6:0] $end
$var wire 7 Q# o_io_hex6 [6:0] $end
$var wire 7 R# o_io_hex5 [6:0] $end
$var wire 7 S# o_io_hex4 [6:0] $end
$var wire 7 T# o_io_hex3 [6:0] $end
$var wire 7 U# o_io_hex2 [6:0] $end
$var wire 7 V# o_io_hex1 [6:0] $end
$var wire 7 W# o_io_hex0 [6:0] $end
$var wire 32 X# input_mem_out [31:0] $end
$var wire 5 Y# input_mem_addr [4:0] $end
$var wire 2 Z# i_s_length [1:0] $end
$var wire 1 [# i_l_unsigned $end
$var wire 2 \# i_l_length [1:0] $end
$var wire 32 ]# data_mem_out [31:0] $end
$var wire 13 ^# data_mem_addr [12:0] $end
$var reg 3 _# cs [2:0] $end
$var reg 32 `# ld_temp_data [31:0] $end
$var reg 32 a# o_ld_data [31:0] $end
$scope begin $ivl_for_loop0 $end
$var integer 32 b# i [31:0] $end
$upscope $end
$scope begin $ivl_for_loop1 $end
$var integer 32 c# i [31:0] $end
$upscope $end
$scope begin $ivl_for_loop2 $end
$var integer 32 d# i [31:0] $end
$upscope $end
$upscope $end
$scope module inst_regfile $end
$var wire 1 Q clk_i $end
$var wire 5 e# rd_addr [4:0] $end
$var wire 32 f# rd_data [31:0] $end
$var wire 1 S" rd_wren $end
$var wire 5 g# rs1_addr [4:0] $end
$var wire 5 h# rs2_addr [4:0] $end
$var wire 1 T rst_ni $end
$var wire 32 i# rs2_data [31:0] $end
$var wire 32 j# rs1_data [31:0] $end
$scope begin $ivl_for_loop3 $end
$var integer 32 k# i [31:0] $end
$upscope $end
$upscope $end
$upscope $end
$upscope $end
$enddefinitions $end
$comment Show the parameter values. $end
$dumpall
b1101 D#
b1000 C#
b1100 B#
b11011 A#
b0 @#
b11001 ?#
b100 >#
b11000 =#
b110111 1#
b10111 0#
b100011 /#
b110011 .#
b1101111 -#
b11 ,#
b1100111 +#
b10011 *#
b1100011 )#
$end
#0
$dumpvars
b100000 k#
b0 j#
b0 i#
b0 h#
b0 g#
b0 f#
b0 e#
b100000 d#
b1000000 c#
b10000000000000 b#
b0 a#
b0 `#
b0 _#
b0 ^#
b0 ]#
b0 \#
0[#
b0 Z#
b0 Y#
b0 X#
b0 W#
b0 V#
b0 U#
b0 T#
b0 S#
b0 R#
b0 Q#
b0 P#
b0 O#
b0 N#
b0 M#
b0 L#
b0 K#
b0 J#
b0 I#
bx H#
b0xxxx G#
b0 F#
b0 E#
b0 <#
b111100000000010100010011 ;#
b0 :#
b0 9#
b0 8#
b0 7#
b0 6#
05#
b0 4#
b0 3#
b0 2#
b0 (#
b0 '#
b0 &#
1%#
0$#
b0 ##
b0 "#
b0 !#
0~"
0}"
b0 |"
0{"
0z"
b0 y"
b0 x"
b0 w"
b0 v"
b0 u"
b0 t"
b0 s"
b0 r"
b0 q"
b0 p"
b0 o"
b0 n"
b0 m"
b0 l"
b0 k"
b0 j"
b0 i"
b0 h"
b0 g"
b0 f"
b0 e"
b0 d"
b0 c"
b0 b"
b0 a"
0`"
b0 _"
b0 ^"
b0 ]"
b0 \"
0["
0Z"
0Y"
b0 X"
b0 W"
b0 V"
b0 U"
0T"
0S"
b0 R"
b0 Q"
b0 P"
0O"
b0 N"
b0 M"
b0 L"
b0 K"
b0 J"
0I"
b0 H"
b0 G"
0F"
b0 E"
b0 D"
b0 C"
b0 B"
0A"
0@"
0?"
b0 >"
0="
0<"
b0 ;"
b0 :"
b0 9"
08"
b0 7"
06"
b0 5"
04"
b0 3"
02"
01"
b0 0"
0/"
0."
b0 -"
b0 ,"
b0 +"
0*"
b0 )"
b0 ("
b0 '"
b0 &"
b0 %"
0$"
0#"
b0 ""
b0 !"
0~
0}
b0 |
0{
0z
0y
b0 x
0w
b0 v
b0 u
0t
b0 s
b0 r
b0 q
b0 p
0o
1n
b111100000000010100010011 m
b100 l
b100 k
b0 j
b0 i
b0 h
b0 g
b0 f
b0 e
b0 d
b0 c
b0 b
b0 a
b0 `
b0 _
b0 ^
1]
b0 \
bx [
bx Z
b0 Y
b0 X
b0 W
b0 V
b0 U
0T
bx S
bx R
0Q
0P
0O
b0 N
b0 M
b0 L
b0 K
b0 J
b0 I
b0 H
b0 G
b0 F
b0 E
b0 D
b0 C
b0 B
b0 A
b0 @
b0 ?
b0 >
b0 =
b0 <
b0 ;
b0 :
b0 9
b0 8
b0 7
b0 6
b0 5
b0 4
b0 3
b0 2
b0 1
b0 0
b0 /
b0 .
b0 -
b0 ,
b0 +
b0 *
b0 )
b0 (
b0 '
b0 &
b0 %
b0 $
b0 #
b0 "
0!
$end
#5000
b100000 d#
b1000000 c#
b10000000000000 b#
b100000 k#
1Q
#10000
0Q
1T
#15000
b1000 l
b1010010011 m
b1010010011 ;#
b1111 p
b1111 9#
b1111 h#
b1010 r
1~
b1 x
b1 4#
1w
b10011 B
b1111 !"
b1111 E#
bx X#
b1000 k
b100 M"
b100 :#
b111100000000010100010011 J"
b111100000000010100010011 &#
b111100000000010100010011 <#
b100 L"
b1 X
1Q
#20000
0Q
#25000
1Z"
b11111111111111111111111111110001 _"
1["
1`"
b1111 )"
b1111 X"
b1111 a"
b1111 c"
b1111 k"
b1111 s"
b1111 '"
b1111 W"
b0 p
b0 9#
b0 h#
b101 r
b0 !"
b0 E#
b1100 l
b100000000001100010011 m
b100000000001100010011 ;#
b1010 E"
b1010 7#
b1111 &"
b1111 ;"
b100 D"
b1 B"
1F"
1<"
b1010010011 J"
b1010010011 &#
b1010010011 <#
b1000 L"
b100 K"
b1100 k
b1000 M"
b1000 :#
b10 X
1Q
#30000
0Q
#35000
0Z"
b0 _"
0["
0`"
b0 )"
b0 X"
b0 a"
b0 c"
b0 k"
b0 s"
b0xxxx00000000 X#
b0 '"
b0 W"
b10000 l
b100000000111000010011 m
b100000000111000010011 ;#
b1 p
b1 9#
b1 h#
b110 r
b1 !"
b1 E#
b100 %"
b1111 ^#
b1111 Y#
b1111 L#
b10000 k
b1100 M"
b1100 :#
b100000000001100010011 J"
b100000000001100010011 &#
b100000000001100010011 <#
b1100 L"
b1000 K"
b101 E"
b101 7#
b100 &"
b0 ;"
b1000 D"
b100 C"
b1010 5"
b1010 6#
b1111 ,"
b1111 +"
b1111 I#
16"
1."
b11 X
1Q
#40000
0Q
#45000
1Z"
b11111111111111111111111111111111 _"
1["
1`"
bx X#
b1 )"
b1 X"
b1 a"
b1 c"
b1 k"
b1 s"
b1 '"
b1 W"
b1111 i
b1111 f#
b0 ^#
b0 Y#
b0 L#
b1000 %"
b11100 r
b10100 l
b1010000111001100011 m
b1010000111001100011 ;#
b1010 R"
b1010 e#
b1111 N"
1S"
1O
1O"
b100 3"
b101 5"
b101 6#
b100 ,"
b0 +"
b0 I#
b110 E"
b110 7#
b1001 &"
b1 ;"
b1100 D"
b1000 C"
b100000000111000010011 J"
b100000000111000010011 &#
b100000000111000010011 <#
b10000 L"
b1100 K"
b10100 k
b10000 M"
b10000 :#
b100 X
1Q
#50000
0Q
#55000
b1111 v
b1111 j#
b0xxxxxxxxxxxxxxxxxxxxxxxx X#
b11000 l
b1110001010000110001100011 m
b1110001010000110001100011 ;#
b1010 q
b1010 8#
b1010 g#
b0 p
b0 9#
b0 h#
1}
b0 x
b0 4#
0w
b1100011 B
b11100 !"
b11100 E#
b1101 &"
b1100 %"
b1 ^#
b1 Y#
b1 L#
b0 i
b0 f#
b11000 k
b10100 M"
b10100 :#
b1010000111001100011 J"
b1010000111001100011 &#
b1010000111001100011 <#
b10100 L"
b10000 K"
b11100 E"
b11100 7#
b10000 D"
b1100 C"
b1000 3"
b110 5"
b110 6#
b1001 ,"
b1 +"
b1 I#
b100 C
b100 \
b100 Q"
b101 R"
b101 e#
b0 N"
b1111 $
b1 Y
b101 X
1Q
#60000
0Q
#65000
0Z"
0%#
b1111 _"
0["
0`"
b1111 ^"
b1111 d"
b1111 i"
b1111 h"
b1111 g"
b1111 f"
b1111 e"
b1111 \"
b1111 l"
b1111 q"
b1111 p"
b1111 o"
b1111 n"
b1111 m"
b1111 ]"
b1111 t"
b1111 y"
b1111 x"
b1111 w"
b1111 v"
b1111 u"
b1111 ##
b1111 )"
b1111 X"
b1111 a"
b0 c"
b0 k"
b0 s"
b1 i
b1 f#
b1111 ("
b1111 V"
b1111 b"
b1111 j"
b1111 r"
b10000 %"
b0 '"
b0 W"
1#"
0n
0]
0$"
b11100 p
b11100 9#
b11100 h#
b11000 r
b11000 !"
b11000 E#
b11100 l
b11000101000001110110011 m
b11000101000001110110011 ;#
b1000 C
b1000 \
b1000 Q"
b110 R"
b110 e#
b1 N"
b1100 3"
b11100 5"
b11100 6#
b1101 ,"
b101100 &"
b11100 ;"
b1111 G"
b1111 !#
b10100 D"
b10000 C"
b0 B"
0F"
1="
b1110001010000110001100011 J"
b1110001010000110001100011 &#
b1110001010000110001100011 <#
b11000 L"
b10100 K"
b11100 k
b11000 M"
b11000 :#
b10 Y
b110 X
1Q
#70000
0Q
#75000
1%#
b0 _"
b0xxxx00000000 X#
b1 u
b1 i#
b0 ^"
b0 d"
b0 i"
b0 h"
b0 g"
b0 f"
b0 e"
b0 \"
b0 l"
b0 q"
b0 p"
b0 o"
b0 n"
b0 m"
b0 ]"
b0 t"
b0 y"
b0 x"
b0 w"
b0 v"
b0 u"
b0 )"
b0 X"
b0 a"
b0 ##
b0 ("
b0 V"
b0 b"
b0 j"
b0 r"
b0 %"
b1111 ^#
b1111 Y#
b1111 L#
1n
1]
0#"
b0 E"
b0 7#
b0 &"
b0 ;"
b0 G"
b0 !#
b0 D"
b0 C"
0="
0<"
b10000 3"
b101100 ,"
b1111 +"
b1111 I#
06"
1!
1/"
b1100 C
b1100 \
b1100 Q"
b11100 R"
b11100 e#
b1 >
b11 Y
b111 X
1Q
#80000
0Q
#85000
0%#
bx X#
b1110 _"
b0 v
b0 j#
b1 c"
b1 k"
b1 s"
b11110 ^"
b11110 d"
b11110 i"
b11110 h"
b11110 g"
b11110 f"
b11110 e"
b111 \"
b111 l"
b111 q"
b111 p"
b111 o"
b111 n"
b111 m"
b111 ]"
b111 t"
b111 y"
b111 x"
b111 w"
b111 v"
b111 u"
b10000 )"
b10000 X"
b10000 a"
b1110 ##
b1111 i
b1111 f#
b0 ^#
b0 Y#
b0 L#
b1 '"
b1 W"
b1111 ("
b1111 V"
b1111 b"
b1111 j"
b1111 r"
b10100 %"
0$"
b101 q
b101 8#
b101 g#
b110 p
b110 9#
b110 h#
b111 r
0}
1w
b110011 B
b0 !"
b0 E#
b100000 l
b110000001010010011 m
b110000001010010011 ;#
b1 7
b10000 C
b10000 \
b10000 Q"
b1111 N"
0S"
b0 3"
b0 5"
b0 6#
b0 ,"
b0 +"
b0 I#
0!
0/"
0."
b11000 E"
b11000 7#
b101100 &"
b11000 ;"
b1 H"
b1 "#
b1111 G"
b1111 !#
b11000 D"
b10100 C"
1="
1<"
b11000101000001110110011 J"
b11000101000001110110011 &#
b11000101000001110110011 <#
b11100 L"
b11000 K"
b100000 k
b11100 M"
b11100 :#
b1 V
b1 U
b100 Y
b1000 X
1Q
#90000
0Q
#95000
1Z"
1z"
b1 v
b1 j#
b0 u
b0 i#
b11111111111111111111111111111111 _"
1["
1`"
b0xxxx X#
b0 ^"
b0 d"
b0 i"
b0 h"
b0 g"
b0 f"
b0 e"
b0 \"
b0 l"
b0 q"
b0 p"
b0 o"
b0 n"
b0 m"
b0 ]"
b0 t"
b0 y"
b0 x"
b0 w"
b0 v"
b0 u"
b1 )"
b1 X"
b1 a"
b11111111111111111111111111111111 ##
1{"
1$#
b100100 l
b111000001100010011 m
b111000001100010011 ;#
b110 q
b110 8#
b110 g#
b0 p
b0 9#
b0 h#
b101 r
b1 x
b1 4#
b10011 B
b0 ("
b0 V"
b0 b"
b0 j"
b0 r"
b11000 %"
b10000 ^#
b10000 Y#
b10000 L#
b0 i
b0 f#
b100100 k
b100000 M"
b100000 :#
b110000001010010011 J"
b110000001010010011 &#
b110000001010010011 <#
b100000 L"
b11100 K"
b111 E"
b111 7#
b11000 &"
b0 ;"
b0 G"
b0 !#
b11100 D"
b11000 C"
1F"
0="
b10100 3"
b11000 5"
b11000 6#
b101100 ,"
b1 7"
b1 J#
b10000 +"
b10000 I#
1!
1/"
1."
b0 C
b0 \
b0 Q"
b0 R"
b0 e#
b0 N"
0O
0O"
b101 Y
b1001 X
1Q
#100000
0Q
#105000
0Z"
0%#
0z"
b0xxxxxxxxxxxxxxxxxxxxxxxx X#
b1 _"
0["
0`"
b0 v
b0 j#
b1 ^"
b1 d"
b1 i"
b1 h"
b1 g"
b1 f"
b1 e"
b1 \"
b1 l"
b1 q"
b1 p"
b1 o"
b1 n"
b1 m"
b1 ]"
b1 t"
b1 y"
b1 x"
b1 w"
b1 v"
b1 u"
b1 ##
0{"
0$#
b0 c"
b0 k"
b0 s"
b10000 i
b10000 f#
b1 ^#
b1 Y#
b1 L#
1#"
0n
0]
b1 ("
b1 V"
b1 b"
b1 j"
b1 r"
b11100 &"
b11100 %"
b0 '"
b0 W"
b111 q
b111 8#
b111 g#
b110 r
b101000 l
b11111111111101010000010100010011 m
b11111111111101010000010100010011 ;#
b10100 C
b10100 \
b10100 Q"
b11000 R"
b11000 e#
b10000 N"
1O
1O"
b11000 3"
b111 5"
b111 6#
b11000 ,"
b1 +"
b1 I#
16"
0!
0/"
b101 E"
b101 7#
b0 H"
b0 "#
b1 G"
b1 !#
b100000 D"
b11100 C"
b1 B"
b111000001100010011 J"
b111000001100010011 &#
b111000001100010011 <#
b100100 L"
b100000 K"
b101000 k
b100100 M"
b100100 :#
b10 V
b10 U
b1010 X
1Q
#110000
0Q
#115000
1%#
b0 _"
b1 v
b1 j#
b0 ^"
b0 d"
b0 i"
b0 h"
b0 g"
b0 f"
b0 e"
b0 \"
b0 l"
b0 q"
b0 p"
b0 o"
b0 n"
b0 m"
b0 ]"
b0 t"
b0 y"
b0 x"
b0 w"
b0 v"
b0 u"
b0 )"
b0 X"
b0 a"
b0 ##
b0 ("
b0 V"
b0 b"
b0 j"
b0 r"
b0 &"
b0 %"
1n
1]
0#"
b1 i
b1 f#
b0 E"
b0 7#
b0 G"
b0 !#
b0 D"
b0 C"
b0 B"
0F"
0<"
b11100 3"
b101 5"
b101 6#
b11100 ,"
b0 7"
b0 J#
b11000 C
b11000 \
b11000 Q"
b111 R"
b111 e#
b1 N"
1S"
b110 Y
b1011 X
1Q
#120000
0Q
#125000
0%#
b1111 v
b1111 j#
bx X#
b1 _"
b1 ^"
b1 d"
b1 i"
b1 h"
b1 g"
b1 f"
b1 e"
b1 \"
b1 l"
b1 q"
b1 p"
b1 o"
b1 n"
b1 m"
b1 ]"
b1 t"
b1 y"
b1 x"
b1 w"
b1 v"
b1 u"
b1 )"
b1 X"
b1 a"
b1 ##
b0 ^#
b0 Y#
b0 L#
b1 ("
b1 V"
b1 b"
b1 j"
b1 r"
b100000 &"
b100000 %"
b1010 q
b1010 8#
b1010 g#
b11111 p
b11111 9#
b11111 h#
b1010 r
b1111111 '#
b11111111111111111111111111111111 !"
b11111111111111111111111111111111 E#
b101100 l
b11111110100111111111000001101111 m
b11111110100111111111000001101111 ;#
b1 ?
b11100 C
b11100 \
b11100 Q"
b101 R"
b101 e#
b0 3"
b0 5"
b0 6#
b0 ,"
b0 +"
b0 I#
06"
0."
b110 E"
b110 7#
b1 G"
b1 !#
b100100 D"
b100000 C"
b1 B"
1F"
1<"
b11111111111101010000010100010011 J"
b11111111111101010000010100010011 &#
b11111111111101010000010100010011 <#
b101000 L"
b100100 K"
b101100 k
b101000 M"
b101000 :#
b111 Y
b1100 X
1Q
#130000
0Q
#135000
1["
1`"
b0 v
b0 j#
b11111 c"
b11111 k"
b11111 s"
b10000 _"
b0xxxxxxxxxxxxxxxxxxxxxxxx X#
b11111111111111111111111111111111 '"
b11111111111111111111111111111111 W"
b10000000000000000000000000000000 ^"
b10000000000000000000000000000000 d"
b10000000000000000000000000000000 i"
b1111000000000000000 h"
b11110000000 g"
b1111000 f"
b11110 e"
b0 \"
b0 l"
b0 q"
b0 p"
b0 o"
b1 n"
b111 m"
b0 ]"
b0 t"
b0 y"
b0 x"
b0 w"
b1 v"
b111 u"
b1110 )"
b1110 X"
b1110 a"
b1111 ##
b110000 l
b110000010100010011 m
b110000010100010011 ;#
b11111 q
b11111 8#
b11111 g#
b1001 p
b1001 9#
b1001 h#
b0 r
b111 s
b1010 ""
b1010 2#
b10 |
b10 3#
b10 x
b10 4#
b1101111 B
b111 (#
b11111111111111111111111111101000 !"
b11111111111111111111111111101000 E#
b1111 ("
b1111 V"
b1111 b"
b1111 j"
b1111 r"
b100100 %"
b1 ^#
b1 Y#
b1 L#
0#"
1n
1]
b0 i
b0 f#
b110000 k
b101100 M"
b101100 :#
b11111110100111111111000001101111 J"
b11111110100111111111000001101111 &#
b11111110100111111111000001101111 <#
b101100 L"
b101000 K"
b1010 E"
b1010 7#
b100011 &"
b11111111111111111111111111111111 ;"
b1111 G"
b1111 !#
b101000 D"
b100100 C"
b100000 3"
b110 5"
b110 6#
b100000 ,"
b1 +"
b1 I#
16"
1."
b0 C
b0 \
b0 Q"
b0 R"
b0 e#
b0 N"
0S"
0O
0O"
b1 =
b1000 Y
b1101 X
1Q
#140000
0Q
